SERVICE DES ACCUEILLANTES D'ENFANTS CONVENTIONNEES,,,,,
 ISBW,"Rue de Gembloux, 2",1450,CORTIL,081/61.42.48,66 Acc.



MAISONS COMMUNALES D'ACCUEIL DE L'ENFANCE,,,,,

Les Sauverdias,Place Communale 4,1320,BEAUVECHAIN,010/86.83.50,21 places
