CRECHE,,,,,
"""LES P'TITS MOUSSES""","Route de Gembloux, 2",1450,CORTIL,081/62.27.10,25 places


SERVICE DES ACCUEILLANTES D'ENFANTS CONVENTIONNEES,,,,,
ISBW,"Rue de Gembloux, 2",1450,CORTIL,081/61.42.48,66 Acc.
