MAISON COMMUNALE D'ACCUEIL DE L'ENFANCE,,,,,
LES FLIBUSTIERS,"Av. des Combattants, 49",1470,BOUSVAL,067/79.11.39,16 places
LES PETITS BATEAUX,"Espace 2000, 10",1470,GENAPPE,067/79.42.89,24 places

SERVICE DES ACCUEILLANTES D'ENFANTS CONVENTIONNEES,,,,,
Adm. communale,"Avenue des Combattants, 49",1470,BOUSVAL,067/79.42.65,10 Acc.
