CRECHE,,,,,
LES LUTINS,"Rue St Jean, 4",1370,JODOIGNE,010/81.32.29,48 places
,,,,,
,,,,,
SERVICE DES ACCUEILLANTES D'ENFANTS CONVENTIONNEES,,,,,
ISBW,"Rue de Gembloux, 2",1450,CORTIL,081/61.42.48,66 Acc.
