CRECHE,,,,,
LES TIFFINS,"Av. Etang Decellier, 3",1310,LA HULPE,02/654.00.24,48 places


MAISON COMMUNALE D'ACCUEIL DE L'ENFANCE,,,,,
LES PETITS COQUINS,"Av. de la Reine, 1",1310,LA HULPE,02/656.08.69,12 places


SERVICE DES ACCUEILLANTES D'ENFANTS CONVENTIONNEES,,,,,
Crèche,"Rue Etang Decellier, 3",1310,LA HULPE,02/654.00.24,8 Acc.
