MAISONS COMMUNALES D'ACCUEIL DE L'ENFANCE,,,,,
LA RECRE,"Rue des Saules, 42",1380,OHAIN,02/353.04.03,24 places
LA COLINETTE,"Clos René Van Achter, 14",1380,MARANSART,02/633.57.78,18 places
LES LUCIOLES,"Rue du Vieux Monument, 7",1380,LASNE,02/633.29.23,15 places


SERVICE DES ACCUEILLANTES D'ENFANTS CONVENTIONNEES,,,,,
C.P.A.S.,"Clos René Van Achter, 14",1380,MARANSART,02/633.57.78,13 Acc.


PREGARDIENNAT,,,,,
"""LES MARMOUSETS""",Place Communale,1380,LASNE,02/634.05.74,18 places
