CRECHES,,,,,
Crèche Communale de Nivelles,Boulevard de la Dodaine,1400,NIVELLES,067/21.26.11,115 places
"Crèche ""Les Jeunes Pousses""","Rue Samiette, 3",1400,NIVELLES,067/21 43 82,25 places
"Crèche ""Maison des Enfants""","Rue Sainte Anne, 14",1400,NIVELLES,067/64.98.50,46 places
"Crèche ""Les Ouistitis""","Rue du Bosquet, 22",1400,NIVELLES,067/21.26.11,36 places
"Crèche ""Les Trois Petits Pas"" ","Avenue de France, 2",1400,NIVELLES,067/21.26.11,36 places

MAISON COMMUNALE D'ACCUEIL DE L'ENFANCE,,,,,
LES BENGALIS,"Allée des Bouvreuils, 5 A",1400,NIVELLES,067/21.26.11,18 places


SERVICE DES ACCUEILLANTES D'ENFANTS CONVENTIONNEES,,,,,
ASBL Crèche Communale de Nivelles,"Bld. de la Dodaine, 1",1400,NIVELLES,067/21.26.11,28 Acc.
