CRECHE,,,,,
LES OISILLONS,"Rue J. Lepage, 17",1360,PERWEZ,081/65.59.09,24 places


MAISON COMMUNALE D'ACCUEIL DE L'ENFANCE,,,,,
,,,,,

SERVICE DES ACCUEILLANTES D'ENFANTS CONVENTIONNEES,,,,,
ISBW,"Rue de Gembloux, 2",1450,CORTIL,081/61.42.48,66 Acc.
