CRECHES,,,,,
SOEURS LUCRECE ET LOUISA,"Rue Parmentier, 11",1430,REBECQ,067/63.74.71,30 places
L'ECOLLINE,"Rue Caporal Trésignies, 13",1430,REBECQ,067/89.39.90,18 places

MAISON COMMUNALE D'ACCUEIL DE L'ENFANCE,,,,,
PITCHOUNETS,"Rue Docteur Colson, 1",1430,REBECQ,067/89.39.90,24 places
SPIROUS ET COMPAGNIE,"Chemin du Croly, 9",1430,QUENAST,067/67.01.40,12 places
