CRECHES,,,,,
LA RIBAMBELLE,"Rue de Messe, 9 ",1330,RIXENSART,02/634.26.07,22 places 
LES PITCHOUS ,"Rue de Messe, 9 ",1330,RIXENSART,02/634.26.07,60 places

SERVICE DES ACCUEILLANTES D'ENFANTS CONVENTIONNEES,,,,,
Crèche,"Rue A. Collin, 11",1330,RIXENSART,02/634.26.07,13 Acc.
