CRECHES,,,,,
LES P'TITS BETCHAUS,"Rue Neuve Cour, 95",1480,TUBIZE,02/355.76.44,22 places
LES PITCHOUNETS,"Rue Dehase, 64",1480,TUBIZE,02/355.43.72,24 places


SERVICE DES ACCUEILLANTES D'ENFANTS CONVENTIONNEES,,,,,
C.P.A.S.,"Rue des Frères Taymans, 32",1480,TUBIZE,02/391.00.76,21 Acc.
