ACCUEILLANTES AUTONOMES,,,,,,,
,,,,,,,
GEVA Nancy ,,"Rue Emile Hecq, 8",1474,WAYS,067/21.47.77,4,places
,,,,,,,
DESMIDT Rachel,,"Rue du Béguinage, 7",1476,HOUTAINE LE VAL,067/33 17 22,4,places
,,,,,,,
DERIJCKE Laura,,"Rue de Charleroi, 10",1470,GENAPPE,0477/172.141,4,places
POLART Marie-Paule,,,,,0477/309.521,4,places
,,,,,,,
STOFKOOPER Audrey,,"Rue des Pierrailles, 21",1470,BOUSVAL,010/61.30.11,4,places
,,,,,,,
HALTE-ACCUEIL,,,,,,,
,,,,,,,
La Parenthèse ,Madame De Cunto ,"Rue de la Cressonnière, 87",1470,Genappe ,067/645450,7,places
,,,,,,,
MAISONS D'ENFANTS,,,,,,,
,,,,,,,
""" LES CROQ'NOTES""",Madame GLIMES,"Rue du Sclage, 15",1470,Bousval,0495/79.20.09,13,places
,,,,,,,
""" ABRACADABRA """,Monsieur Lambinet,"Pavé St Joseph, 6",1471,LOUPOIGNE,067/77.10.38,24,places
,,,,,,,
""" LES PETITS MATELOTS""",Madame Doudelet,"Rue de Namur, 15 C",1476,Houtain-le-Val,0479/62 95 15,13,places
