ACCUEILLANTES AUTONOMES,,,,,,,,,
,,,,,,,,,
,,,,,,,,,
BRISQUET Anne,,,"Rue du Beau Site, 56",1390,GREZ-DOICEAU,010/84.58.34,4,places,
,,,,,,,,,
MARICQ Aurore ,,,"Chaussée de Wavre, 263/1",1390,GREZ-DOICEAU,0477/62.21.26,4,places,
LAMBERTY Myriam,,,,,,0477/62.21.26,4,places,

HALTE-ACCUEIL,,,,,,,,,

MAISON D'ENFANTS,,,,,,,,,
,,,,,,,,,
"""BABY COOL""",Madame LEPOUTRE,,"Rue Constant Wauters, 12",1390,PECROT,010/84.03.75,10,places,
,,,,,,,,,
"""LES CHERUBINS""",Madame HERMANS,,"Rue de Wisconsin, 21",1390,GREZ-DOICEAU,010/45.78.60,30,places,
