ACCUEILLANTES AUTONOMES,,,,,,,,
,,,,,,,,
BLAVIER Dominique,,,Rue de la Procession,1315,Piétrebais,0493/135959,4,places
,,,,,,010/600835,,
HALTE-ACCUEIL ,,,,,,,,
,,,,,,,,
"""BEBE FUTE""",Madame CHAPELLE,,Place n°2,1315,OPPREBAIS,010/88.80.14,9,places
,,,,,,,,
"""BEBE BUS""",info@bbbus-bw.be,,"Chemin de la Carrière aux Pavés, 16",1315,INCOURT ,0490/420 920,9,places
,,,,,,,,
 MAISONS D'ENFANTS,,,,,,,,
,,,,,,,,
"""BEBE FUTE""",Madame CHAPELLE,,Place n°2,1315,OPPREBAIS,010/88.80.14,20,places
