ACCUEILLANTES AUTONOMES,,,,,,,,
,,,,,,,,
CASSART Valérie,,,"Rue du Sart, 4b",1460,ITTRE,0472/385.508,4,places
POLART Cristel,,,,,,0488/880.771,4,places
,,,,,,,,
VANDERSTEENEN Kristelle,,,"Chaussée de Nivelles, 12",1461,HAUT-ITTRE,02/366 21 85,4,places
