ACCUEILLANTES AUTONOMES,,,,,,,,,,,
,,,,,,,,,,,
MEHAUDENS Maryvonne,mehaudensmarie@hotmail.com,,Chaussée de Charleroi 54,1370,JODOIGNE,010/24.14.34,4,places,,,
,,,,,,,,,,,
COQUETTE Valérie,,,"Rue de la Chapelle, 2",1370,PIETRAIN,0473/88.29.50,4,places,,,
MARAPONTE Mélinda,,,,,,0496/11.66.68,4,places,,,
,,,,,,,,,,,
SCHNORR Muriel,leszouzous@hotmail.be,,"Rue longue, 222",1370,PIETRAIN,010/60.89.34,4,places,En cessation temporaire à partir du 26/01/2018,,
,,,,,,,,,,,
,,,,,,,,,,,
JANMART Pauline ,lafermedesbambins134@outlook.com,,"Rue Maison du Bois, 134 ",1370,MELIN,010/604 624          0483/463 097,4,places,,,
DEWAELHEYNS Elodie ,,,,,,,4,places,,,
,,,,,,,,,,,
DONCKERS Elodie ,info@lespioupious.be,,"Rue du Presbytère, 30 A",1370,PIETRAIN,0479/63.85.41,4,places,,,
,,,,,,,,,,,
LODENS Audrey,,,"Avenue des Commandants Borlée, 56",1370,JODOIGNE,0474/84.30.23,4,places,(En cessation temporaire du 9/11/2017 au 1/09/2018),,
,,,,,,,,,,,
HALTE-ACCUEIL,,,,,,,,,,,
,,,,,,,,,,,
Espace Enfance,Madame GOUY,,"P.du Marché aux Chevaux, 2",1370,JODOIGNE,010/81.16.86,19,places,,,
AS.S.:,Madame JONCKMAN,,,,,,,,,,
"( pour enfants de 6 mois à 2,5 ans - heures scolaires et certains congés scolaires)",,,,,,,,,,,
,,,,,,,,,,,
,,,,,,,,,,,
MAISONS D'ENFANTS,,,,,,,,,,,
,,,,,,,,,,,
"""LES CANETONS""",Madame LIEVIN,,"Chaussée de Wavre, 7A",1370,JODOIGNE,010/81.18.35,25,places,,,


,                                                                                                                                                                                                                                                                    ,,,,,,,,,,
