ACCUEILLANTES AUTONOMES,,,,,,,,
,,,,,,,,
,,,,,,,,
TASSIGNON Véronique,,,"Rue Haute, 91",1435,CORBAIS,010/65 06 58,4,places
,,,,,,,,
LAMURY Hélène,,,"rue de la Houssière, 37",1435,HEVILLERS,010/65.17.86,4,places
PEZZICARA Jamila,,,,,,,4,places
,,,,,,,,
,,,,,,,,
MAISONS D'ENFANTS,,,,,,,,
,,,,,,,,
"""LES HIRONDELLES""",Madame PERAU,Philippart,"Rue des Hirondelles, 15",1435,CORBAIS,010/65.13.31,18,places
