ACCUEILLANTES AUTONOMES,,,,,,,,,
,,,,,,,,,

,,,,,,,,,
MARIAULE Arianne,,lesarsouilles@outlook.be,"Rue de Dreumont, 87 A",1495,MARBAIS,0483/68.10.19,4,places,
GEYSSENS Sandra,,,,,,0493/72.16.83,4,places,(En remplacement de Mme De Paul)
DE PAUL DE BARCHIFONTAINE Alyson,,,,,,0475/79.46.69,4,places,En cessation temporaire du 16/10/2017 au 30/03/2018
,,,,,,,,,
MAISONS D'ENFANTS,,,,,,,,,
,,,,,,,,,
"""COPAINS - COPINES""",Madame VAN DAELE,,"Rue de Priesmont, 14 B",1495,MARBAIS,071/81.96.28,20,places,
,,,,,,0477/65.30.62,,,
