NOM_ETAB_LG,CODE_POST,NOM_LOC,ADR_RUE,ADR_NO,TEL,FAX,QUALITE_CHEF,NOM_CHEF,PRENOM_CHEF,RES_ID,email_publ
Les Acacias - Ecole Communale N°1 Primaire Spécialisé,1070,BRUXELLES,Place Séverine,1,02-527 17 32,02-528 96 74,Madame,LODDEWIJKS,Sandrine,123,
Etablissement d'enseignement spécialisé primaire et secondaire de la Communauté française,1160,BRUXELLES,Avenue Charles Schaller,87,02-672 33 81,02-660 14 38,Madame,WAUTELET,Joelle,111,direction@ecoleschaller.org
Institut d'enseignement spécialisé Alexandre Herlin,1082,BRUXELLES,Rue de Dilbeek,1,02-465 59 60,02-465 67 11,Monsieur,GOLBERT,MARC,121,mgolbert@skynet.be
Ecole fondamentale spécialisée libre Chanterelle,1000,BRUXELLES,Rue Blaes,120,02-511 60 69,,Madame,Seleck,Catherine,131,
Centre pédagogique d'enseignement spécialisé primaire communal de Vlaesendael,1120,BRUXELLES,Rue François Vekemans,73,02-266 82 80,02-266 82 88,Madame,Hirschovitz,Myriam,123,
Centre pédagogique Jules Anspach - Enseignement fondamental spécialisé communal,1000,BRUXELLES,Rue du Vautour,68,02-508 11 00,02-508 11 08,Madame,JAMART,DANIELE,123,
Les Pagodes - Centre pédagogique communal primaire spécialisé,1020,BRUXELLES,Avenue de Versailles,87,02-266 11 40,02-266 11 48,Madame,Marcq,Jeanine,123,
C.H.U. Enfants Reine Fabiola - Ecole Robert Dubois,1020,BRUXELLES,Avenue Jean-Joseph Crocq,15,02-4773162,02-4773361,Monsieur,VAESSEN,Paul,123,
"Ecole primaire d'enseignement spécialisé communal ""Les Carrefours""",1040,ETTERBEEK,Rue Fétis,29,02-647 25 58,02-647 63 90,Madame,DONNES,Ariane,123,
Ecole libre d'enseignement spécialisé CBIMC,1040,ETTERBEEK,Rue Pčre Eudore Devroye,14,02-735 45 03,02-732 72 15,Madame,Aubert,Claire,131,
Le Tremplin - Enseignement fondamental spécialisé libre,1190,BRUXELLES,Rue de Lusambo,35,02-332 50 44,02-332 29 84,Madame,Lecocq,Marie,132,
"Ecole primaire d'enseignement spécialisé libre ""La Famille""",1081,BRUXELLES,Rue Jean Jacquet,25,02-411 31 37,02-410 93 35,Madame,Roche,Oonagh Shannon,131,famille.bxl@sec.cfwb.be
"Ecole fondamentale d'enseignement spécialisé libre ""Nicolas Smelten""",1030,BRUXELLES,Rue de la Cité Joyeuse,2,02-482 06 70,02-465 05 81,Monsieur,Philippe,Jérémy,132,nicolassmelten@hotmail.com
"Ecole fondamentale n°14 d'enseignement spécialisé communal ""La Cordée""",1190,BRUXELLES,Rue du Dries,27,02-376 23 40,02-376 94 72,Madame,WATTIEZ,Laurence,123,info@ecolelacordee.org
Institut Royal pour Sourds et Aveugles - Enseignement maternel et primaire Type 7,1180,BRUXELLES,Chaussée de Waterloo,1508,02-375 92 69,02-375 92 69,Madame,Gors,Genevičve,131,
Institut Decroly - Fondamental,1180,BRUXELLES,Rue du Bambou,9,02-332 02 39,02-332 06 78,Madame,PLAS,Chantal,132,imp.decroly.primaire@belgacom.net
"Ecole fondamentale d'enseignement spécialisé libre ""La Clairičre""",1170,BRUXELLES,Avenue des Hannetons,58,02-661 78 11,02-661 78 42,Madame,VANACHTER,CHRISTIANE,132,
L'Ecole Intégrée - Enseignement Secondaire Spécialisé Libre,1200,BRUXELLES,Rue de la Rive,99,02-771 75 11,02-772 62 88,Monsieur,DUMONT,Gil-Olivier,132,
Centre Enseignement et Traitements Différenciés CETD,1200,BRUXELLES,Avenue Albert Dumont,40,02-761 06 28,02-779 09 42,Madame,DEMUYLDER,MARTINE,132,
La Maison Familiale Enseignement fondamental spécialisé libre,1420,BRAINE-L'ALLEUD,Rue du Soleil Levant,7,02-384 98 14,02-384 98 14,Madame,Robin,Eleonore,131,salleprofs@skynet.be
Etablissement d'enseignement spécialisé fondamental de la Communauté française,1420,BRAINE-L'ALLEUD,Avenue de Guéménée,59,02-384 42 98,02-384 42 98,Monsieur,GIGOT,Stéphane,111,
Le Grand Tour - Enseignement fondamental spécialisé libre,1300,WAVRE,Venelle de Terlongval,55,010-22 33 69,010-22 33 69,Madame,WILIQUET,Sarah,132,
Les Moineaux II - Ecole libre non confessionnelle d'enseignement primaire spécialisé de Type 3,1300,WAVRE,Venelle de Terlongval,57,010-22 84 70,010-22 84 70,Monsieur,PIETQUIN,Thomas,132,ecolemoineaux@gmail.com
Les Chardons - Ecole d'Enseignement primaire spécialisé libre,1450,CHASTRE-VILLEROUX-BLANMONT,Rue des Acacias,4,010-65 69 47,,Madame,BEATRICE,BARBIER,131,
Désiré Denuit - Enseignement fondamental spécialisé,1380,OHAIN,Chemin du Catty,2,02-652 18 48,02-633 69 55,Madame,DEWEERDT,FRANCOISE,132,
Clairs Vallons - Enseignement spécialisé fondamental et secondaire libre,1340,OTTIGNIES,Rue de Mont-Saint-Guibert,24,010-48 02 15,010-48 02 07,Madame,LAMBERT,ELIANE,132,
Ecole Escale Enseignement fondamental spécialisé,1340,OTTIGNIES-LOUVAIN-LA-NEUVE,Allée de Clerlande,6,010-41 42 33,,Monsieur,DURDU,Olivier,131,
"Institut d'enseignement spécialisé primaire de la Communauté française ""L'Arc-en-Ciel""",7970,BELOEIL,Rue des Viviers au Bois,50,069-68 92 30,069-68 73 27,Madame,PERSYN,Céline,111,
Sainte-Gertrude Enseignement fondamental spécialisé libre,7940,BRUGELETTE,Chemin de Wisbecq,2,068-45 49 42,068-45 55 69,Madame,RYCKEBOSCH,NADINE,131,
Institut d'enseignement spécialisé primaire et secondaire de la Communauté française,7911,FRASNES-LEZ-BUISSENAL,Route de Lessines,27,069-86 68 55,069-86 85 67,Madame,BAUSIER,DOMINIQUE,111,
Ecole primaire d'enseignement spécialisé libre - Centre Jean Herbet,6041,GOSSELIES,Faubourg de Charleroi,3 B,071-35 22 68,071-35 34 69,Madame,Vermeulen,Karine,131,centreherbert@swing.be
Institut d'enseignement spécialisé fondamental et secondaire provincial René Thoné,6030,MARCHIENNE-AU-PONT,Rue de Beaumont,266,071-51 13 20,071-56 05 19,Monsieur,JONGEN,Thierry,122,
"Institut Médico-Pédagogique provincial René Thoné Marcinelle - ""Ateliers Apri""",6001,MARCINELLE,Rue du Débarcadčre,100,071-44 64 80,071-44 64 74,Madame,LOSADA ESPINEDO,MARIE VIVIANE,122,
"Ecole fondamentale d'enseignement spécialisé libre ""Bois Marcelle""",6001,MARCINELLE,Rue de Nalinnes,630,071-47 46 01,071-51 35 49,Madame,Latour,Virginie,131,bois.marcelle@swing.be
Ecole Clinique Enseignement fondamental spécialisé provincial,6061,MONTIGNIES-SUR-SAMBRE,Rue de Lodelinsart,157,071-28 61 39,071-42 04 10,Madame,D'HAEYER,REBECCA,122,
Etablissement d'enseignement spécialisé primaire et secondaire de la Communauté française,6200,CHATELET,Rue de Loverval,262,071-24 40 00,071-40 26 71,Monsieur,Michotte,André,111,
Ecole primaire d'enseignement spécialisé libre Mont-Chevreuil,6250,ROSELIES,Rue François Dimanche,42,071-74 04 92,071-72 78 31,Madame,MANTOVANI,EMMANUELLE,131,mont-chevreuil@hotmail.com
Ecole primaire d'enseignement spécialisé communal,6183,TRAZEGNIES,Place Larsimont,1,071/46.68.38,071/45.72.48,Madame,Isabelle,Hansenne,123,
"Ecole fondamentale d'enseignement spécialisé libre ""Saint-Exupéry""",6142,LEERNES,Rue de l'Abbaye d'Aulne,2,071-51 50 42,071-47 87 26,Monsieur,SIMONET,SAMY,131,
L'Eau Vive - Enseignement fondamental spécialisé libre,7012,FLENU,Rue de la Mine,3,065-82 27 14,065-58 79 91,Madame,ROMAN,CHRISTINE,131,
"Centre provincial d'enseignement fondamental spécialisé ""L'Orée du Bois""",7021,HAVRE,Impasse de la Chapelle,40,065-87 94 01,065-87 94 09,Madame,NAEM,Caroline,122,
L'Espérance - Enseignement fondamental spécialisé libre,7000,MONS,Rue du Joncquois,120,065-31 57 94,065-84 24 75,Monsieur,MINNE,ALAIN,131,
"Ecole fondamentale d'enseignement spécialisé de la Communauté française ""L'Arbre Vert""",7000,MONS,Chaussée du Roeulx,122,065-33 70 59,065-84 25 06,Madame,RAINSON-DARC,Michčle,111,epescf.arbrevert.mons@sec.cfwb.be
Centre provincial d'enseignement spécialisé ŕ Mons,7011,GHLIN,Rue du Temple,2,065-40 88 59,065-84 09 95,Monsieur,Piraux,Michel,122,
Etablissement d'enseignement spécialisé primaire et secondaire de la CF,7390,QUAREGNON,Rue du Plat Rie,345,065-61 31 81,065-61 31 80,Madame,JUVENOIS,Linda,111,ens.specialise-quaregnon@skynet.be
Le Plein Air Enseignement fondamental spécialisé libre,7340,WASMES,Rue du Berchon,163,065-77 78 90,065/69 19 91,Monsieur,MALCOTTE,PATRICK,131,
"Ecole d'enseignement spécialisé primaire Saint-Henri ""Les Aubiers""",7780,COMINES-WARNETON,Avenue des Châteaux,74,056-56 00 65,,Monsieur,HAUSPIE,Damien,131,dir@lesaubiers.be
"Ecole fondamentale d'enseignement spécialisé de la Communauté française ""L'Eveil""",7700,MOUSCRON,Rue de la Coquinie,285,056-33 46 80,056-84 06 59,Madame,Leclercq,Sandrine,111,lacoquinid.mouscron@cfwb.be
Ecole primaire d'enseignement spécialisé libre,7700,MOUSCRON,Rue de Rolleghem,166,056-33 21 26,056-33 21 26,Madame,Loiselet,Christelle,131,bengalis.cefem@swing.be
"Institut d'enseignement fondamental spécialisé de la Communauté française ""La Roseraie""",7090,BRAINE-LE-COMTE,Avenue de la Houssičre,100,067-63 49 80,067-56 16 34,Monsieur,DEHON,Ghislain,111,
"Enseignement spécialisé primaire de la Communauté française ""L'envolée""",7110,HOUDENG-AIMERIES,Rue du Pensionnat,20,064-28 58 92,064-33 06 44,Madame,GUSTIN,BEATRICE,111,
Institut médico-pédagogique provincial René Thoné La Louvičre,7100,LA LOUVIERE,Rue du Temple,3-5,064-23 60 24,064-26 39 52,Madame,Delforge,Sabrina,122,
"Ecole primaire d'enseignement spécialisé communal ""Le Clair Logis""",7100,LA LOUVIERE,Rue de Baume,114,064-21 73 42,064-21 73 42,Madame,Vankeerbergen,Sabine,123,
"Enseignement spécialisé primaire libre ""Le Piolet""",7100,LA LOUVIERE,Rue de la Franco-Belge,55,064-26 46 53,,Madame,Bullaert,Vanessa,131,
Ecole primaire d'enseignement spécialisé de la Commnunauté française,7860,LESSINES,Chemin de Papignies,38,068-33 63 11,068-33 63 13,Madame,Caty,Céline,111,eespcflessines@gmail.com
La Source Enseignement fondamental spécialisé libre,7060,SOIGNIES,Chaussée du Roeulx,22,067-33 13 83,067-33 03 43,Monsieur,HAUTENAUVE,ALAIN,131,
Ecole primaire d'enseignement spécialisé de la Communauté française,6150,ANDERLUES,Rue Auguste Guerlement,34,071-52 63 87,071-54 20 51,Madame,CLAES,Isabelle,111,
"Enseignement primaire spécialisé libre ""Ecole Régionale""",7131,WAUDREZ,Rue de Clerfayt,104,064-33 33 41,,Monsieur,Lerminieau,Laurent,131,ecole.speciale.clerfayt@swing.be
Institut primaire d'enseignement spécialisé libre Sainte-Chrétienne,6460,CHIMAY,Boulevard Louise,23,060-21 11 75,,Madame,BOLLEN,Claudine,131,
Heureux Abri Momignies - Enseignement primaire spécialisé,6590,MOMIGNIES,Rue Mahy,11,060-45 90 55,060-51 18 77,Madame,SMET,CAROLE,132,
Ecole Pierre Danaux Enseignement fondamental spécialisé libre (CESIT),6530,THUIN,Rue Crombouly,74B,071-59 61 25,071-59 61 25,Monsieur,RENOIR,ERIC,131,
Enseignement spécialisé primaire de la Communauté française ŕ Nalinnes,6120,NALINNES,Rue des Boutis,62,071-21 50 41,071-21 50 23,Madame,Bernier,Fabienne,111,
"Ecole fondamentale d'enseignement spécialisé libre ""La Goélette""",7730,LEERS-NORD,Chemin Mitoyen,12B,056-48 30 50,056-48 30 54,Madame,MARESCAUX,Sylvie,131,direction@lagoelette.be
Ecole maternelle et primaire d'enseignement spécialisé de la Communauté française,7540,KAIN,Rue de Breuze,9B,069-45 24 30,069-23 52 82,Monsieur,DELFOSSE,FREDERIC,111,
Ecole fondamentale d'enseignement spécialisé du Saulchoir,7503,FROYENNES,R des Combattants de Froyennes,47,069-25 33 21,069-25 33 29,Monsieur,DESCHODT,PHILIPPE,131,saulchoirfondamental@hotmail.com
"Ecole primaire d'enseignement spécialisé de la Communauté française ""La Marelle""",4540,AMAY,Rue Velbruck,22,085-31 23 56,085-31 15 04,Madame,Dubuisson,Sophie,111,epes.amay@restode.cfwb.be
"Ecole fondamentale spécialisée ""Le Château Vert""",4500,BEN-AHIN,Chemin de Perwez,16,085-61 26 70,085-61 32 41,Madame,BERNARD,NATHALIE,132,nathaliebernard@skynet.be
Ecole d'enseignement primaire spécialisé libre Sainte-Claire,4500,HUY,Rue des Larrons,8,085-21 75 89,085-82 84 46,Monsieur,Coster,Xavier,131,
"Etablissement d'enseignement primaire spécialisé de la Communauté française ""Les Roches""",4170,COMBLAIN-AU-PONT,Rue des Grottes,20,04-369 17 13,04-369 17 34,Madame,BURNOTTE,FRANCOISE,111,
"Etablissement d'enseignement spécialisé primaire et secondaire de la Communauté française ""Henri Rikir""",4041,MILMORT,Rue de Fexhe,76,04-278 56 90,04-278 01 17,Madame,GERARD,Virginie,111,escf.milmort@sec.cfwb.be
Au Vert-Vinâve - Ecole d'enseignement spécialisé de Type 3,4041,VOTTEM,Rue du Bouxthay,181,04-227 50 18,,Madame,Matonnet,Caroline,123,
"Institut ""Etienne Meylaers"" Enseignement spécialisé primaire et secondaire de la Communauté Française",4030,GRIVEGNEE,Rue Nicolas Spiroux,62,04-365 92 57,04-365 94 61,Madame,Delhasse,Rosine,111,
Ecole fondamentale spécialisée communale Léona Platel,4000,LIEGE,Quai de Wallonie,3,04-227 04 78,04/227.04.78,Madame,IAPICHINO,Sabrina,123,
Ecole fondamentale et secondaire communale spécialisée Type 5 Léopold Mottet,4000,LIEGE,Place Sainte-Walburge,1,04-227 79 13,04-227 17 30,Madame,SCHOUTEDEN,Genevičve,123,sec.mottet@swing.be
Ecole primaire d'enseignement spécialisé libre - Castors B,4020,LIEGE,Rue Jean d'Outremeuse,57,04-342 38 78,04-342 38 90,Monsieur,HAGELSTEIN,DIDIER,131,
Ecole primaire d'enseignement spécialisé libre Les Castors,4000,LIEGE,Rue Sainte-Marguerite,318,04-226 39 30,04-226 45 57,Monsieur,MATTINA,CARMELO,131,
"Ecole fondamentale d'enseignement spécialisé libre ""La Petite Ecole""",4420,MONTEGNEE,Chaussée Churchill,79,04-263 90 96,04-263 10 74,Madame,PIRSON,SABINE,132,
"Ecole primaire d'enseignement spécialisé communal ""Trixhes 3""",4102,OUGREE,Rue du Roi Albert,102,04-337 65 03,,Madame,Brisy,Mylčne,123,
"Ecole primaire d'enseignement spécialisé de la Communauté française ""La Glandée""",4100,SERAING,Avenue Davy,3,04-336 58 60,04-338 94 90,Madame,SLOTA,Isabelle,111,escf@skynet.be
"Ecole d'enseignement primaire spécialisé de la Communauté française ""Lieutenant Jacquemin - La Parenthčse""",4600,VISE,Rue de Berneau,16,04-379 76 05,04-379 84 91,Monsieur,HECK,Johan,111,
Ecole d'enseignement spécialisé fondamental de la Communauté française,4671,SAIVE,Rue des Champs,1,04-362 65 84,04-362 96 20,Madame,JANSSEN,Sabrina,111,escf.saive@restode.cfwb.be
"Etablissement d'enseignement spécialisé primaire et secondaire de la Communauté française ""L'Envol""",4400,FLEMALLE-HAUTE,Rue du Herdier,6,04-275 58 88,04-275 36 13,Monsieur,NEUFORGE,Didier,111,
Ecole d'enseignement spécialisé primaire de la Communauté Française,4821,ANDRIMONT,Rue Albert de t'Serclaes,58,087-33 92 75,087-33 62 36,Monsieur,VANGRUNDERBEEK,Karel,111,
Etablissement d'enseignement primaire spécialisé Saint-Joseph,4250,GEER,Rue Emile Lejeune,1,019-58 81 26,019-58 81 26,Madame,LECOCQ,Véronique,131,mcpirotte@hotmail.com
Institut d'enseignement spécialisé maternel," primaire et secondaire de la Communauté française ""Les Orchidées - Les Lauriers""",4280,HANNUT,Rue de Huy,28,019-51 32 83,019-51 35 68,Madame,PIRAPREZ,Joceline,111
"Ecole fondamentale d'enseignement spécialisé de la Communauté Française ""Croix-Blanche""",6600,BASTOGNE,Rue de la Chapelle,131,061-21 61 63,061-21 73 16,Monsieur,LEYDER,Bernard,111,
Ecole fondamentale d'enseignement spécialisé libre du Mardasson,6600,BASTOGNE,Rue des Maies,29,061-21 23 61,061-21 68 82,Madame,THIRY,CATHERINE,131,
Ecole primaire d'enseignement spécialisé provincial,6661,MONT-LEZ-HOUFFALIZE,Dinez,1,061-28 00 11,,Madame,Florence,OLIVIER,122,epes.montleban@skynet.be
Institut d'enseignement spécialisé primaire et secondaire de la Communauté française,6690,VIELSALM,Rue du Château,19,080-21 67 57,080-21 48 49,Monsieur,MASSANGE,WALTHERE,111,iesps.vielsalm@skynet.be = adresse du secrĂŠtariat
Ecole fondamentale d'enseignement spécialisé libre de Clairval,6940,BARVAUX-SUR-OURTHE,Terre aux Ris,1,086-32 19 29,086-32 19 29,Madame,GOBBO,SYLVANA,131,
Institut d'enseignement spécialisé primaire de la Communauté française,6900,WAHA,Rue Mionvaux,35,084-31 20 97,084-32 36 88,Madame,Andre,Dominique,111,epes.marloie@restode.cfwb.be
Ecole primaire d'enseignement spécialisé provincial,6953,FORRIERES,Rue des Alliés,32,084-24 47 95,084-24 47 99,Monsieur,Menon,Patrick,122,
Etablissement d'enseignement spécialisé primaire et secondaire de la Communauté française,6762,SAINT-MARD,Chemin Morel,71,063-57 85 33,063-57 78 59,Monsieur,FICHET,Cédric,111,direction@specialise-saintmard.be
"Etablissement d'enseignement primaire spécialisé de la Communauté française ""Le Caillou""",5500,ANSEREMME,Avenue Général Hodges,7A,082-22 40 10,082-22 81 91,Madame,POLIART,Claude,111,le_caillou_ecole@hotmail.com
Saint-Vincent - Institut d'enseignement fondamental spécialisé libre,5530,YVOIR,Rue Col Tachet des Combes,15,082-61 43 08,082-61 43 08,Monsieur,CUVELLIER,ETIENNE,131,
"Ecole d'enseignement fondamental spécialisé de la Communauté française ""Peu d'Eau""",5300,ANDENNE,Chaussée de Ciney,246,085-84 33 34,085-84 18 61,Monsieur,Corbaye,Jean,111,
"Institut d'enseignement spécialisé primaire et secondaire de la Communauté française ""Mariette Delahaut""",5100,JAMBES,Rue de Sedent,28,081-33 16 31,081-33 16 34,Madame,Dardenne,Sophie,111,delahaut.sectionprimaire@skynet.be
"Ecole fondamentale d'enseignement spécialisé ""Reumonjoie""",5020,MALONNE,Chemin de Reumont,135,081-45.08.87,081-44 63 70,Madame,CAVRENNE,Laurence,131,
Centre Scolaire Claire d'Assise,5000,NAMUR,Avenue Baron Fallon,34,081-63 51 22,081-74 39 49,Madame,De Greve,Isabelle,131,
"Ecole primaire d'enseignement spécialisé de la Communauté française ""Le Bosquet""",5060,AUVELAIS,Rue du Bosquet,75,071-26 01 90,071-26 01 99,Madame,Lemmens,Christine,111,lebosquetauvelais@yahoo.fr
Etablissement fondamentale d'enseignement spécialisé libre - Institut Saint-Dominique,5620,FLORENNES,Place de l'Hôtel de Ville,22,071-68 83 87,071-68 50 26,Madame,MALACORT,DOMINIQUE,131,
Ecole Abbé Jean-Baptiste Herman Enseignement fondamental spécialisé,5600,OMEZEE,Rue d'Omezée,22,082-67 81 99,082-67 81 99,Monsieur,LEURQUIN,PAUL,131,
Ecole fondamentale d'enseignement spécialisé communal T6-T7 - I.R.H.O.V.,4000,LIEGE,Rue Monulphe,78,04-221 14 84,04-232 12 30,Madame,CLEMENT,ELISABETH,123,
Institut Royal pour Sourds et Aveugles - Enseignement maternel et primaire Type 6 et Type 8,1180,BRUXELLES,Chaussée de Waterloo,1508,02-375 47 85,02-375 47 85,Madame,Tyteca,Caroline,131,
Institut d'enseignement spécialisé primaire et secondaire de la Communauté française - Section primaire,7911,FRASNES-LEZ-BUISSENAL,Route de Lessines,27,069-86 68 55,,Madame,Valcke,Martine,111,
Institut Etienne Meylaers Fondamental,4030,GRIVEGNEE,Rue Nicolas Spiroux,62,,,Madame,Delhasse,,111,
Ecole d'enseignement spécialisé fondamental de la Communauté française,6690,VIELSALM,Rue du Château,,,,Madame,Evrard,,111,
"Institut d'enseignement spécialisé primaire et secondaire de la Communauté française ""Mariette Delahaut"" - Section primaire",5100,JAMBES,Rue de Sedent,28,081-33 16 30,,Madame,Brasseur,,111,
Institut d'enseignement spécialisé Alexandre Herlin - Primaire,1082,BRUXELLES,Rue de Dilbeek,1,02 465 59 60,02/4650687,Madame,JEANGOŰT,Martine,121,
Institut provincial d'enseignement spécialisé fondamental,7011,GHLIN,Rue du Temple,2,065-40 88 50,065-84 09 95,Madame,TRUSGNACH,DORINA,122,
Etablissement d'enseignement spécialisé fondamental de la Communauté française,7390,QUAREGNON,Rue du Plat Rie,345,065-61 31 82,065-61 31 95,Madame,BUFFE,GENEVIEVE,111,
Institut médico-pédagogique provincial René Thoné La Louvičre,7100,LA LOUVIERE,Rue du Temple,3-5,064-23 60 20,064-26 39 52,Madame,DANIELEWSKI,Monique,122,
Institut d'enseignement spécialisé fondamental provincial René Thoné,6030,MARCHIENNE-AU-PONT,Rue de Beaumont,266,071-51 13 20,071-56 05 19,Monsieur,LANGLET,CLAUDE,122,
Ecole Intégrée - Enseignement Fondamental Libre,1200,BRUXELLES,Rue de la Rive,99,02-770 04 40,02-772 62 88,Madame,DEVUYST,BERNADETTE,132,
Etablissement d'enseignement spécialisé primaire et secondaire de la Communauté française - Fondamental,6762,SAINT-MARD,Chemin Morel,71,063-57 85 33,063-57 78 59,Madame,ALLARD,MARTINE,111,
"Etablissement d'enseignement spécialisé primaire et secondaire de la Communauté française ""Henri Rikir"" - Fondamental",4041,MILMORT,Rue de Fexhe,76,04-278 56 99,04-278 01 17,Monsieur,VANDERWECKENE,,111,
Etablissement d'Enseignement spécialisé primaire et secondaire de la Communauté française,4400,FLEMALLE-HAUTE,Rue du Herdier,6,04-275 62 12,04-275 36 13,Madame,BIENERT,Chantal,111,
Etablissement d'enseignement spécialisé fondamental de la Communauté française,1160,BRUXELLES,Avenue Charles Schaller,,,,Madame,Vanderheiden,Renelde,111,direction@ecoleschaller.org
Etablissement d'enseignement spécialisé primaire de la Communauté française,6200,CHATELET,Rue de Loverval,262,071-24 40 01,071-40 26 71,,Declercq,Christine,111,
Ecole primaire d'enseignement spécialisé provincial René Thoné,6001,MARCINELLE,Rue du Débarcadčre,100,071-44 64 64,071-44 64 74,,Kairet,Pascale,122,
"Enseignement fondamental spécialisé de la Communauté française ""Les Lauriers""",4280,HANNUT,Rue d'Avernas,7,019/51.19.39,019/51.10.39,Madame,Ruelens,Nathalie,111,leslauriers.direction@skynet.be
Ecole Escalpade Enseignement Fondamental Spécialisé,1348,LOUVAIN-LA-NEUVE,Rue de la Ferme des Bruyčres,26,010 43.98.23,,Madame,Monville,Juliane,131,
"Ecole ""La Colline de l'Eveil""",4000,LIEGE,Boulevard Ernest Solvay,244,04/273.05.35,04/358.66.47,Madame,JACQUES,CHRISTINE,123,oui
Ecole fondamentale d'enseignement spécialisé Nos Pilifs,1020,BRUXELLES,Avenue des Pagodes,212,02/268.03.71,02/268.78.15,Madame,Wastiaux,Hélčne,132,
Ecole fondamentale spécialisée Capucines 2,5580,ROCHEFORT,Avenue du Rond-Point,12B,084/22.11.36,,Madame,DI STEFANO,Jeanne,131,
Ecole fondamentale spécialisée Joëlle Robins,4000,LIEGE,Quai de Wallonie,2,04/227.17.02,,Madame,Bertrand,Evelyne,123,
Ecole d'enseignement spécialisé fondamental de la Communauté française d'Ixelles Les AsTrôn'autes,1050,BRUXELLES,Rue du Trône,111,02-511 15 10,02 511 15 10,Madame,RUL,Joëlle,111,
Ecole l'Escale fondamentale 2,1340,OTTIGNIES-LOUVAIN-LA-NEUVE,Avenue Reine Fabiola,9,010/41 42 33,,Madame,GEUBEL,Pascale,131,
