{"type":"FeatureCollection","features":[
{"type":"Feature","properties":{"name":"Belgium"},"geometry":{"type":"Polygon","coordinates":[[[3.314971,51.345781],[4.047071,51.267259],[4.973991,51.475024],[5.606976,51.037298],[6.156658,50.803721],[6.043073,50.128052],[5.782417,50.090328],[5.674052,49.529484],[4.799222,49.985373],[4.286023,49.907497],[3.588184,50.378992],[3.123252,50.780363],[2.658422,50.796848],[2.513573,51.148506],[3.314971,51.345781]]]}},
{"type":"Feature","properties":{"no2":16},"geometry":{"type":"Polygon","coordinates":[[[128898.86,185071.82],[128978.85,185071.82],[128978.85,185061.82],[128968.85,185061.82],[128968.85,185051.82],[128938.85,185051.82],[128938.85,185061.82],[128898.86,185061.82],[128898.86,185071.82]]]}},
{"type":"Feature","properties":{"no2":19},"geometry":{"type":"Polygon","coordinates":[[[129648.8,185071.82],[129688.8,185071.82],[129688.8,185051.82],[129658.8,185051.82],[129658.8,185061.82],[129648.8,185061.82],[129648.8,185071.82]]]}},
{"type":"Feature","properties":{"no2":27},"geometry":{"type":"Polygon","coordinates":[[[146257.54,185071.82],[146267.54,185071.82],[146267.54,185061.82],[146257.54,185061.82],[146257.54,185071.82]]]}},
{"type":"Feature","properties":{"no2":31},"geometry":{"type":"Polygon","coordinates":[[[158316.62,185071.82],[158326.62,185071.82],[158326.62,185061.82],[158316.62,185061.82],[158316.62,185071.82]]]}},
{"type":"Feature","properties":{"no2":32},"geometry":{"type":"Polygon","coordinates":[[[158326.62,185071.82],[158336.62,185071.82],[158336.62,185061.82],[158326.62,185061.82],[158326.62,185071.82]]]}},
{"type":"Feature","properties":{"no2":33},"geometry":{"type":"Polygon","coordinates":[[[158336.62,185071.82],[158346.62,185071.82],[158346.62,185061.82],[158336.62,185061.82],[158336.62,185071.82]]]}},
{"type":"Feature","properties":{"no2":35},"geometry":{"type":"Polygon","coordinates":[[[158346.62,185071.82],[158356.62,185071.82],[158356.62,185061.82],[158346.62,185061.82],[158346.62,185071.82]]]}},
{"type":"Feature","properties":{"no2":36},"geometry":{"type":"Polygon","coordinates":[[[158356.62,185071.82],[158366.62,185071.82],[158366.62,185051.82],[158356.62,185051.82],[158356.62,185071.82]]]}},
{"type":"Feature","properties":{"no2":38},"geometry":{"type":"Polygon","coordinates":[[[158366.62,185071.82],[158376.62,185071.82],[158376.62,185061.82],[158366.62,185061.82],[158366.62,185071.82]]]}},
{"type":"Feature","properties":{"no2":40},"geometry":{"type":"Polygon","coordinates":[[[158376.62,185071.82],[158386.62,185071.82],[158386.62,185061.82],[158376.62,185061.82],[158376.62,185071.82]]]}},
{"type":"Feature","properties":{"no2":41},"geometry":{"type":"Polygon","coordinates":[[[158386.62,185071.82],[158396.62,185071.82],[158396.62,185061.82],[158386.62,185061.82],[158386.62,185071.82]]]}},
{"type":"Feature","properties":{"no2":43},"geometry":{"type":"Polygon","coordinates":[[[158396.62,185071.82],[158406.62,185071.82],[158406.62,185061.82],[158396.62,185061.82],[158396.62,185071.82]]]}},
{"type":"Feature","properties":{"no2":44},"geometry":{"type":"Polygon","coordinates":[[[158406.62,185071.82],[158416.62,185071.82],[158416.62,185061.82],[158406.62,185061.82],[158406.62,185071.82]]]}},
{"type":"Feature","properties":{"no2":43},"geometry":{"type":"Polygon","coordinates":[[[158416.62,185071.82],[158436.61,185071.82],[158436.61,185051.82],[158416.62,185051.82],[158416.62,185071.82]]]}},
{"type":"Feature","properties":{"no2":43},"geometry":{"type":"Polygon","coordinates":[[[158456.61,185071.82],[158466.61,185071.82],[158466.61,185061.82],[158456.61,185061.82],[158456.61,185071.82]]]}},
{"type":"Feature","properties":{"no2":41},"geometry":{"type":"Polygon","coordinates":[[[158466.61,185071.82],[158476.61,185071.82],[158476.61,185061.82],[158466.61,185061.82],[158466.61,185071.82]]]}},
{"type":"Feature","properties":{"no2":40},"geometry":{"type":"Polygon","coordinates":[[[158476.61,185071.82],[158486.61,185071.82],[158486.61,185061.82],[158476.61,185061.82],[158476.61,185071.82]]]}},
{"type":"Feature","properties":{"no2":38},"geometry":{"type":"Polygon","coordinates":[[[158486.61,185071.82],[158496.61,185071.82],[158496.61,185061.82],[158486.61,185061.82],[158486.61,185071.82]]]}},
{"type":"Feature","properties":{"no2":35},"geometry":{"type":"Polygon","coordinates":[[[158506.61,185071.82],[158526.61,185071.82],[158526.61,185051.82],[158516.61,185051.82],[158516.61,185061.82],[158506.61,185061.82],[158506.61,185071.82]]]}},
{"type":"Feature","properties":{"no2":34},"geometry":{"type":"Polygon","coordinates":[[[158526.61,185071.82],[158536.61,185071.82],[158536.61,185041.82],[158526.61,185041.82],[158526.61,185071.82]]]}},
{"type":"Feature","properties":{"no2":23},"geometry":{"type":"Polygon","coordinates":[[[163566.22,185071.82],[163586.22,185071.82],[163586.22,185051.82],[163576.22,185051.82],[163576.22,185061.82],[163566.22,185061.82],[163566.22,185071.82]]]}},
{"type":"Feature","properties":{"no2":18},"geometry":{"type":"Polygon","coordinates":[[[163906.2,185071.82],[164106.18,185071.82],[164106.18,185061.82],[164096.18,185061.82],[164096.18,185051.82],[164086.18,185051.82],[164046.19,185051.82],[164046.19,185041.82],[164036.19,185041.82],[163966.19,185041.82],[163966.19,185031.82],[163926.2,185031.82],[163926.2,185041.82],[163916.2,185041.82],[163916.2,185051.82],[163906.2,185051.82],[163906.2,185071.82]]]}},
{"type":"Feature","properties":{"no2":19},"geometry":{"type":"Polygon","coordinates":[[[165356.09,185071.82],[165366.09,185071.82],[165366.09,185061.82],[165356.09,185061.82],[165356.09,185071.82]]]}},
{"type":"Feature","properties":{"no2":31},"geometry":{"type":"Polygon","coordinates":[[[158326.62,185061.82],[158336.62,185061.82],[158336.62,185041.82],[158326.62,185041.82],[158326.62,185061.82]]]}},
{"type":"Feature","properties":{"no2":32},"geometry":{"type":"Polygon","coordinates":[[[158336.62,185061.82],[158346.62,185061.82],[158346.62,185041.82],[158336.62,185041.82],[158336.62,185061.82]]]}},
{"type":"Feature","properties":{"no2":34},"geometry":{"type":"Polygon","coordinates":[[[158346.62,185061.82],[158356.62,185061.82],[158356.62,185051.82],[158346.62,185051.82],[158346.62,185061.82]]]}},
{"type":"Feature","properties":{"no2":37},"geometry":{"type":"Polygon","coordinates":[[[158366.62,185061.82],[158376.62,185061.82],[158376.62,185051.82],[158366.62,185051.82],[158366.62,185061.82]]]}},
{"type":"Feature","properties":{"no2":38},"geometry":{"type":"Polygon","coordinates":[[[158376.62,185061.82],[158386.62,185061.82],[158386.62,185051.82],[158376.62,185051.82],[158376.62,185061.82]]]}},
{"type":"Feature","properties":{"no2":39},"geometry":{"type":"Polygon","coordinates":[[[158386.62,185061.82],[158396.62,185061.82],[158396.62,185051.82],[158386.62,185051.82],[158386.62,185061.82]]]}},
{"type":"Feature","properties":{"no2":40},"geometry":{"type":"Polygon","coordinates":[[[158396.62,185061.82],[158406.62,185061.82],[158406.62,185051.82],[158396.62,185051.82],[158396.62,185061.82]]]}},
{"type":"Feature","properties":{"no2":41},"geometry":{"type":"Polygon","coordinates":[[[158406.62,185061.82],[158416.62,185061.82],[158416.62,185051.82],[158406.62,185051.82],[158406.62,185061.82]]]}},
{"type":"Feature","properties":{"no2":40},"geometry":{"type":"Polygon","coordinates":[[[158466.61,185061.82],[158476.61,185061.82],[158476.61,185031.82],[158466.61,185031.82],[158466.61,185061.82]]]}},
{"type":"Feature","properties":{"no2":39},"geometry":{"type":"Polygon","coordinates":[[[158476.61,185061.82],[158486.61,185061.82],[158486.61,185041.82],[158496.61,185041.82],[158496.61,185031.82],[158476.61,185031.82],[158476.61,185061.82]]]}},
{"type":"Feature","properties":{"no2":37},"geometry":{"type":"Polygon","coordinates":[[[158496.61,185071.82],[158506.61,185071.82],[158506.61,185051.82],[158496.61,185051.82],[158486.61,185051.82],[158486.61,185061.82],[158496.61,185061.82],[158496.61,185071.82]]]}},
{"type":"Feature","properties":{"no2":36},"geometry":{"type":"Polygon","coordinates":[[[158506.61,185061.82],[158516.61,185061.82],[158516.61,185051.82],[158506.61,185051.82],[158506.61,185061.82]]]}},
{"type":"Feature","properties":{"no2":19},"geometry":{"type":"Polygon","coordinates":[[[165366.09,185061.82],[165386.09,185061.82],[165386.09,185051.82],[165366.09,185051.82],[165366.09,185061.82]]]}},
{"type":"Feature","properties":{"no2":33},"geometry":{"type":"Polygon","coordinates":[[[158346.62,185051.82],[158356.62,185051.82],[158356.62,185041.82],[158346.62,185041.82],[158346.62,185051.82]]]}},
{"type":"Feature","properties":{"no2":35},"geometry":{"type":"Polygon","coordinates":[[[158356.62,185051.82],[158366.62,185051.82],[158366.62,185041.82],[158356.62,185041.82],[158356.62,185051.82]]]}},
{"type":"Feature","properties":{"no2":36},"geometry":{"type":"Polygon","coordinates":[[[158366.62,185051.82],[158376.62,185051.82],[158376.62,185041.82],[158366.62,185041.82],[158366.62,185051.82]]]}},
{"type":"Feature","properties":{"no2":37},"geometry":{"type":"Polygon","coordinates":[[[158376.62,185051.82],[158396.62,185051.82],[158396.62,185041.82],[158376.62,185041.82],[158376.62,185051.82]]]}},
{"type":"Feature","properties":{"no2":38},"geometry":{"type":"Polygon","coordinates":[[[158396.62,185051.82],[158406.62,185051.82],[158406.62,185041.82],[158396.62,185041.82],[158396.62,185051.82]]]}},
{"type":"Feature","properties":{"no2":39},"geometry":{"type":"Polygon","coordinates":[[[158406.62,185051.82],[158416.62,185051.82],[158416.62,185041.82],[158406.62,185041.82],[158406.62,185051.82]]]}},
{"type":"Feature","properties":{"no2":40},"geometry":{"type":"Polygon","coordinates":[[[158416.62,185051.82],[158426.61,185051.82],[158426.61,185041.82],[158416.62,185041.82],[158416.62,185051.82]]]}},
{"type":"Feature","properties":{"no2":42},"geometry":{"type":"Polygon","coordinates":[[[158436.61,185071.82],[158456.61,185071.82],[158456.61,185061.82],[158466.61,185061.82],[158466.61,185051.82],[158456.61,185051.82],[158456.61,185031.82],[158446.61,185031.82],[158446.61,185041.82],[158426.61,185041.82],[158426.61,185051.82],[158436.61,185051.82],[158436.61,185071.82]]]}},
{"type":"Feature","properties":{"no2":38},"geometry":{"type":"Polygon","coordinates":[[[158486.61,185051.82],[158506.61,185051.82],[158506.61,185041.82],[158516.61,185041.82],[158516.61,185021.82],[158506.61,185021.82],[158506.61,185031.82],[158496.61,185031.82],[158496.61,185041.82],[158486.61,185041.82],[158486.61,185051.82]]]}},
{"type":"Feature","properties":{"no2":37},"geometry":{"type":"Polygon","coordinates":[[[158506.61,185051.82],[158516.61,185051.82],[158516.61,185041.82],[158506.61,185041.82],[158506.61,185051.82]]]}},
{"type":"Feature","properties":{"no2":36},"geometry":{"type":"Polygon","coordinates":[[[158516.61,185051.82],[158526.61,185051.82],[158526.61,185031.82],[158516.61,185031.82],[158516.61,185051.82]]]}},
{"type":"Feature","properties":{"no2":31},"geometry":{"type":"Polygon","coordinates":[[[158336.62,185041.82],[158346.62,185041.82],[158346.62,185031.82],[158336.62,185031.82],[158336.62,185041.82]]]}},
{"type":"Feature","properties":{"no2":32},"geometry":{"type":"Polygon","coordinates":[[[158346.62,185041.82],[158356.62,185041.82],[158356.62,185031.82],[158346.62,185031.82],[158346.62,185041.82]]]}},
{"type":"Feature","properties":{"no2":33},"geometry":{"type":"Polygon","coordinates":[[[158356.62,185041.82],[158366.62,185041.82],[158366.62,185031.82],[158356.62,185031.82],[158356.62,185041.82]]]}},
{"type":"Feature","properties":{"no2":34},"geometry":{"type":"Polygon","coordinates":[[[158366.62,185041.82],[158376.62,185041.82],[158376.62,185031.82],[158366.62,185031.82],[158366.62,185041.82]]]}},
{"type":"Feature","properties":{"no2":35},"geometry":{"type":"Polygon","coordinates":[[[158376.62,185041.82],[158386.62,185041.82],[158386.62,185031.82],[158376.62,185031.82],[158376.62,185041.82]]]}},
{"type":"Feature","properties":{"no2":36},"geometry":{"type":"Polygon","coordinates":[[[158386.62,185041.82],[158396.62,185041.82],[158396.62,185031.82],[158386.62,185031.82],[158386.62,185041.82]]]}},
{"type":"Feature","properties":{"no2":37},"geometry":{"type":"Polygon","coordinates":[[[158396.62,185041.82],[158406.62,185041.82],[158406.62,185031.82],[158396.62,185031.82],[158396.62,185041.82]]]}},
{"type":"Feature","properties":{"no2":38},"geometry":{"type":"Polygon","coordinates":[[[158406.62,185041.82],[158416.62,185041.82],[158416.62,185031.82],[158406.62,185031.82],[158406.62,185041.82]]]}},
{"type":"Feature","properties":{"no2":39},"geometry":{"type":"Polygon","coordinates":[[[158416.62,185041.82],[158426.61,185041.82],[158426.61,185031.82],[158416.62,185031.82],[158416.62,185041.82]]]}},
{"type":"Feature","properties":{"no2":40},"geometry":{"type":"Polygon","coordinates":[[[158426.61,185041.82],[158436.61,185041.82],[158436.61,185031.82],[158426.61,185031.82],[158426.61,185041.82]]]}},
{"type":"Feature","properties":{"no2":41},"geometry":{"type":"Polygon","coordinates":[[[158436.61,185041.82],[158446.61,185041.82],[158446.61,185031.82],[158436.61,185031.82],[158436.61,185041.82]]]}},
{"type":"Feature","properties":{"no2":35},"geometry":{"type":"Polygon","coordinates":[[[158526.61,185041.82],[158536.61,185041.82],[158536.61,185021.82],[158526.61,185021.82],[158526.61,185041.82]]]}},
{"type":"Feature","properties":{"no2":39},"geometry":{"type":"Polygon","coordinates":[[[158496.61,185031.82],[158506.61,185031.82],[158506.61,185021.82],[158496.61,185021.82],[158496.61,185031.82]]]}},
{"type":"Feature","properties":{"no2":37},"geometry":{"type":"Polygon","coordinates":[[[158516.61,185031.82],[158526.61,185031.82],[158526.61,185021.82],[158516.61,185021.82],[158516.61,185031.82]]]}},
{"type":"Feature","properties":{"no2":33},"geometry":{"type":"Polygon","coordinates":[[[158536.61,185071.82],[158556.6,185071.82],[158556.6,185001.82],[158546.61,185001.82],[158546.61,185031.82],[158536.61,185031.82],[158536.61,185071.82]]]}},
{"type":"Feature","properties":{"no2":22},"geometry":{"type":"Polygon","coordinates":[[[159056.57,185071.82],[159376.54,185071.82],[159376.54,185061.82],[159366.54,185061.82],[159366.54,185051.82],[159356.54,185051.82],[159356.54,185041.82],[159346.54,185041.82],[159346.54,185031.82],[159336.55,185031.82],[159336.55,185021.82],[159326.55,185021.82],[159316.55,185021.82],[159316.55,185011.82],[159306.55,185011.82],[159306.55,185001.82],[159296.55,185001.82],[159296.55,184991.82],[159286.55,184991.82],[159286.55,184981.82],[159276.55,184981.82],[159266.55,184981.82],[159266.55,184971.82],[159246.55,184971.82],[159246.55,184981.82],[159216.55,184981.82],[159216.55,184991.82],[159186.56,184991.82],[159186.56,185001.82],[159166.56,185001.82],[159166.56,185011.82],[159136.56,185011.82],[159136.56,185021.82],[159106.56,185021.82],[159106.56,185031.82],[159076.57,185031.82],[159076.57,185041.82],[159056.57,185041.82],[159056.57,185071.82]]]}},
{"type":"Feature","properties":{"no2":23},"geometry":{"type":"Polygon","coordinates":[[[168985.81,185071.82],[169005.81,185071.82],[169005.81,185051.82],[169015.81,185051.82],[169015.81,185031.82],[169025.81,185031.82],[169025.81,185021.82],[169035.81,185021.82],[169035.81,185011.82],[169045.81,185011.82],[169045.81,185001.82],[169055.81,185001.82],[169055.81,184991.82],[169065.81,184991.82],[169065.81,184981.82],[169075.81,184981.82],[169075.81,184971.82],[169115.8,184971.82],[169115.8,185031.82],[169105.8,185031.82],[169105.8,185051.82],[169075.81,185051.82],[169075.81,185061.82],[169045.81,185061.82],[169045.81,185071.82],[169125.8,185071.82],[169125.8,185001.82],[169135.8,185001.82],[169135.8,184961.82],[169125.8,184961.82],[169125.8,184951.82],[169065.81,184951.82],[169065.81,184961.82],[169055.81,184961.82],[169055.81,184971.82],[169045.81,184971.82],[169045.81,184981.82],[169035.81,184981.82],[169035.81,185001.82],[169025.81,185001.82],[169025.81,185011.82],[169015.81,185011.82],[169015.81,185021.82],[169005.81,185021.82],[169005.81,185041.82],[168995.81,185041.82],[168995.81,185051.82],[168985.81,185051.82],[168985.81,185071.82]]]}},
{"type":"Feature","properties":{"no2":24},"geometry":{"type":"Polygon","coordinates":[[[169005.81,185071.82],[169045.81,185071.82],[169045.81,185061.82],[169075.81,185061.82],[169075.81,185051.82],[169105.8,185051.82],[169105.8,185031.82],[169115.8,185031.82],[169115.8,184971.82],[169075.81,184971.82],[169075.81,184981.82],[169065.81,184981.82],[169065.81,184991.82],[169055.81,184991.82],[169055.81,185001.82],[169045.81,185001.82],[169045.81,185011.82],[169035.81,185011.82],[169035.81,185021.82],[169025.81,185021.82],[169025.81,185031.82],[169015.81,185031.82],[169015.81,185051.82],[169005.81,185051.82],[169005.81,185071.82]],[[169055.81,185021.82],[169055.81,185011.82],[169065.81,185011.82],[169065.81,185001.82],[169075.81,185001.82],[169075.81,184991.82],[169095.8,184991.82],[169095.8,185011.82],[169085.81,185011.82],[169085.81,185021.82],[169055.81,185021.82]]]}},
{"type":"Feature","properties":{"no2":19},"geometry":{"type":"Polygon","coordinates":[[[173455.47,185071.82],[173835.44,185071.82],[173835.44,185061.82],[173825.45,185061.82],[173815.45,185061.82],[173815.45,185051.82],[173805.45,185051.82],[173785.45,185051.82],[173785.45,185041.82],[173775.45,185041.82],[173755.45,185041.82],[173755.45,185031.82],[173745.45,185031.82],[173725.45,185031.82],[173725.45,185021.82],[173715.45,185021.82],[173695.46,185021.82],[173695.46,185011.82],[173685.46,185011.82],[173675.46,185011.82],[173675.46,185001.82],[173665.46,185001.82],[173525.47,185001.82],[173525.47,184991.82],[173505.47,184991.82],[173505.47,185001.82],[173495.47,185001.82],[173495.47,185011.82],[173485.47,185011.82],[173485.47,185031.82],[173475.47,185031.82],[173475.47,185041.82],[173465.47,185041.82],[173465.47,185061.82],[173455.47,185061.82],[173455.47,185071.82]]]}},
{"type":"Feature","properties":{"no2":31},"geometry":{"type":"Polygon","coordinates":[[[158346.62,185031.82],[158356.62,185031.82],[158356.62,185011.82],[158346.62,185011.82],[158346.62,185031.82]]]}},
{"type":"Feature","properties":{"no2":32},"geometry":{"type":"Polygon","coordinates":[[[158356.62,185031.82],[158366.62,185031.82],[158366.62,185001.82],[158356.62,185001.82],[158356.62,185031.82]]]}},
{"type":"Feature","properties":{"no2":33},"geometry":{"type":"Polygon","coordinates":[[[158366.62,185031.82],[158376.62,185031.82],[158376.62,184981.82],[158366.62,184981.82],[158366.62,185031.82]]]}},
{"type":"Feature","properties":{"no2":34},"geometry":{"type":"Polygon","coordinates":[[[158376.62,185031.82],[158386.62,185031.82],[158386.62,184971.82],[158376.62,184971.82],[158376.62,185031.82]]]}},
{"type":"Feature","properties":{"no2":35},"geometry":{"type":"Polygon","coordinates":[[[158386.62,185031.82],[158396.62,185031.82],[158396.62,184961.82],[158386.62,184961.82],[158386.62,185031.82]]]}},
{"type":"Feature","properties":{"no2":36},"geometry":{"type":"Polygon","coordinates":[[[158396.62,185031.82],[158406.62,185031.82],[158406.62,184951.82],[158396.62,184951.82],[158396.62,185031.82]]]}},
{"type":"Feature","properties":{"no2":37},"geometry":{"type":"Polygon","coordinates":[[[158406.62,185031.82],[158416.62,185031.82],[158416.62,184941.83],[158406.62,184941.83],[158406.62,185031.82]]]}},
{"type":"Feature","properties":{"no2":38},"geometry":{"type":"Polygon","coordinates":[[[158416.62,185031.82],[158426.61,185031.82],[158426.61,184961.82],[158416.62,184961.82],[158416.62,185031.82]]]}},
{"type":"Feature","properties":{"no2":39},"geometry":{"type":"Polygon","coordinates":[[[158426.61,185031.82],[158436.61,185031.82],[158436.61,184981.82],[158426.61,184981.82],[158426.61,185031.82]]]}},
{"type":"Feature","properties":{"no2":40},"geometry":{"type":"Polygon","coordinates":[[[158436.61,185031.82],[158446.61,185031.82],[158446.61,184991.82],[158436.61,184991.82],[158436.61,185031.82]]]}},
{"type":"Feature","properties":{"no2":41},"geometry":{"type":"Polygon","coordinates":[[[158456.61,185051.82],[158466.61,185051.82],[158466.61,185031.82],[158476.61,185031.82],[158476.61,185021.82],[158466.61,185021.82],[158456.61,185021.82],[158456.61,185011.82],[158446.61,185011.82],[158446.61,185031.82],[158456.61,185031.82],[158456.61,185051.82]]]}},
{"type":"Feature","properties":{"no2":40},"geometry":{"type":"Polygon","coordinates":[[[158476.61,185031.82],[158496.61,185031.82],[158496.61,185021.82],[158506.61,185021.82],[158506.61,185011.82],[158516.61,185011.82],[158516.61,184991.82],[158506.61,184991.82],[158506.61,185001.82],[158496.61,185001.82],[158496.61,185011.82],[158486.61,185011.82],[158486.61,185021.82],[158476.61,185021.82],[158476.61,185031.82]]]}},
{"type":"Feature","properties":{"no2":34},"geometry":{"type":"Polygon","coordinates":[[[158536.61,185031.82],[158546.61,185031.82],[158546.61,185011.82],[158536.61,185011.82],[158536.61,185031.82]]]}},
{"type":"Feature","properties":{"no2":41},"geometry":{"type":"Polygon","coordinates":[[[158476.61,185021.82],[158486.61,185021.82],[158486.61,185011.82],[158476.61,185011.82],[158476.61,185021.82]]]}},
{"type":"Feature","properties":{"no2":39},"geometry":{"type":"Polygon","coordinates":[[[158506.61,185021.82],[158516.61,185021.82],[158516.61,185011.82],[158506.61,185011.82],[158506.61,185021.82]]]}},
{"type":"Feature","properties":{"no2":38},"geometry":{"type":"Polygon","coordinates":[[[158516.61,185021.82],[158526.61,185021.82],[158526.61,185001.82],[158516.61,185001.82],[158516.61,185021.82]]]}},
{"type":"Feature","properties":{"no2":36},"geometry":{"type":"Polygon","coordinates":[[[158526.61,185021.82],[158536.61,185021.82],[158536.61,185011.82],[158526.61,185011.82],[158526.61,185021.82]]]}},
{"type":"Feature","properties":{"no2":25},"geometry":{"type":"Polygon","coordinates":[[[169055.81,185021.82],[169085.81,185021.82],[169085.81,185011.82],[169095.8,185011.82],[169095.8,184991.82],[169075.81,184991.82],[169075.81,185001.82],[169065.81,185001.82],[169065.81,185011.82],[169055.81,185011.82],[169055.81,185021.82]]]}},
{"type":"Feature","properties":{"no2":22},"geometry":{"type":"Polygon","coordinates":[[[127178.99,185011.82],[127188.99,185011.82],[127188.99,184991.82],[127178.99,184991.82],[127178.99,185011.82]]]}},
{"type":"Feature","properties":{"no2":41},"geometry":{"type":"Polygon","coordinates":[[[158486.61,185011.82],[158496.61,185011.82],[158496.61,185001.82],[158486.61,185001.82],[158486.61,185011.82]]]}},
{"type":"Feature","properties":{"no2":35},"geometry":{"type":"Polygon","coordinates":[[[158536.61,185011.82],[158546.61,185011.82],[158546.61,185001.82],[158536.61,185001.82],[158536.61,185011.82]]]}},
{"type":"Feature","properties":{"no2":22},"geometry":{"type":"Polygon","coordinates":[[[174515.39,185011.82],[174525.39,185011.82],[174525.39,185001.82],[174515.39,185001.82],[174515.39,185011.82]]]}},
{"type":"Feature","properties":{"no2":17},"geometry":{"type":"Polygon","coordinates":[[[140337.99,185001.82],[140347.99,185001.82],[140347.99,184961.82],[140337.99,184961.82],[140337.99,185001.82]]]}},
{"type":"Feature","properties":{"no2":31},"geometry":{"type":"Polygon","coordinates":[[[158356.62,185001.82],[158366.62,185001.82],[158366.62,184981.82],[158356.62,184981.82],[158356.62,185001.82]]]}},
{"type":"Feature","properties":{"no2":41},"geometry":{"type":"Polygon","coordinates":[[[158496.61,185001.82],[158506.61,185001.82],[158506.61,184991.82],[158496.61,184991.82],[158496.61,185001.82]]]}},
{"type":"Feature","properties":{"no2":39},"geometry":{"type":"Polygon","coordinates":[[[158516.61,185001.82],[158526.61,185001.82],[158526.61,184951.82],[158516.61,184951.82],[158516.61,185001.82]]]}},
{"type":"Feature","properties":{"no2":34},"geometry":{"type":"Polygon","coordinates":[[[158546.61,185001.82],[158556.6,185001.82],[158556.6,184961.82],[158546.61,184961.82],[158546.61,185001.82]]]}},
{"type":"Feature","properties":{"no2":22},"geometry":{"type":"Polygon","coordinates":[[[174975.36,185071.82],[174995.36,185071.82],[174995.36,185061.82],[174985.36,185061.82],[174985.36,185051.82],[174975.36,185051.82],[174975.36,185041.82],[174965.36,185041.82],[174965.36,185031.82],[174955.36,185031.82],[174955.36,185021.82],[174945.36,185021.82],[174945.36,185011.82],[174935.36,185011.82],[174925.36,185011.82],[174925.36,185001.82],[174915.36,185001.82],[174885.37,185001.82],[174885.37,184991.82],[174875.37,184991.82],[174735.38,184991.82],[174735.38,184981.82],[174605.39,184981.82],[174605.39,184991.82],[174555.39,184991.82],[174555.39,185001.82],[174615.39,185001.82],[174615.39,184991.82],[174665.38,184991.82],[174665.38,185001.82],[174765.37,185001.82],[174775.37,185001.82],[174775.37,185011.82],[174825.37,185011.82],[174835.37,185011.82],[174835.37,185021.82],[174875.37,185021.82],[174885.37,185021.82],[174885.37,185031.82],[174895.36,185031.82],[174905.36,185031.82],[174905.36,185041.82],[174915.36,185041.82],[174925.36,185041.82],[174925.36,185051.82],[174945.36,185051.82],[174955.36,185051.82],[174955.36,185061.82],[174965.36,185061.82],[174975.36,185061.82],[174975.36,185071.82]]]}},
{"type":"Feature","properties":{"no2":22},"geometry":{"type":"Polygon","coordinates":[[[127168.99,184991.82],[127178.99,184991.82],[127178.99,184961.82],[127168.99,184961.82],[127168.99,184991.82]]]}},
{"type":"Feature","properties":{"no2":41},"geometry":{"type":"Polygon","coordinates":[[[158436.61,184991.82],[158446.61,184991.82],[158446.61,184981.82],[158436.61,184981.82],[158436.61,184991.82]]]}},
{"type":"Feature","properties":{"no2":41},"geometry":{"type":"Polygon","coordinates":[[[158506.61,184991.82],[158516.61,184991.82],[158516.61,184961.82],[158506.61,184961.82],[158506.61,184991.82]]]}},
{"type":"Feature","properties":{"no2":22},"geometry":{"type":"Polygon","coordinates":[[[174365.4,185011.82],[174435.4,185011.82],[174435.4,185001.82],[174425.4,185001.82],[174385.4,185001.82],[174385.4,184991.82],[174375.4,184991.82],[174345.41,184991.82],[174345.41,184981.82],[174335.41,184981.82],[174295.41,184981.82],[174295.41,184971.82],[174225.42,184971.82],[174225.42,184981.82],[173995.43,184981.82],[173995.43,184991.82],[174285.41,184991.82],[174295.41,184991.82],[174295.41,185001.82],[174355.41,185001.82],[174365.4,185001.82],[174365.4,185011.82]]]}},
{"type":"Feature","properties":{"no2":32},"geometry":{"type":"Polygon","coordinates":[[[158366.62,184981.82],[158376.62,184981.82],[158376.62,184971.82],[158366.62,184971.82],[158366.62,184981.82]]]}},
{"type":"Feature","properties":{"no2":40},"geometry":{"type":"Polygon","coordinates":[[[158426.61,184981.82],[158436.61,184981.82],[158436.61,184961.82],[158426.61,184961.82],[158426.61,184981.82]]]}},
{"type":"Feature","properties":{"no2":22},"geometry":{"type":"Polygon","coordinates":[[[173865.44,184981.82],[173875.44,184981.82],[173875.44,184971.82],[173865.44,184971.82],[173865.44,184981.82]]]}},
{"type":"Feature","properties":{"no2":31},"geometry":{"type":"Polygon","coordinates":[[[158366.62,184971.82],[158376.62,184971.82],[158376.62,184951.82],[158366.62,184951.82],[158366.62,184971.82]]]}},
{"type":"Feature","properties":{"no2":33},"geometry":{"type":"Polygon","coordinates":[[[158376.62,184971.82],[158386.62,184971.82],[158386.62,184961.82],[158376.62,184961.82],[158376.62,184971.82]]]}},
{"type":"Feature","properties":{"no2":32},"geometry":{"type":"Polygon","coordinates":[[[158376.62,184961.82],[158386.62,184961.82],[158386.62,184951.82],[158376.62,184951.82],[158376.62,184961.82]]]}},
{"type":"Feature","properties":{"no2":34},"geometry":{"type":"Polygon","coordinates":[[[158386.62,184961.82],[158396.62,184961.82],[158396.62,184951.82],[158386.62,184951.82],[158386.62,184961.82]]]}},
{"type":"Feature","properties":{"no2":39},"geometry":{"type":"Polygon","coordinates":[[[158416.62,184961.82],[158426.61,184961.82],[158426.61,184941.83],[158416.62,184941.83],[158416.62,184961.82]]]}},
{"type":"Feature","properties":{"no2":41},"geometry":{"type":"Polygon","coordinates":[[[158426.61,184961.82],[158436.61,184961.82],[158436.61,184941.83],[158426.61,184941.83],[158426.61,184961.82]]]}},
{"type":"Feature","properties":{"no2":43},"geometry":{"type":"Polygon","coordinates":[[[158446.61,184971.82],[158486.61,184971.82],[158486.61,184961.82],[158476.61,184961.82],[158466.61,184961.82],[158466.61,184951.82],[158456.61,184951.82],[158456.61,184941.83],[158446.61,184941.83],[158446.61,184951.82],[158436.61,184951.82],[158436.61,184961.82],[158446.61,184961.82],[158446.61,184971.82]]]}},
{"type":"Feature","properties":{"no2":40},"geometry":{"type":"Polygon","coordinates":[[[158506.61,184961.82],[158516.61,184961.82],[158516.61,184941.83],[158506.61,184941.83],[158506.61,184961.82]]]}},
{"type":"Feature","properties":{"no2":33},"geometry":{"type":"Polygon","coordinates":[[[158386.62,184951.82],[158396.62,184951.82],[158396.62,184941.83],[158386.62,184941.83],[158386.62,184951.82]]]}},
{"type":"Feature","properties":{"no2":35},"geometry":{"type":"Polygon","coordinates":[[[158396.62,184951.82],[158406.62,184951.82],[158406.62,184941.83],[158396.62,184941.83],[158396.62,184951.82]]]}},
{"type":"Feature","properties":{"no2":42},"geometry":{"type":"Polygon","coordinates":[[[158436.61,184951.82],[158446.61,184951.82],[158446.61,184941.83],[158436.61,184941.83],[158436.61,184951.82]]]}},
{"type":"Feature","properties":{"no2":20},"geometry":{"type":"Polygon","coordinates":[[[156576.76,185071.82],[157426.69,185071.82],[157426.69,184891.83],[157416.69,184891.83],[157416.69,184901.83],[157376.69,184901.83],[157376.69,184911.83],[157296.7,184911.83],[157296.7,184921.83],[157226.71,184921.83],[157226.71,184931.83],[157166.71,184931.83],[157166.71,184941.83],[157136.71,184941.83],[157136.71,184951.82],[157116.71,184951.82],[157116.71,184961.82],[157096.72,184961.82],[157096.72,184971.82],[157076.72,184971.82],[157076.72,184981.82],[157056.72,184981.82],[157056.72,184991.82],[157036.72,184991.82],[157036.72,185001.82],[157016.72,185001.82],[157016.72,185011.82],[156996.72,185011.82],[156996.72,185021.82],[156976.72,185021.82],[156976.72,185031.82],[156936.73,185031.82],[156936.73,185021.82],[156926.73,185021.82],[156906.73,185021.82],[156906.73,185011.82],[156896.73,185011.82],[156866.73,185011.82],[156866.73,185001.82],[156856.73,185001.82],[156796.74,185001.82],[156796.74,184991.82],[156786.74,184991.82],[156716.74,184991.82],[156716.74,184981.82],[156646.75,184981.82],[156646.75,184991.82],[156636.75,184991.82],[156636.75,185001.82],[156626.75,185001.82],[156626.75,185011.82],[156616.75,185011.82],[156616.75,185021.82],[156606.75,185021.82],[156606.75,185041.82],[156596.75,185041.82],[156596.75,185051.82],[156586.75,185051.82],[156586.75,185061.82],[156576.76,185061.82],[156576.76,185071.82]]]}},
{"type":"Feature","properties":{"no2":37},"geometry":{"type":"Polygon","coordinates":[[[158526.61,185011.82],[158536.61,185011.82],[158536.61,184921.83],[158526.61,184921.83],[158526.61,185011.82]]]}},
{"type":"Feature","properties":{"no2":36},"geometry":{"type":"Polygon","coordinates":[[[158536.61,185001.82],[158546.61,185001.82],[158546.61,184921.83],[158536.61,184921.83],[158536.61,185001.82]]]}},
{"type":"Feature","properties":{"no2":23},"geometry":{"type":"Polygon","coordinates":[[[169165.8,185031.82],[169175.8,185031.82],[169175.8,185021.82],[169185.8,185021.82],[169185.8,185011.82],[169205.8,185011.82],[169205.8,185001.82],[169215.8,185001.82],[169215.8,184991.82],[169235.79,184991.82],[169235.79,184981.82],[169265.79,184981.82],[169265.79,184971.82],[169295.79,184971.82],[169295.79,184961.82],[169325.79,184961.82],[169325.79,184951.82],[169365.78,184951.82],[169365.78,184941.83],[169415.78,184941.83],[169415.78,184931.83],[169475.78,184931.83],[169475.78,184921.83],[169535.77,184921.83],[169535.77,184911.83],[169585.77,184911.83],[169585.77,184901.83],[169645.76,184901.83],[169645.76,184891.83],[169705.76,184891.83],[169705.76,184881.83],[169765.75,184881.83],[169765.75,184871.83],[169815.75,184871.83],[169815.75,184861.83],[169805.75,184861.83],[169735.76,184861.83],[169735.76,184871.83],[169675.76,184871.83],[169675.76,184881.83],[169615.77,184881.83],[169615.77,184891.83],[169545.77,184891.83],[169545.77,184901.83],[169475.78,184901.83],[169475.78,184911.83],[169415.78,184911.83],[169415.78,184921.83],[169365.78,184921.83],[169365.78,184931.83],[169315.79,184931.83],[169315.79,184941.83],[169255.79,184941.83],[169255.79,184951.82],[169165.8,184951.82],[169165.8,184961.82],[169155.8,184961.82],[169155.8,184971.82],[169165.8,184971.82],[169165.8,185031.82]]]}},
{"type":"Feature","properties":{"no2":22},"geometry":{"type":"Polygon","coordinates":[[[127158.99,184961.82],[127168.99,184961.82],[127168.99,184931.83],[127158.99,184931.83],[127158.99,184961.82]]]}},
{"type":"Feature","properties":{"no2":35},"geometry":{"type":"Polygon","coordinates":[[[158546.61,184961.82],[158556.6,184961.82],[158556.6,184921.83],[158546.61,184921.83],[158546.61,184961.82]]]}},
{"type":"Feature","properties":{"no2":42},"geometry":{"type":"Polygon","coordinates":[[[158456.61,185021.82],[158476.61,185021.82],[158476.61,185011.82],[158486.61,185011.82],[158486.61,185001.82],[158496.61,185001.82],[158496.61,184991.82],[158506.61,184991.82],[158506.61,184951.82],[158496.61,184951.82],[158496.61,184931.83],[158486.61,184931.83],[158486.61,184921.83],[158476.61,184921.83],[158476.61,184931.83],[158456.61,184931.83],[158456.61,184951.82],[158466.61,184951.82],[158466.61,184961.82],[158476.61,184961.82],[158486.61,184961.82],[158486.61,184971.82],[158446.61,184971.82],[158446.61,184961.82],[158436.61,184961.82],[158436.61,184981.82],[158446.61,184981.82],[158446.61,185011.82],[158456.61,185011.82],[158456.61,185021.82]]]}},
{"type":"Feature","properties":{"no2":41},"geometry":{"type":"Polygon","coordinates":[[[158496.61,184951.82],[158506.61,184951.82],[158506.61,184931.83],[158496.61,184931.83],[158496.61,184951.82]]]}},
{"type":"Feature","properties":{"no2":38},"geometry":{"type":"Polygon","coordinates":[[[158516.61,184951.82],[158526.61,184951.82],[158526.61,184921.83],[158536.61,184921.83],[158536.61,184891.83],[158526.61,184891.83],[158526.61,184911.83],[158516.61,184911.83],[158516.61,184951.82]]]}},
{"type":"Feature","properties":{"no2":34},"geometry":{"type":"Polygon","coordinates":[[[158556.6,184951.82],[158566.6,184951.82],[158566.6,184921.83],[158556.6,184921.83],[158556.6,184951.82]]]}},
{"type":"Feature","properties":{"no2":16},"geometry":{"type":"Polygon","coordinates":[[[131348.67,184951.82],[131368.67,184951.82],[131368.67,184901.83],[131358.67,184901.83],[131348.67,184901.83],[131348.67,184911.83],[131338.67,184911.83],[131338.67,184921.83],[131328.67,184921.83],[131328.67,184941.83],[131338.67,184941.83],[131348.67,184941.83],[131348.67,184951.82]]]}},
{"type":"Feature","properties":{"no2":32},"geometry":{"type":"Polygon","coordinates":[[[158386.62,184941.83],[158396.62,184941.83],[158396.62,184921.83],[158386.62,184921.83],[158386.62,184941.83]]]}},
{"type":"Feature","properties":{"no2":34},"geometry":{"type":"Polygon","coordinates":[[[158396.62,184941.83],[158406.62,184941.83],[158406.62,184931.83],[158396.62,184931.83],[158396.62,184941.83]]]}},
{"type":"Feature","properties":{"no2":36},"geometry":{"type":"Polygon","coordinates":[[[158406.62,184941.83],[158416.62,184941.83],[158416.62,184931.83],[158406.62,184931.83],[158406.62,184941.83]]]}},
{"type":"Feature","properties":{"no2":38},"geometry":{"type":"Polygon","coordinates":[[[158416.62,184941.83],[158426.61,184941.83],[158426.61,184931.83],[158416.62,184931.83],[158416.62,184941.83]]]}},
{"type":"Feature","properties":{"no2":39},"geometry":{"type":"Polygon","coordinates":[[[158426.61,184941.83],[158436.61,184941.83],[158436.61,184931.83],[158426.61,184931.83],[158426.61,184941.83]]]}},
{"type":"Feature","properties":{"no2":40},"geometry":{"type":"Polygon","coordinates":[[[158436.61,184941.83],[158446.61,184941.83],[158446.61,184931.83],[158436.61,184931.83],[158436.61,184941.83]]]}},
{"type":"Feature","properties":{"no2":41},"geometry":{"type":"Polygon","coordinates":[[[158446.61,184941.83],[158456.61,184941.83],[158456.61,184931.83],[158446.61,184931.83],[158446.61,184941.83]]]}},
{"type":"Feature","properties":{"no2":39},"geometry":{"type":"Polygon","coordinates":[[[158506.61,184941.83],[158516.61,184941.83],[158516.61,184911.83],[158506.61,184911.83],[158506.61,184941.83]]]}},
{"type":"Feature","properties":{"no2":22},"geometry":{"type":"Polygon","coordinates":[[[127148.99,184931.83],[127158.99,184931.83],[127158.99,184901.83],[127148.99,184901.83],[127148.99,184931.83]]]}},
{"type":"Feature","properties":{"no2":33},"geometry":{"type":"Polygon","coordinates":[[[158396.62,184931.83],[158406.62,184931.83],[158406.62,184911.83],[158396.62,184911.83],[158396.62,184931.83]]]}},
{"type":"Feature","properties":{"no2":35},"geometry":{"type":"Polygon","coordinates":[[[158406.62,184931.83],[158416.62,184931.83],[158416.62,184921.83],[158406.62,184921.83],[158406.62,184931.83]]]}},
{"type":"Feature","properties":{"no2":36},"geometry":{"type":"Polygon","coordinates":[[[158416.62,184931.83],[158426.61,184931.83],[158426.61,184921.83],[158416.62,184921.83],[158416.62,184931.83]]]}},
{"type":"Feature","properties":{"no2":37},"geometry":{"type":"Polygon","coordinates":[[[158426.61,184931.83],[158436.61,184931.83],[158436.61,184921.83],[158426.61,184921.83],[158426.61,184931.83]]]}},
{"type":"Feature","properties":{"no2":38},"geometry":{"type":"Polygon","coordinates":[[[158436.61,184931.83],[158446.61,184931.83],[158446.61,184921.83],[158436.61,184921.83],[158436.61,184931.83]]]}},
{"type":"Feature","properties":{"no2":39},"geometry":{"type":"Polygon","coordinates":[[[158446.61,184931.83],[158456.61,184931.83],[158456.61,184921.83],[158446.61,184921.83],[158446.61,184931.83]]]}},
{"type":"Feature","properties":{"no2":40},"geometry":{"type":"Polygon","coordinates":[[[158456.61,184931.83],[158466.61,184931.83],[158466.61,184921.83],[158456.61,184921.83],[158456.61,184931.83]]]}},
{"type":"Feature","properties":{"no2":41},"geometry":{"type":"Polygon","coordinates":[[[158466.61,184931.83],[158476.61,184931.83],[158476.61,184921.83],[158466.61,184921.83],[158466.61,184931.83]]]}},
{"type":"Feature","properties":{"no2":40},"geometry":{"type":"Polygon","coordinates":[[[158496.61,184931.83],[158506.61,184931.83],[158506.61,184911.83],[158496.61,184911.83],[158496.61,184931.83]]]}},
{"type":"Feature","properties":{"no2":34},"geometry":{"type":"Polygon","coordinates":[[[158406.62,184921.83],[158416.62,184921.83],[158416.62,184911.83],[158406.62,184911.83],[158406.62,184921.83]]]}},
{"type":"Feature","properties":{"no2":35},"geometry":{"type":"Polygon","coordinates":[[[158416.62,184921.83],[158426.61,184921.83],[158426.61,184911.83],[158416.62,184911.83],[158416.62,184921.83]]]}},
{"type":"Feature","properties":{"no2":36},"geometry":{"type":"Polygon","coordinates":[[[158426.61,184921.83],[158436.61,184921.83],[158436.61,184911.83],[158426.61,184911.83],[158426.61,184921.83]]]}},
{"type":"Feature","properties":{"no2":37},"geometry":{"type":"Polygon","coordinates":[[[158436.61,184921.83],[158446.61,184921.83],[158446.61,184911.83],[158436.61,184911.83],[158436.61,184921.83]]]}},
{"type":"Feature","properties":{"no2":38},"geometry":{"type":"Polygon","coordinates":[[[158446.61,184921.83],[158456.61,184921.83],[158456.61,184911.83],[158446.61,184911.83],[158446.61,184921.83]]]}},
{"type":"Feature","properties":{"no2":39},"geometry":{"type":"Polygon","coordinates":[[[158456.61,184921.83],[158466.61,184921.83],[158466.61,184911.83],[158456.61,184911.83],[158456.61,184921.83]]]}},
{"type":"Feature","properties":{"no2":40},"geometry":{"type":"Polygon","coordinates":[[[158466.61,184921.83],[158476.61,184921.83],[158476.61,184911.83],[158466.61,184911.83],[158466.61,184921.83]]]}},
{"type":"Feature","properties":{"no2":41},"geometry":{"type":"Polygon","coordinates":[[[158486.61,184931.83],[158496.61,184931.83],[158496.61,184911.83],[158506.61,184911.83],[158506.61,184901.83],[158496.61,184901.83],[158486.61,184901.83],[158486.61,184911.83],[158476.61,184911.83],[158476.61,184921.83],[158486.61,184921.83],[158486.61,184931.83]]]}},
{"type":"Feature","properties":{"no2":37},"geometry":{"type":"Polygon","coordinates":[[[158536.61,184921.83],[158546.61,184921.83],[158546.61,184891.83],[158536.61,184891.83],[158536.61,184921.83]]]}},
{"type":"Feature","properties":{"no2":36},"geometry":{"type":"Polygon","coordinates":[[[158546.61,184921.83],[158556.6,184921.83],[158556.6,184881.83],[158546.61,184881.83],[158546.61,184921.83]]]}},
{"type":"Feature","properties":{"no2":35},"geometry":{"type":"Polygon","coordinates":[[[158556.6,184921.83],[158566.6,184921.83],[158566.6,184881.83],[158556.6,184881.83],[158556.6,184921.83]]]}},
{"type":"Feature","properties":{"no2":34},"geometry":{"type":"Polygon","coordinates":[[[158566.6,184921.83],[158576.6,184921.83],[158576.6,184901.83],[158586.6,184901.83],[158586.6,184861.83],[158576.6,184861.83],[158576.6,184881.83],[158566.6,184881.83],[158566.6,184921.83]]]}},
{"type":"Feature","properties":{"no2":32},"geometry":{"type":"Polygon","coordinates":[[[158396.62,184911.83],[158406.62,184911.83],[158406.62,184901.83],[158396.62,184901.83],[158396.62,184911.83]]]}},
{"type":"Feature","properties":{"no2":33},"geometry":{"type":"Polygon","coordinates":[[[158406.62,184911.83],[158416.62,184911.83],[158416.62,184881.83],[158406.62,184881.83],[158406.62,184911.83]]]}},
{"type":"Feature","properties":{"no2":34},"geometry":{"type":"Polygon","coordinates":[[[158416.62,184911.83],[158426.61,184911.83],[158426.61,184891.83],[158416.62,184891.83],[158416.62,184911.83]]]}},
{"type":"Feature","properties":{"no2":35},"geometry":{"type":"Polygon","coordinates":[[[158426.61,184911.83],[158436.61,184911.83],[158436.61,184901.83],[158426.61,184901.83],[158426.61,184911.83]]]}},
{"type":"Feature","properties":{"no2":36},"geometry":{"type":"Polygon","coordinates":[[[158436.61,184911.83],[158446.61,184911.83],[158446.61,184901.83],[158436.61,184901.83],[158436.61,184911.83]]]}},
{"type":"Feature","properties":{"no2":37},"geometry":{"type":"Polygon","coordinates":[[[158446.61,184911.83],[158456.61,184911.83],[158456.61,184901.83],[158446.61,184901.83],[158446.61,184911.83]]]}},
{"type":"Feature","properties":{"no2":38},"geometry":{"type":"Polygon","coordinates":[[[158456.61,184911.83],[158466.61,184911.83],[158466.61,184901.83],[158456.61,184901.83],[158456.61,184911.83]]]}},
{"type":"Feature","properties":{"no2":39},"geometry":{"type":"Polygon","coordinates":[[[158466.61,184911.83],[158476.61,184911.83],[158476.61,184901.83],[158466.61,184901.83],[158466.61,184911.83]]]}},
{"type":"Feature","properties":{"no2":40},"geometry":{"type":"Polygon","coordinates":[[[158476.61,184911.83],[158486.61,184911.83],[158486.61,184901.83],[158476.61,184901.83],[158476.61,184911.83]]]}},
{"type":"Feature","properties":{"no2":40},"geometry":{"type":"Polygon","coordinates":[[[158506.61,184911.83],[158516.61,184911.83],[158516.61,184901.83],[158506.61,184901.83],[158506.61,184911.83]]]}},
{"type":"Feature","properties":{"no2":39},"geometry":{"type":"Polygon","coordinates":[[[158516.61,184911.83],[158526.61,184911.83],[158526.61,184891.83],[158516.61,184891.83],[158516.61,184911.83]]]}},
{"type":"Feature","properties":{"no2":22},"geometry":{"type":"Polygon","coordinates":[[[127138.99,184901.83],[127148.99,184901.83],[127148.99,184871.83],[127138.99,184871.83],[127138.99,184901.83]]]}},
{"type":"Feature","properties":{"no2":36},"geometry":{"type":"Polygon","coordinates":[[[158426.61,184901.83],[158436.61,184901.83],[158436.61,184871.83],[158426.61,184871.83],[158426.61,184901.83]]]}},
{"type":"Feature","properties":{"no2":38},"geometry":{"type":"Polygon","coordinates":[[[158446.61,184901.83],[158456.61,184901.83],[158456.61,184871.83],[158446.61,184871.83],[158446.61,184901.83]]]}},
{"type":"Feature","properties":{"no2":39},"geometry":{"type":"Polygon","coordinates":[[[158456.61,184901.83],[158466.61,184901.83],[158466.61,184871.83],[158456.61,184871.83],[158456.61,184901.83]]]}},
{"type":"Feature","properties":{"no2":40},"geometry":{"type":"Polygon","coordinates":[[[158466.61,184901.83],[158476.61,184901.83],[158476.61,184871.83],[158466.61,184871.83],[158466.61,184901.83]]]}},
{"type":"Feature","properties":{"no2":41},"geometry":{"type":"Polygon","coordinates":[[[158476.61,184901.83],[158486.61,184901.83],[158486.61,184871.83],[158476.61,184871.83],[158476.61,184901.83]]]}},
{"type":"Feature","properties":{"no2":41},"geometry":{"type":"Polygon","coordinates":[[[158506.61,184901.83],[158516.61,184901.83],[158516.61,184891.83],[158506.61,184891.83],[158506.61,184901.83]]]}},
{"type":"Feature","properties":{"no2":35},"geometry":{"type":"Polygon","coordinates":[[[158416.62,184891.83],[158426.61,184891.83],[158426.61,184881.83],[158416.62,184881.83],[158416.62,184891.83]]]}},
{"type":"Feature","properties":{"no2":41},"geometry":{"type":"Polygon","coordinates":[[[158516.61,184891.83],[158526.61,184891.83],[158526.61,184881.83],[158516.61,184881.83],[158516.61,184891.83]]]}},
{"type":"Feature","properties":{"no2":39},"geometry":{"type":"Polygon","coordinates":[[[158526.61,184891.83],[158536.61,184891.83],[158536.61,184881.83],[158526.61,184881.83],[158526.61,184891.83]]]}},
{"type":"Feature","properties":{"no2":38},"geometry":{"type":"Polygon","coordinates":[[[158536.61,184891.83],[158546.61,184891.83],[158546.61,184881.83],[158536.61,184881.83],[158536.61,184891.83]]]}},
{"type":"Feature","properties":{"no2":34},"geometry":{"type":"Polygon","coordinates":[[[158416.62,184881.83],[158426.61,184881.83],[158426.61,184871.83],[158416.62,184871.83],[158416.62,184881.83]]]}},
{"type":"Feature","properties":{"no2":41},"geometry":{"type":"Polygon","coordinates":[[[158526.61,184881.83],[158536.61,184881.83],[158536.61,184871.83],[158526.61,184871.83],[158526.61,184881.83]]]}},
{"type":"Feature","properties":{"no2":40},"geometry":{"type":"Polygon","coordinates":[[[158536.61,184881.83],[158546.61,184881.83],[158546.61,184871.83],[158536.61,184871.83],[158536.61,184881.83]]]}},
{"type":"Feature","properties":{"no2":38},"geometry":{"type":"Polygon","coordinates":[[[158546.61,184881.83],[158556.6,184881.83],[158556.6,184871.83],[158546.61,184871.83],[158546.61,184881.83]]]}},
{"type":"Feature","properties":{"no2":37},"geometry":{"type":"Polygon","coordinates":[[[158556.6,184881.83],[158566.6,184881.83],[158566.6,184871.83],[158556.6,184871.83],[158556.6,184881.83]]]}},
{"type":"Feature","properties":{"no2":35},"geometry":{"type":"Polygon","coordinates":[[[158566.6,184881.83],[158576.6,184881.83],[158576.6,184871.83],[158566.6,184871.83],[158566.6,184881.83]]]}},
{"type":"Feature","properties":{"no2":41},"geometry":{"type":"Polygon","coordinates":[[[158536.61,184871.83],[158546.61,184871.83],[158546.61,184861.83],[158536.61,184861.83],[158536.61,184871.83]]]}},
{"type":"Feature","properties":{"no2":40},"geometry":{"type":"Polygon","coordinates":[[[158546.61,184871.83],[158556.6,184871.83],[158556.6,184861.83],[158546.61,184861.83],[158546.61,184871.83]]]}},
{"type":"Feature","properties":{"no2":38},"geometry":{"type":"Polygon","coordinates":[[[158556.6,184871.83],[158566.6,184871.83],[158566.6,184861.83],[158556.6,184861.83],[158556.6,184871.83]]]}},
{"type":"Feature","properties":{"no2":30},"geometry":{"type":"Polygon","coordinates":[[[146277.54,185071.82],[146287.54,185071.82],[146287.54,184791.83],[146277.54,184791.83],[146277.54,185071.82]]]}},
{"type":"Feature","properties":{"no2":31},"geometry":{"type":"Polygon","coordinates":[[[146287.54,185071.82],[146297.54,185071.82],[146297.54,184841.83],[146287.54,184841.83],[146287.54,185071.82]]]}},
{"type":"Feature","properties":{"no2":16},"geometry":{"type":"Polygon","coordinates":[[[147007.48,185071.82],[147427.45,185071.82],[147427.45,185061.82],[147417.45,185061.82],[147417.45,185051.82],[147407.45,185051.82],[147407.45,185041.82],[147397.45,185041.82],[147397.45,185031.82],[147387.45,185031.82],[147387.45,185021.82],[147377.45,185021.82],[147367.45,185021.82],[147367.45,185011.82],[147357.46,185011.82],[147357.46,185001.82],[147347.46,185001.82],[147347.46,184991.82],[147337.46,184991.82],[147337.46,184981.82],[147327.46,184981.82],[147327.46,184971.82],[147317.46,184971.82],[147317.46,184961.82],[147307.46,184961.82],[147307.46,184951.82],[147297.46,184951.82],[147297.46,184941.83],[147287.46,184941.83],[147287.46,184931.83],[147277.46,184931.83],[147277.46,184921.83],[147267.46,184921.83],[147257.46,184921.83],[147257.46,184911.83],[147247.46,184911.83],[147247.46,184901.83],[147237.46,184901.83],[147237.46,184891.83],[147227.46,184891.83],[147217.47,184891.83],[147217.47,184881.83],[147207.47,184881.83],[147197.47,184881.83],[147197.47,184871.83],[147187.47,184871.83],[147187.47,184861.83],[147177.47,184861.83],[147167.47,184861.83],[147167.47,184851.83],[147157.47,184851.83],[147147.47,184851.83],[147147.47,184841.83],[147137.47,184841.83],[147127.47,184841.83],[147127.47,184831.83],[147107.47,184831.83],[147107.47,184841.83],[147097.47,184841.83],[147097.47,184871.83],[147087.48,184871.83],[147087.48,184901.83],[147077.48,184901.83],[147077.48,184941.83],[147067.48,184941.83],[147067.48,184971.82],[147057.48,184971.82],[147057.48,185001.82],[147047.48,185001.82],[147047.48,185021.82],[147037.48,185021.82],[147037.48,185031.82],[147027.48,185031.82],[147027.48,185051.82],[147017.48,185051.82],[147017.48,185061.82],[147007.48,185061.82],[147007.48,185071.82]]]}},
{"type":"Feature","properties":{"no2":16},"geometry":{"type":"Polygon","coordinates":[[[149267.31,185071.82],[150847.19,185071.82],[150847.19,185061.82],[150837.19,185061.82],[150807.19,185061.82],[150807.19,185051.82],[150797.19,185051.82],[150767.2,185051.82],[150767.2,185041.82],[150757.2,185041.82],[150727.2,185041.82],[150727.2,185031.82],[150717.2,185031.82],[150697.2,185031.82],[150697.2,185021.82],[150687.2,185021.82],[150657.2,185021.82],[150657.2,185011.82],[150647.21,185011.82],[150217.24,185011.82],[150217.24,185001.82],[150207.24,185001.82],[150167.24,185001.82],[150167.24,184991.82],[150157.24,184991.82],[150137.24,184991.82],[150137.24,184981.82],[150127.24,184981.82],[150117.25,184981.82],[150117.25,184971.82],[150107.25,184971.82],[150087.25,184971.82],[150087.25,184961.82],[150077.25,184961.82],[150067.25,184961.82],[150067.25,184951.82],[150057.25,184951.82],[150037.25,184951.82],[150037.25,184941.83],[150027.25,184941.83],[150017.25,184941.83],[150017.25,184931.83],[150007.25,184931.83],[149987.26,184931.83],[149987.26,184921.83],[149977.26,184921.83],[149967.26,184921.83],[149967.26,184911.83],[149957.26,184911.83],[149937.26,184911.83],[149937.26,184901.83],[149927.26,184901.83],[149907.26,184901.83],[149907.26,184891.83],[149897.26,184891.83],[149887.26,184891.83],[149887.26,184881.83],[149877.26,184881.83],[149857.27,184881.83],[149857.27,184871.83],[149847.27,184871.83],[149837.27,184871.83],[149837.27,184861.83],[149827.27,184861.83],[149807.27,184861.83],[149807.27,184851.83],[149797.27,184851.83],[149777.27,184851.83],[149777.27,184841.83],[149677.28,184841.83],[149677.28,184851.83],[149637.28,184851.83],[149637.28,184861.83],[149597.28,184861.83],[149597.28,184871.83],[149547.29,184871.83],[149547.29,184881.83],[149507.29,184881.83],[149507.29,184891.83],[149477.29,184891.83],[149477.29,184901.83],[149457.3,184901.83],[149457.3,184911.83],[149447.3,184911.83],[149447.3,184921.83],[149427.3,184921.83],[149427.3,184931.83],[149417.3,184931.83],[149417.3,184941.83],[149407.3,184941.83],[149407.3,184951.82],[149397.3,184951.82],[149397.3,184961.82],[149377.3,184961.82],[149377.3,184971.82],[149367.3,184971.82],[149367.3,184981.82],[149357.3,184981.82],[149357.3,184991.82],[149347.3,184991.82],[149347.3,185001.82],[149337.3,185001.82],[149337.3,185011.82],[149317.31,185011.82],[149317.31,185021.82],[149307.31,185021.82],[149307.31,185031.82],[149297.31,185031.82],[149297.31,185041.82],[149287.31,185041.82],[149287.31,185051.82],[149277.31,185051.82],[149277.31,185061.82],[149267.31,185061.82],[149267.31,185071.82]]]}},
{"type":"Feature","properties":{"no2":32},"geometry":{"type":"Polygon","coordinates":[[[158556.6,185071.82],[158576.6,185071.82],[158576.6,184991.82],[158586.6,184991.82],[158586.6,184971.82],[158596.6,184971.82],[158596.6,184961.82],[158606.6,184961.82],[158606.6,184941.83],[158616.6,184941.83],[158616.6,184871.83],[158626.6,184871.83],[158626.6,184811.83],[158616.6,184811.83],[158616.6,184831.83],[158606.6,184831.83],[158606.6,184901.83],[158596.6,184901.83],[158596.6,184931.83],[158586.6,184931.83],[158586.6,184951.82],[158576.6,184951.82],[158576.6,184971.82],[158566.6,184971.82],[158566.6,184991.82],[158556.6,184991.82],[158556.6,185071.82]]]}},
{"type":"Feature","properties":{"no2":33},"geometry":{"type":"Polygon","coordinates":[[[158556.6,184991.82],[158566.6,184991.82],[158566.6,184971.82],[158576.6,184971.82],[158576.6,184951.82],[158586.6,184951.82],[158586.6,184931.83],[158596.6,184931.83],[158596.6,184901.83],[158606.6,184901.83],[158606.6,184831.83],[158596.6,184831.83],[158596.6,184861.83],[158586.6,184861.83],[158586.6,184901.83],[158576.6,184901.83],[158576.6,184921.83],[158566.6,184921.83],[158566.6,184951.82],[158556.6,184951.82],[158556.6,184991.82]]]}},
{"type":"Feature","properties":{"no2":37},"geometry":{"type":"Polygon","coordinates":[[[158436.61,184901.83],[158446.61,184901.83],[158446.61,184851.83],[158436.61,184851.83],[158436.61,184901.83]]]}},
{"type":"Feature","properties":{"no2":22},"geometry":{"type":"Polygon","coordinates":[[[127128.99,184871.83],[127138.99,184871.83],[127138.99,184841.83],[127128.99,184841.83],[127128.99,184871.83]]]}},
{"type":"Feature","properties":{"no2":33},"geometry":{"type":"Polygon","coordinates":[[[158416.62,184871.83],[158426.61,184871.83],[158426.61,184851.83],[158416.62,184851.83],[158416.62,184871.83]]]}},
{"type":"Feature","properties":{"no2":35},"geometry":{"type":"Polygon","coordinates":[[[158426.61,184871.83],[158436.61,184871.83],[158436.61,184851.83],[158426.61,184851.83],[158426.61,184871.83]]]}},
{"type":"Feature","properties":{"no2":39},"geometry":{"type":"Polygon","coordinates":[[[158446.61,184871.83],[158456.61,184871.83],[158456.61,184851.83],[158446.61,184851.83],[158446.61,184871.83]]]}},
{"type":"Feature","properties":{"no2":40},"geometry":{"type":"Polygon","coordinates":[[[158456.61,184871.83],[158466.61,184871.83],[158466.61,184841.83],[158456.61,184841.83],[158456.61,184871.83]]]}},
{"type":"Feature","properties":{"no2":41},"geometry":{"type":"Polygon","coordinates":[[[158466.61,184871.83],[158476.61,184871.83],[158476.61,184851.83],[158466.61,184851.83],[158466.61,184871.83]]]}},
{"type":"Feature","properties":{"no2":42},"geometry":{"type":"Polygon","coordinates":[[[158486.61,184901.83],[158506.61,184901.83],[158506.61,184891.83],[158516.61,184891.83],[158516.61,184881.83],[158526.61,184881.83],[158526.61,184871.83],[158536.61,184871.83],[158536.61,184861.83],[158526.61,184861.83],[158496.61,184861.83],[158496.61,184851.83],[158476.61,184851.83],[158476.61,184871.83],[158486.61,184871.83],[158486.61,184901.83]]]}}
]
}
