Ecole fondamentale libre;6997;AMONINES;Route de Beffe;12;086-47 74 27;;Madame;SMETS;Jessica;131;
Ecole communale fondamentale;6990;HAMPTEAU;Clos des Pommiers;12;084-46 71 08;084 41 20 68;Monsieur;DELVAUX;Pol;123;ecole.hampteau@swing.be
Ecole fondamentale communale;6990;HOTTON;Rue de la Scierie;5;084-36 00 15;;Monsieur;DOUCET;Marcel;123;
Ecole fondamentale libre Hotton-Melreux;6990;HOTTON;Rue d'Izegem;14;084-46 71 87;084-46 71 87;Monsieur;CORNET;Albert;131;elhm@swing.be
Ecole fondamentale libre;6990;MARENNE;Grand-Route;49;084-31 61 01;084-31 61 01;Madame;CAMBRON;MARIE-PAULE;131;ecoledebourdon@caramail.com
Ecole fondamentale autonome "Enrico Macias" - Hotton;6990;HOTTON;Avenue de la Gare;42;084-46 60 54;084-46 81 58;Madame;MEUNIER;Claudine;111;
Ecole communale fondamentale;6983;ORTHO;Ortho;9;084-43 32 53;084-43 32 53;Madame;DENIS;Marie-Christine;123;
Ecole fondamentale communale de Beausaint - Vecmont;6980;BEAUSAINT;Rue du Monument;8;084-41 26 28;084-41 26 28;Monsieur;WIESEN;ALAIN;123;alainwiesen@gmail.com
Ecole communale fondamentale Bérismenil-Samrée;6982;SAMREE;Bérismenil;30;084-44 40 95;084/444095;Madame;MANAND;Véronique;123;
Ecole fondamentale libre;6980;LA ROCHE-EN-ARDENNE;Rue de Beausaint;19;084-41 21 58;084-41 21 58;Madame;MICHEL;Nathalie;131;ecole.libre@tiscali.be
Ecole communale fondamentale de Aye-Waha;6900;AYE;Rue des Sarts;2;084-31 36 81;084-31 54 81;Monsieur;MONNOYER;Bernard;123;didion.roland@skynet.be
Ecole communale fondamentale de Hargimont;6900;MARCHE-EN-FAMENNE;Rue d'Ambly;16;084-37 94 49;;Monsieur;VERPLAETSE;ERIC;123;ecole.hargimont@marche.be
Ecole communale fondamentale de Hollogne;6900;WAHA;Rue Saint-Denis;60;084-31 54 30;084-31 54 30;Monsieur;LOBET;JEAN-MARIE;123;ecole.hollogne@marche.be
Ecole fondamentale libre Saint-Remacle;6900;AYE;Rue des Jardins;1A;084-31 33 67;084-31 33 06;Madame;JASPART;Catherine;131;contact@ecole-saint-remacle.be
Ecole Saint-Antoine;6900;MARCHE-EN-FAMENNE;Rue des Ecoles;3;084-31 24 98;084-41 16 91;Madame;RENARD;Catherine;131;
Ecole fondamentale Saint-Martin;6900;MARCHE-EN-FAMENNE;Chemin Saint-Martin;38;084-31 22 59;;Madame;GILLET;SOPHIE;131;
Ecole fondamentale communale de Grune;6952;GRUNE;Rue du Centre;15;084-34 44 30;084-34 44 30;Monsieur;GILLET;RICHARD;123;gillet.richard@swing.be
Ecole communale de la Lhomme;6953;FORRIERES;Rue des Alliés;44;084-21 47 09;;Monsieur;LECOMTE;Olivier;123;remy.joel@swing.be
Ecole fondamentale libre;6950;NASSOGNE;Rue de Martel;9;084-21 07 91;084-21 07 91;Madame;PETITJEAN;Christine;131;
Ecole fondamentale communale;6987;RENDEUX;Rue de La-Roche;22;084-47 81 00;084-47 80 82;Monsieur;BOUTAY (faisant fonction);Philippe;123;