NOM_ETAB_LG,CODE_POST,NOM_LOC,ADR_RUE,ADR_NO,TEL,FAX,QUALITE_CHEF,NOM_CHEF,PRENOM_CHEF,RES_ID,email_publ
Institut des Soeurs de Notre-Dame,1070,BRUXELLES,Rue de Veeweyde,40,02-521 04 41,02-526 13 29,Madame,Hubert,Françoise,131,
INSTITUT NOTRE-DAME,1070,BRUXELLES,Rue de Fiennes,66,02-522 18 73,02-522 19 10,Monsieur,Robert,Frédéric,131,contact@ind1070.be
ECOLE SECONDAIRE THEO LAMBERT,1070,BRUXELLES,Av Victor et Jules Bertaux,45,02-521 91 45,02-521 43 46,Madame,Querton,Christiane,123,
ATHENEE ROYAL LEONARDO DA VINCI,1070,BRUXELLES,Rue Chomé-Wyns,5,02-526 83 83,02-523 26 39,Monsieur,Rolland,Yannick,111,afaure.2019@ens.irisnet.be
INSTITUT COMMUNAL MARIUS RENARD,1070,BRUXELLES,Rue Georges Moreau,107,02-529 44 60,02-523 75 24,Madame,Tournay-Dufrenne,Barbara,123,
INSTITUT MARIE IMMACULEE,1070,BRUXELLES,Rue des Résédas,51,02-521 63 25,02-521 63 73,Monsieur,Vanopbroeke,Pierre,131,
Institut Redouté-Peiffer,1070,BRUXELLES,Avenue Marius Renard,1,02-526 75 00,02-526 75 07,Monsieur,Reniers,Patrick,121,
INSTITUT DE LA PROVIDENCE,1070,BRUXELLES,Rue Haberman,27,02-523 01 82,02-521 67 44,Madame,Brahy,Véronique,131,
ATHENEE ROYAL D'AUDERGHEM,1160,BRUXELLES,Avenue du Parc de Woluwe,25-27,02-663 17 02,02-675 47 29,Monsieur,Cazzaro,Jean-Pierre,111,secretariat@arauderghem.be
INSTITUT SAINT-JULIEN-PARNASSE,1160,BRUXELLES,Av de l'Eglise St-Julien,22,02-672 68 01,02-672 75 64,Monsieur,Degraeve,Christian,131,
ATHENEE ADOLPHE MAX,1000,BRUXELLES,Boulevard Clovis,40,02-740 24 60,02-740 24 88,Madame,De Meue,Pascale,123,admax@brunette.brucity.be
ATHENEE ROYAL DE LA RIVE GAUCHE,1020,BRUXELLES,Rue Marie-Christine,83,02-427 97 67,02-427 05 77,Monsieur,Rouet,Xavier,111,
ATHENEE ROBERT CATTEAU,1000,BRUXELLES,Rue Ernest Allard,49,02-500 72 30,02-500 72 49,Madame,Gotto,Evelyne,123,info@robertcatteau.be
ATHENEE LEON LEPAGE,1000,BRUXELLES,Rue des Riches Claires,30,02-548 27 10,02-548 27 38,Madame,Braipson,Michčle,123,
LYCEE EMILE JACQMAIN,1040,BRUXELLES,Rue Belliard,135A,02-238 52 50,02-280 03 34,Madame,Hermans,Agnčs,123,
ATHENEE EMILE BOCKSTAEL,1020,BRUXELLES,Rue Reper-Vreven,80,02-475 73 00,02-478 87 40,Monsieur,Capers,Pierre,123,
LYCEE HENRIETTE DACHSBECK,1000,BRUXELLES,Rue de la Paille,24,02-500 85 50,02-500 85 68,Madame,Tasiaux,Michelle,123,
INSTITUT SAINT-LOUIS,1000,BRUXELLES,Rue du Marais,113,02-209 17 11,02-223 10 62,Monsieur,Sterpin,Vincent,131,isl.human@skynet.be
LYCEE MARIA ASSUMPTA,1020,BRUXELLES,Avenue Wannecouter,76,02-268 04 13,02-262 26 62,Monsieur,Zomers,Luc,131,administration.lma@skynet.be
ATHENEE DES PAGODES,1120,BRUXELLES,Rue de Beyseghem,141,02-266 11 50,02-266 11 68,Monsieur,Hannon,Charly,123,
COLLEGE LA FRATERNITE,1020,BRUXELLES,Rue Drootbeek,2,02-426 71 14,02-421 68 59,Madame,Romain,Rose,131,
ATHENEE ROYAL GATTI DE GAMOND,1000,BRUXELLES,Rue du Marais,65,02-2140180,02-2140198,Monsieur,Wilquet,Bertrand,111,
ATHENEE ROYAL DE BRUXELLES II,1020,BRUXELLES,Rue Marie-Christine,37,02-425 14 00,02-420 41 23,Monsieur,Ezzaidi,Tariq,111,
LYCEE LA RETRAITE,1000,BRUXELLES,Rue des Confédérés,70,02-736 91 27,02-734 76 30,Madame,Van Hove,Danielle,131,lycee.laretraite@skynet.be
INSTITUT DIDEROT,1000,BRUXELLES,Rue des Capucins,58,02-289 63 00,02-289 63 17,Monsieur,Barbason,Pierre,123,idid.capucins@brunette.brucity.be
INSTITUT PAUL-HENRI SPAAK,1020,BRUXELLES,Rue Alfred Stevens,20,02-423 57 00,02-423 57 28,Madame,Dethy,Virginie,123,
INSTITUT MARIS STELLA,1020,BRUXELLES,Rue Félix Sterckx,44,02-478 63 95,02-478 52 98,Madame,Lewahert,Nicole,131,
INSTITUT BISCHOFFSHEIM,1000,BRUXELLES,Rue de la Blanchisserie,52,02-250 07 00,02-250 07 28,Madame,Homble,Christine,123,sec.blanchisserie@brunette.brucity.be
INSTITUT DES ARTS ET METIERS,1000,BRUXELLES,Boulevard de l'Abattoir,50,02-279 52 20,02-279 52 29,Madame,Hennart,Sophie,123,secretariat@artsetmetiers.be
ACADEMIE ROYALE DES BEAUX-ARTS DE BRUXELLES,1000,BRUXELLES,Rue du Poinçon,28,02-274 05 90,02-274 06 08,Madame,Delcourt,Isabelle,123,sec.sup.aca@brunette.brucity.be
INSTITUT NOTRE-DAME DE LOURDES,1020,BRUXELLES,Rue Edmond Tollenaere,32,02-424 09 23,02-425 14 10,Madame,Elkholti,Ayat,131,
Centre scolaire Saint-Michel,1040,ETTERBEEK,Boulevard Saint-Michel,24,02 739 34 16,02-739 34 26,Monsieur,de Monge de Franeau,Paul-Benoît,131,
INSTITUT SAINT-JOSEPH D'ENSEIGNEMENT TECHNIQUE,1040,ETTERBEEK,Rue Félix Hap,14,02-735 81 10,02-732 56 27,Monsieur,Delaissé,Etienne,131,
Centre d'enseignement secondaire d'Etterbeek Ernest Richard,1040,ETTERBEEK,Place Saint-Pierre,5,02-734 28 09,02-733 76 09,Monsieur,Maessen,Réginald,123,
Institut Reine Fabiola Enseignement professionnel,1040,ETTERBEEK,Rue des Champs,41,02-629 00 40,02-629 00 41,Monsieur,Gerard,Michaël,132,info@irf-ecole.be
ATHENEE ROYAL JEAN ABSIL,1040,BRUXELLES,Avenue Hansen-Soulie,27,02-736 59 76,02-736 04 15,Madame,Pisonier,Caroline,111,ar.absil.etterbeek@sec.cfwb.be
INSTITUT DE L'ENFANT-JESUS,1040,ETTERBEEK,Rue Général Leman,74,02-230 46 04,02-230 05 33,Madame,Dupuis,Anne,131,iej.2082@ens.irisnet.be
INSTITUT SAINT-STANISLAS,1040,ETTERBEEK,Avenue des Nerviens,131,02-735 56 31,02-732 47 87,Madame,Biesmans,Lucille,131,ststanislas.etterbeek@skynet.be
COLLEGE ROI BAUDOUIN,1030,BRUXELLES,Avenue Félix Marchal,62,02-734 95 16,02-732 13 25,Madame,Lenoir,Hélčne,131,
ATHENEE ROYAL D'EVERE,1140,BRUXELLES,Avenue Constant Permeke,2,02-701 97 11,02-701 97 22,Monsieur,Gourlé,Marc,111,
ATHENEE ROYAL ANDREE THOMAS,1190,BRUXELLES,Avenue Reine Marie-Henriette,47,02-344 69 77,02-344 05 29,Madame,Heyndrickx,Dominique,111,
INSTITUT SAINTE-URSULE,1190,BRUXELLES,Avenue des Armures,39,02-344 12 88,02-344 43 70,Madame,Croes,Joëlle,131,stus@caramail.com
COLLEGE DU SACRE-COEUR,1083,BRUXELLES,Rue Louis Delhove,65,02-425 87 22,02-421 65 40,Monsieur,Zocastello,Jean-Marc,131,secondaire@cscg.be
CENTRE SCOLAIRE NOTRE-DAME DE LA SAGESSE,1083,BRUXELLES,Avenue Van Overbeke,10,02-428 11 27,02-420 76 73,Madame,L'Olivier,Anne,131,
ATHENEE ROYAL DE GANSHOREN,1083,BRUXELLES,Rue Auguste De Cock,1,02-426 83 00,02-420 28 86,Monsieur,Wayburn,Kevin,111,
INSTITUT SAINT-BONIFACE- PARNASSE,1050,IXELLES,Rue du Viaduc,82,02-511 53 49,02-511 26 71,Monsieur,Leblanc,Paul,131,
CENTRE SCOLAIRE DE MA CAMPAGNE,1050,IXELLES,Rue Africaine,3,02-538 08 38,02-537 50 79,Monsieur,Depauw,Axel,131,direction@csmc.be
Collčge Saint-Vincent - Saint-François,1050,IXELLES,Chaussée de Vleurgat,55,02-648 10 70,02-644 28 92,Monsieur,Maréchal,Vincent,131,
INSTITUT SAINT-ANDRE,1050,IXELLES,Avenue de l'Hippodrome,180,02-648 62 88,02-649 98 27,Madame,Jans,Anne-Françoise,131,isa.bxl@sec.cfwb.be
CENTRE SCOLAIRE EPERONNIERS-MERCELIS,1050,IXELLES,Rue Mercelis,36-38,02-512 60 98,02-512 18 53,Madame,Dumortier,Natacha,131,
INSTITUT TECHNIQUE RENE CARTIGNY,1050,IXELLES,Place de la Petite Suisse,4,02-515 75 74,02-515 75 97,Madame,Straus,Christine,123,
ATHENEE COMMUNAL CHARLES JANSSENS,1050,IXELLES,Place de Londres,5,02-515 75 64,02-515 75 56,Madame,Dath,Marie-Aline,123,
CENTRE SCOLAIRE SAINT-ADRIEN - VAL DUCHESSE,1050,IXELLES,Schoolgat,5,02-672 36 08,02-672 18 67,Madame,Hubert,Laurence,131,
ATHENEE ROYAL DE JETTE,1090,BRUXELLES,Avenue de Levis Mirepoix,100,02-426 05 29,02-428 13 88,Madame,Bouzia,Sabah,111,
Centre scolaire du Sacré-Coeur - Section Humanités,1090,BRUXELLES,Avenue du Sacré-Coeur,8,02-478 71 90,02-478 21 76,Madame,Lucas,Katia,131,
COLLEGE SAINT-PIERRE,1090,BRUXELLES,Rue Jean-Baptiste Verbeyst,25,02-421 43 30,02-427 55 13,Monsieur,Vanderijst,Thierry,131,
ATHENEE ROYAL DE KOEKELBERG,1081,BRUXELLES,Rue Omer Lepreux,15,02-414 77 28,02-411 05 03,Madame,Snaps,Claudine,111,cdemunck.2022@ens.irisnet.be
INSTITUT DES URSULINES,1081,BRUXELLES,Rue Jules Debecker,71,02-414 11 11,02-414 01 69,Monsieur,Ottermans,Christophe,131,
ATHENEE ROYAL SERGE CREUZ,1080,BRUXELLES,Avenue du Sippelberg,2,02-414 35 75,02-414 46 23,Madame,Paz Gonzalez,Bégonia,111,
Campus Saint-Jean,1080,BRUXELLES,Rue de Birmingham,41,02-412 04 80,02-412 04 81,Monsieur,Hodiamont,Jean,131,
ATHENEE ROYAL VICTOR HORTA,1060,BRUXELLES,Rue de la Rhétorique,16,02-538 27 42,02-538 94 13,Monsieur,El Hamouti,Mohamed,111,mohamed.elhamouti@sec.cfwb.be
INSTITUT DES FILLES DE MARIE,1060,BRUXELLES,Rue Théodore Verhaegen,8,02-537 78 51,02-543 34 12,Monsieur,Straetmans,Paul,131,
INSTITUT SAINT-JEAN-BAPTISTE DE LA SALLE,1060,BRUXELLES,Rue Moris,19,02-537 12 43,02-538 25 47,Monsieur,Piens,Didier,131,
INSTITUT SAINTE-MARIE,1060,BRUXELLES,Rue Emile Feron,5,02-537 41 18,02-534 96 75,Madame,Pirotte,Christine,131,institutsaintemarie@skynet.be
CENTRE SCOLAIRE DES DAMES DE MARIE-HAECHT-PHILOMENE-LIMITE,1210,BRUXELLES,Chaussée de Haecht,68,02-217 67 47,02-218 73 66,Madame,Chmiel,Marie-Lise,131,
LYCEE GUY CUDELL,1210,BRUXELLES,Rue de Liedekerke,66,02-220 28 10,02-220 28 14,Monsieur,Pironet,André,123,
ATHENEE ROYAL ALFRED VERWEE,1030,BRUXELLES,Rue Verwée,12,02-244 91 91,02-244 91 82,Monsieur,Molle,Jean-Philippe,111,prefet@averwee.be
ATHENEE COMMUNAL FERNAND BLUM,1030,BRUXELLES,Avenue Ernest Renan,12,02-243 17 80,02-243 17 86,Madame,Duhem,Anne,123,afbrenan@gmail.com
LYCEE COMMUNAL EMILE MAX,1030,BRUXELLES,Chaussée de Haecht,235,02-215 54 83,02-215 17 36,Madame,Bostoen,Patricia,123,lycee_emile_max@yahoo.fr
CENTRE SCOLAIRE SAINTE-MARIE - LA SAGESSE,1030,BRUXELLES,Chaussée de Haecht,164,02-216 81 67,02-240 18 19,Monsieur,Di Filippo,Tristan,131,
INSTITUT DE LA SAINTE-FAMILLE D'HELMET,1030,BRUXELLES,Rue Chaumontel,9,02-216 61 81,02-245 89 27,Madame,Pellegrini,Veronica,131,direction@sainte-famille.be
COLLEGE ROI BAUDOUIN ENSEIGNEMENT TECHNIQUE ET PROFESSIONNEL,1030,BRUXELLES,Avenue Eugčne Plasky,184,02-734 38 85,02-734 78 05,Monsieur,Boelaert,Hervé,131,
INSTITUT TECHNIQUE CARDINAL MERCIER - NOTRE-DAME DU SACRE-COEUR,1030,BRUXELLES,Rue Portaels,81,02-216 21 97,02-215 14 78,Madame,Sessolo,Laura,131,itcmndsc.2030@ens.irisnet.be
INSTITUT COMMUNAL TECHNIQUE FRANS FISCHER,1030,BRUXELLES,Rue Général Eenens,66,02-240 17 80,02-240 17 89,Monsieur,Giaprakis,Nikolaos,123,
INSTITUT SAINT-DOMINIQUE,1030,BRUXELLES,Rue Caporal Claes,38,02-240 16 10,02-240 16 11,Monsieur,Rosi,Rossano,131,
ATHENEE ROYAL D'UCCLE I,1180,BRUXELLES,Avenue Houzeau,87,02-374 05 84,02-375 28 91,Monsieur,Baudelet,Benoit,111,secretariat.aru1@ens.irisnet.be
ECOLE DECROLY,1180,BRUXELLES,Drčve des Gendarmes,45,02-374 17 03,02-374 02 71,Monsieur,Charlier,Marc,132,
COLLEGE SAINT-PIERRE,1180,BRUXELLES,Avenue Coghen,213,02-344 50 58,02-344 50 68,Monsieur,Trémouroux,Georges,131,
CENTRE D'ENSEIGNEMENT SECONDAIRE LIBRE NOTRE-DAME DES CHAMPS,1180,BRUXELLES,Rue Edith Cavell,143,02-374 58 40,02-374 41 43,Madame,Bodson,Anne,131,
ATHENEE ROYAL D'UCCLE II,1180,BRUXELLES,Avenue des Tilleuls,24,02-374 37 91,02-374 23 11,Monsieur,Pasquarelli,Michaël,111,info@aru2.be
INSTITUT SAINT-VINCENT DE PAUL,1180,BRUXELLES,Place Jean Vander Elst,25,02-345 46 26,02-345 42 50,Madame,Cario,Gaëlle,131,info@isv.be
ATHENEE GANENOU,1180,BRUXELLES,Rue du Melkriek,3,02-376 11 76,02-332 11 00,Monsieur,Guzy,Lucien,131,athenee.ganenou@sec.cfwb.be
COLLEGE SAINT-HUBERT,1170,BRUXELLES,Avenue Charle-Albert,9,02-660 19 40,02-675 42 37,Monsieur,Van Breugel,Raphaël,131,
INSTITUT DE L'ASSOMPTION,1170,BRUXELLES,Avenue Alfred Solvay,4,02-663 82 90,02-663 82 95,Monsieur,Bontemps,Etienne,131,secretariat@assomption-edu.be
ATHENEE ROYAL WOLUWE-SAINT-LAMBERT,1200,BRUXELLES,Rue de l'Athénée Royal,75-77,02-776 82 60,02-776 82 90,Madame,Sterckx,Carole,111,info@arwsl.be
CENTRE SCOLAIRE DU SACRE-COEUR DE LINDTHOUT,1200,BRUXELLES,Avenue Henri Dietrich,20,02-736 00 94,02-732 00 47,Monsieur,Nandrin,Jean-François,131,direction@lindthout.be
COLLEGE DON BOSCO,1200,BRUXELLES,Chaussée de Stockel,270,02-771 98 48,02-771 18 23,Monsieur,Goffin,Benoît,131,direction.dbwsl@gmail.com
INSTITUT DES DAMES DE MARIE,1200,BRUXELLES,Rue Vergote,40,02-743 27 90,02 732 69 30,Madame,Warichet,Isabelle,131,info@ddm-vergote.be
INSTITUT DE LA PROVIDENCE,1200,BRUXELLES,Rue des Déportés,42,02-770 09 46,02-771 82 51,Monsieur,Flandrois,Michel,131,providence.secondaire@chello.be
ATHENEE ROYAL CROMMELYNCK,1150,BRUXELLES,Avenue Orban,73,02-770 06 20,02-763 01 50,Monsieur,Mellouli,Abed,111,
COLLEGE JEAN XXIII,1150,BRUXELLES,Boulevard de la Woluwe,22,02-771 01 78,02-771 72 43,Monsieur,Moreau,Pascal,131,martial.schtickzelle@sec.cfwb.be
LYCEE MATER DEI,1150,BRUXELLES,Avenue de l'Aviation,72,02-770 03 99,02-776 84 57,Monsieur,Bex,Axel,131,
INSTITUT DON BOSCO,1150,BRUXELLES,Avenue du Val d'Or,90 D,02-771 01 02,02-771 50 77,Madame,Devillé,Bernadette,131,direction@idbbxl.com
Centre scolaire Eddy Merckx,1150,BRUXELLES,Avenue Salomé,2,02-773 18 32,02-773 18 16,Madame,Scohy,Chantal,123,
ATHENEE ROYAL RIVA-BELLA,1420,BRAINE-L'ALLEUD,Place Riva Bella,,02-389 09 32,02-384 44 47,Monsieur,Simons,Jean-François,111,
COLLEGE ARCHIEPISCOPAL CARDINAL MERCIER,1420,BRAINE-L'ALLEUD,Chée de Mont-Saint-Jean,83,02-386 15 11,02-386 15 73,Monsieur,Cambron,Xavier,131,
INSTITUT DE LA VALLEE BAILLY (Enseignement général),1420,BRAINE-L'ALLEUD,Rue de la Vallée Bailly,102,02-389 49 50,02-384 19 33,Madame,Bertrand,Véronique,131,
INSTITUT D'ENSEIGNEMENT CARDINAL MERCIER,1410,WATERLOO,Chemin des Roussettes,10,02-386 15 47,02-386 15 61,Monsieur,Embise,Marc,131,institut@collegecardinalmercier.be
INSTITUT DE LA VALLEE BAILLY (Enseignement technique),1420,BRAINE-L'ALLEUD,Rue de la Vallée Bailly,102,02-389 49 50,02-384 19 33,Madame,Desirant,Anne-Françoise,131,
CYCLE D'OBSERVATION AUTONOME CARDINAL MERCIER,1420,BRAINE-L'ALLEUD,Chée de Mont-Saint-Jean,83,02-386 15 11,02-386 15 73,Monsieur,De Smet,Grégory,131,
COLLEGE SAINT-ETIENNE CAMPUS,1490,COURT-SAINT-ETIENNE,Av Prisonniers de Guerre,36,010-61 27 56,010-61 18 67,Madame,André,Cécile,131,thomas.jadin@collegestetienne.be
INSTITUT TECHNIQUE PROVINCIAL,1490,COURT-SAINT-ETIENNE,Parc de Wisterzée,,010-61 22 61,010-61 30 17,Monsieur,Claeys,Jean-Paul,122,
ATHENEE ROYAL JODOIGNE,1370,JODOIGNE,Chaussée de Hannut,61,010-81 35 26,010-81 44 67,Monsieur,LAPSIN,Frédéric,111,
INSTITUT SAINT-ALBERT,1370,JODOIGNE,Avenue Fernand Charlot,35,010-81 12 50,010-81 44 81,Monsieur,Baudouin,Pierre,131,
Centre provincial d'enseignement secondaire (CEPES),1370,JODOIGNE,Chaussée de Tirlemont,85,010-81 88 00,010-81 18 23,Madame,Houart,Marie-Louise,122,
ATHENEE ROYAL NIVELLES,1400,NIVELLES,Avenue du Centenaire,34,067-21 24 58,067-84 04 50,Monsieur,Delcour,David,111,
COLLEGE SAINTE-GERTRUDE,1400,NIVELLES,Faubourg de Mons,1,067-21 12 60,067-84 15 32,Monsieur,Brancart,Gilbert,131,
INSTITUT DE L'ENFANT-JESUS LYCEE,1400,NIVELLES,Rue de Sotriamont,1,067-89 38 00,067-89 38 01,Monsieur,Meinguet,Olivier,131,icj.lycee.nivelles@sec.cfwb.be
INSTITUT PROVINCIAL DES ARTS ET METIERS,1400,NIVELLES,Rue Ferdinand Delcroix,33,067-79 48 79,067-21 66 43,Monsieur,Debelder,Fabrice,122,
INSTITUT DU SACRE-COEUR,1400,NIVELLES,Rue Saint-Jean,2,067-21 95 71,067-84 18 19,Monsieur,De Wael,Luc,131,isc.nivelles@skynet.be
INSTITUT PROVINCIAL D'ENSEIGNEMENT TECHNIQUE,1400,NIVELLES,Rue du Paradis,79A,067-21 61 66,067-21 63 22,Madame,Servranckx,Carine,122,direction@ipet.be
ATHENEE ROYAL RIXENSART WAVRE,1330,RIXENSART,rue Albert Croy,3,02-634 04 70,02-652 15 47,Madame,Manssens,Sonia,111,ar.rixensart@sec.cfwb.be
COLLEGE NOTRE-DAME DES TROIS VALLEES,1332,GENVAL,Rue du Couvent,2,02-654 07 82,02-653 71 83,Monsieur,Lefebvre,Dominique,131,cnd3v.rixensart@sec.cfwb.be
INSTITUT PROVINCIAL D'ENSEIGNEMENT SECONDAIRE,1480,TUBIZE,Chaussée de Mons,241-243,02-355 66 87,02-355 21 30,Monsieur,Marin,Luc,122,
COLLEGE SAINT-FRANCOIS D'ASSISE,1480,TUBIZE,Rue de Mons,74,02-355 83 77,02-390 03 33,Monsieur,Vanschepdael,Jean-Pol,131,
ATHENEE ROYAL DE WATERLOO,1410,WATERLOO,Rue de la Station,118,02-354 92 76,02-354 99 56,Monsieur,Caruso,Massino,111,arwaterloo@skynet.be
LYCEE DE BERLAYMONT,1410,WATERLOO,Drčve d'Argenteuil,10C,02-357 09 83,02-353 18 84,Monsieur,Dehon,Denis,131,lycee@berlaymont.be
Institut d'enseignement secondaire des Sacrés-Coeurs,1410,WATERLOO,Place Albert Ier,,02-354 01 86,02-354 98 29,Monsieur,Dekelver,Patrick,131,isc.wellington@belgacom.net
Collčge Notre-Dame,1300,WAVRE,Rue du Calvaire,4,010-23 83 00,010-23 83 09,Monsieur,Degimbe,Olivier,131,college@cndbw.be
INSTITUT SAINT-JEAN-BAPTISTE,1300,WAVRE,Rue de Bruxelles,45,010-22 24 60,010-22 96 69,Monsieur,Gans,Vincent,131,
"ECOLE INTERNATIONALE ""LE VERSEAU"" - E.L.C.E.",1301,BIERGES,Rue de Wavre,60,010-23 17 27,010-24 39 35,Madame,Bracegirdle-Brown,Helen,132,
COLLEGE TECHNIQUE SAINT-JEAN,1300,WAVRE,Rue du Pont Saint-Jean,48,010-22 28 29,010-23 10 55,Monsieur,Antoine,Thierry,131,
ATHENEE ROYAL PAUL DELVAUX,1340,OTTIGNIES,Avenue des Villas,15,010-42 04 20,010-42 04 10,Madame,Verlent,Liliane,111,secretariat@arolln.be
COLLEGE DU CHRIST-ROI,1340,OTTIGNIES-LOUVAIN-LA-NEUVE,Rue de Renivaux,25,010-42 04 70,010-41 44 98,Monsieur,Van Herstraeten,Olivier,131,college.christroi.lln@sec.cfwb.be
LYCEE MARTIN V,1348,LOUVAIN-LA-NEUVE,Rue du Collčge,3,010-83 41 00,010-47 35 44,Monsieur,Dejemeppe,Damien,131,direction.lmv@uclouvain.be
ATHENEE ROYAL ATH,7800,ATH,Rue des Récollets,9,068-26 90 00,068-26 90 09,Madame,Crombe,Marie-Christine,111,secretara@live.be
INSTITUT TECHNIQUE,7800,ATH,Boulevard du Château,12,068-26 88 80,068-26 88 81,Monsieur,Vlasschaert,Olivier,131,itlath@hotmail.com
INSTITUT PROVINCIAL D'ENSEIGNEMENT SECONDAIRE,7800,ATH,Rue Paul Pastur,11,068-26 46 50,068-26 46 79,Monsieur,Parfonry,André,122,
INSTITUT SAINT-FRANCOIS DE SALES,7800,ATH,Rue du Gouvernement,7,068-26 51 20,068-26 51 29,Monsieur,Vanovervelt,René,131,secretariat@saint-francois.be
COLLEGE SAINT-JULIEN,7800,ATH,Rue de la Station,17,068-28 50 20,068-28 50 07,Monsieur,Canfin,Fabrice,131,
ATHENEE ROYAL LUCIENNE TELLIER,7910,ANVAING,Chemin du Carnois,32A,069-87 18 20,069-87 18 21,Madame,Chevalier,Catherine,111,aranvaing@hotmail.com
ATHENEE ROYAL VAUBAN,6000,CHARLEROI,Rue Emile Tumelaire,12,071-32 07 02,071-32 78 53,Madame,Jacquemin,Isabelle,111,secretariat@arv.be
ATHENEE ROYAL ERNEST SOLVAY,6000,CHARLEROI,Boulevard Emile Devreux,27,071-20 27 00,071-70 16 34,Monsieur,Debiesme,Daniel,111,
INSTITUT SAINT-JOSEPH,6000,CHARLEROI,Boulevard de l'Yser,12,071-20 72 72,071-70 05 97,Monsieur,De Waele,François,131,info@isj.org
CENTRE SCOLAIRE DU SACRE-COEUR,6000,CHARLEROI,Boulevard Audent,58,071-23 10 68,071-31 17 56,Monsieur,Van Den Bossche,Eric,131,cssc.charleroi@sec.cfwb.be
INSTITUT NOTRE-DAME,6000,CHARLEROI,Rue de Marcinelle,41,071-20 71 20,071-32 74 93,Monsieur,Kersdag,Willy,131,
INSTITUT D'ENSEIGNEMENT TECHNIQUE NOTRE-DAME,6000,CHARLEROI,Rue de la Science,50-62,071-30 23 30,071-31 54 10,Monsieur,Bauduin,Walter,131,info@iet-notre-dame.be
INSTITUT SAINT-ANDRE,6000,CHARLEROI,Rue du Parc,6,071-20 72 20,071-20 72 30,Monsieur,Deloge,Philippe,131,isa.charleroi@sec.cfwb.be
Université du Travail - Institut d'enseignement technique secondaire,6000,CHARLEROI,Boulevard Gustave Roullier,1,071-53 17 53,,Monsieur,Baudson,Jean-Paul,122,
Université du Travail - Institut Jean Jaurčs,6000,CHARLEROI,Rue de la Broucheterre,52B,071-53 17 54,071-53 17 28,Monsieur,Lancellotti,Henri,122,
ATHENEE ROYAL LES MARLAIRES,6041,GOSSELIES,Rue de la Providence,12,071-25 87 70,071-25 87 87,Monsieur,Homerin,Jean,111,
Institut de la Providence Humanités,6041,GOSSELIES,Faubourg de Bruxelles,105,071-34 93 10,071-35 49 56,Monsieur,Biot,Joël,131,gph@gph.be
Collčge Saint-Michel,6041,GOSSELIES,Faubourg de Charleroi,15,071-35 36 74,071-37 81 16,Madame,Biesiaga,Véronique,131,
Institut Sainte-Anne,6041,GOSSELIES,Rue Circulaire,5,071-25 82 20,071-25 82 21,Madame,Rappe,Isabelle,131,isa@isag.be
ATHENEE ROYAL ORSINI DEWERPE,6040,JUMET,Rue Gendebien,1,071-25 69 00,071-25 69 19,Monsieur,Sombreffe,Jean-Christian,111,contact@athenee-orsini.be
CENTRE SCOLAIRE SAINT-JOSEPH - NOTRE-DAME,6040,JUMET,Rue Emile Strimelle,1,071-35 32 25,071-35 46 67,Madame,Leggett,Sarah,131,
ATHENEE ROYAL GILLY,6060,GILLY,Rue du Calvaire,20,071-41 42 98,071-41 41 20,Monsieur,Philippe,Pascal,111,ar.gilly@sec.cfwb.be
LYCEE MIXTE FRANCOIS DE SALES,6060,GILLY,Rue des Vallées,18,071-41 38 58,071-42 14 53,Madame,Raemy,Elisabeth,131,
ATHENEE ROYAL YVONNE VIESLET,6030,MARCHIENNE-AU-PONT,Rue des Remparts,35,071-29 73 31,071-51 64 73,Monsieur,Bodson,Thierry,111,arm@brutele.be
ATHENEE ROYAL JULES DESTREE,6001,MARCINELLE,Rue des Haies,76,071-36 11 73,071-43 08 01,Madame,Malréchauffé,Joëlle,111,
INSTITUT PROVINCIAL D'ENSEIGNEMENT SECONDAIRE PARAMEDICAL LA SAMARITAINE,6061,MONTIGNIES-SUR-SAMBRE,Rue Samaritaine,14,071-48 82 66,071-48 90 99,Madame,Deroy,Céline,122,
Centre éducatif communal secondaire de Couillet-Marcinelle,6010,COUILLET,Route de Philippeville,304,071-36 80 68,071-36 29 82,Monsieur,Deravet,Guy,123,
"CENTRE EDUCATIF COMMUNAL SECONDAIRE ""LA GARENNE""",6000,CHARLEROI,Rue de Lodelinsart,200,071-86 24 00,071-32 01 86,Monsieur,Pani,Maurisio,123,garenne@brutele.be
ATHENEE ROYAL PIERRE PAULUS,6200,CHATELET,Rue des Gaux,100,071-38 10 31,071-38 55 17,Madame,Cappelle,Roxane,111,ar.paulus.chatelet@sec.cfwb.be
ATHENEE ROYAL RENE MAGRITTE,6200,CHATELET,Rue du Collčge,16,071-38 05 69,071-39 79 96,Monsieur,Ribaudo,Salvatore,111,magritte@caramail.com
INSTITUT SAINTE-MARIE,6200,CHATELET,Rue Neuve,26,071-38 09 28,071-40 23 11,Madame,Svaldi,Fabienne,131,
INSTITUT SAINT-JOSEPH,6200,CHATELET,Place Jean Guyot,1,071-38 04 05,071-40 09 30,Monsieur,Libert,Ludovic,131,isj.chatelet@sec.cfwb.be
INSTITUT SAINTE-MARIE,6200,CHATELINEAU,Place d'Arenberg,20,071-38 09 39,071-39 07 56,Monsieur,Debrux,Thomas,131,
COLLEGE SAINT PIE X,6200,CHATELINEAU,Rue Lloyd George,15,071-38 38 48,071-38 93 23,Monsieur,Davain,Thibaut,131,pie10@brutele.be
ATHENEE ROYAL JOURDAN,6220,FLEURUS,Rue de Fleurjoux,3,071-81 37 77,071-82 70 27,Monsieur,Thirion,Eric,111,adm.e6220arj1@win.be
INSTITUT NOTRE-DAME,6220,FLEURUS,Rue de Bruxelles,97,071-82 31 80,071-82 31 82,Monsieur,Annet,Jean,131,
ATHENEE ROYAL LOUIS DELATTRE,6140,FONTAINE-L'EVEQUE,Rue de l'Athénée,32,071-52 35 23,071-54 12 98,Monsieur,Maucourant,,111,francoise.grege@sec.cfwb.be
INSTITUT NOTRE-DAME DE LOVERVAL,6280,GERPINNES,Chaussée de Philippeville,35,071-29 75 70,071-47 26 16,Madame,Jaumotte,Viviane,131,
Collčge Saint-Augustin,6280,GERPINNES,Avenue Astrid,13,071-50 90 80,071-50 90 89,Madame,Hollevoet,Catherine,131,
INSTITUT SAINTE-THERESE,7170,MANAGE,Grand'Rue,79,064-27 87 10,064-55 88 48,Monsieur,Scieur,Pierre,131,direction.ist@istmanage.be
ATHENEE ROYAL PONT-A-CELLES,6230,PONT-A-CELLES,Rue de l'Eglise,107B,071-84 45 09,071-84 60 58,Madame,Lefebvre,Brigitte,111,
INSTITUT SAINTE-MARIE,6210,REVES,Rue de l'Eglise,7,071-84 99 20,071-84 99 25,Monsieur,Boland,Etienne,131,
INSTITUT TECHNIQUE ET COMMERCIAL DES AUMONIERS DU TRAVAIL,7300,BOUSSU,Rue de Caraman,13,065-76 61 10,065-76 61 20,Monsieur,Ponchau,Bruno,131,
INSTITUT D'ENSEIGNEMENT SECONDAIRE COMPLEMENTAIRE CATHOLIQUE - I.E.S.C.A.,7301,HORNU,Rue de Mons,63,065-77 94 68,065-79 39 32,Madame,Delguste,Dominique,131,michel.demoitie@skynet.be
ATHENEE ROYAL DOUR,7370,DOUR,Rue de l'Athénée,23,065-71 87 87,065-63 33 50,Madame,Simon,Véronique,111,
INSTITUT DE LA SAINTE-UNION,7370,DOUR,Rue du Roi Albert,10,065-65 28 45,065-63 26 60,Monsieur,Bortolin,Manu,131,
INSTITUT DU SACRE-COEUR,7080,FRAMERIES,Rue des Dames,77,065-67 33 82,065-66 29 16,Monsieur,Balasse,Michel,131,info@iscfp.be
ATHENEE ROYAL MONS I,7000,MONS,Rue de l'Athénée,4,065-40 40 70,065-31 93 19,Madame,Colinia,Françoise,111,
ATHENEE ROYAL MARGUERITE BERVOETS,7000,MONS,Avenue Victor Maistriau,11,065-40 80 70,065-35 25 50,Madame,Blondiaux,Marie-Gabrielle,111,
INSTITUT SAINT-FERDINAND,7012,JEMAPPES,Avenue Maréchal Foch,824,065-82 22 98,065-82 26 21,Madame,Wuilquot,Vinciane,131,saint.ferdinand.jemappes@skynet.be
CENTRE SCOLAIRE SAINT-STANISLAS,7000,MONS,Rue des Dominicains,15,065-40 12 50,065-40 12 59,Monsieur,Héroufosse,Thierry,131,saint-stanislas.mons@sec.cfwb.be
INSTITUT DE LA SAINTE-FAMILLE,7000,MONS,Avenue du Tir,12,065-40 23 23,065-40 23 25,Madame,Piette,Cécile,131,dir.isf@ursulines-mons.be
INSTITUT TECHNIQUE SAINT-LUC,7000,MONS,Rue Saint-Luc,3,065-33 71 21,065-31 15 57,Monsieur,Deleu,Patrick,131,ces.saintluc.mons@skynet.be
ECOLE DU FUTUR,7000,MONS,Rue des Etampes,2,065-33 58 51,065-33 87 55,Madame,Laurent,Jocelyne,122,
ACADEMIE PROVINCIALE DES METIERS,7000,MONS,Bld Président Kennedy,10,065-39 89 79,065-39 89 78,Monsieur,Lhost,Pol,122,martine.savonet@hainaut.be   helena.zaimniotis@hainaut.be
INSTITUT TECHNIQUE DES URSULINES,7000,MONS,Avenue du Tir,12,065-40 23 23,065-40 23 25,Madame,Fays,Fabienne,131,dir.e7000itu1@win.be
INSTITUT D'ENSEIGNEMENT SECONDAIRE PARAMEDICAL PROVINCIAL,7000,MONS,Bld Président Kennedy,2A,065-32 89 00,065-32 89 09,Madame,Dehasseleer,Christel,122,
ATHENEE PROVINCIAL JEAN D'AVESNES,7000,MONS,Av du Gouverneur E. Cornez,1,065-40 01 01,065-40 01 02,Madame,Stievenart,Monique,122,apja.mons@hainaut.be
INSTITUT SAINT-LUC,7000,MONS,Rue Saint-Luc,3,065-33 71 21,065-31 15 57,Monsieur,Van Wayenbergh,Reginald,131,
INSTITUT DU SACRE COEUR - ENSEIGNEMENT SECONDAIRE GENERAL,7000,MONS,Rue des Dominicains,9,065-40 28 44,065-40 28 36,Monsieur,Bierlaire,Joęl,131,info@iscmons.be
INSTITUT COMMUNAL D'ENSEIGNEMENT SECONDAIRE,7390,QUAREGNON,Grand-Place,,065-77 72 68,065-52 94 49,Madame,Delvallée,Sabine,123,ices.quaregnon@sec.cfwb.be
ATHENEE ROYAL DE QUIEVRAIN,7380,QUIEVRAIN,Rue Debast,26,065-45 70 81,065-43 13 89,Madame,Fontaine,Brigitte,111,
CENTRE SCOLAIRE DON BOSCO,7380,QUIEVRAIN,Rue Grande,21,065-45 06 20,065-45 06 22,Madame,Boucart,Delphine,131,
ATHENEE ROYAL SAINT-GHISLAIN,7330,SAINT-GHISLAIN,Avenue de l'Enseignement,20,065-78 40 52,065-78 50 66,Madame,Pavot,Martine,111,
LYCEE DE LA COMMUNAUTE FRANCAISE CHARLES PLISNIER,7330,SAINT-GHISLAIN,Rue de Sas,75,065-78 67 18,065-78 22 09,Monsieur,D'Agostino,Dimitri,111,directioncharlesplisnier@gmail.com
COLLEGE SAINTE-MARIE,7330,SAINT-GHISLAIN,Rue du Port,115-127,065-78 61 31,065-78 29 20,Madame,Marcq,Françoise,131,
LYCEE PROVINCIAL D'ENSEIGNEMENT TECHNIQUE DU HAINAUT,7330,SAINT-GHISLAIN,Avenue de l'Enseignement,45,065-71 42 11,065-71 42 10,Monsieur,Deghilage,Vincent,122,
INSTITUT SAINT-JOSEPH,7330,SAINT-GHISLAIN,Avenue de l'Enseignement,10,065-61 10 31,065-79 40 34,Madame,Defeche,Nicole,131,sec.isjsg@skynet.be
ATHENEE ROYAL FERNAND JACQUEMIN,7780,COMINES-WARNETON,Chaussée de Warneton,26,056-56 11 40,056-55 72 44,Monsieur,Bouttique,Quentin,111,
INSTITUT SAINT-HENRI,7780,COMINES-WARNETON,Rue du Commerce,21,056-56 00 60,056-56 00 75,Monsieur,Pieters,Jean-Jacques,131,institut.saint.henri@skynet.be
INSTITUT SAINT-CHARLES,7711,DOTTIGNIES,Place de la Résistance,10,056-48 95 03,056-48 99 50,Monsieur,Dujardin,Luc,131,saint.charles.dottignies@skynet.be
INSTITUT COMMUNAL D'ENSEIGNEMENT TECHNIQUE,7711,DOTTIGNIES,Rue de France,65,056-85 44 70,,Monsieur,Verlinden,Alain,123,
COLLEGE SAINTE-MARIE,7700,MOUSCRON,Rue Léopold,61,056-85 47 21,056-84 37 09,Madame,Letor,Anne-Genevičve,131,
COLLEGE SAINTE-MARIE D.O.A.,7700,MOUSCRON,Rue de Tournai,17,056-85 49 11,056-33 62 05,Madame,Simon,Anne,131,
INSTITUT DU SACRE-COEUR,7700,MOUSCRON,Rue du Val,43,056-85 40 10,056-85 40 11,Monsieur,Hennion,Olivier,131,
INSTITUT DES FRERES MARISTES,7700,MOUSCRON,Rue des Etudiants,2,056-33 12 60,056-33 24 46,Madame,Demeersseman,Sylvie,131,
INSTITUT TECHNIQUE SAINT-GABRIEL,7090,BRAINE-LE-COMTE,Rue de Mons,80,067-87 49 60,067-87 49 82,Monsieur,Raquet,Christophe,131,
INSTITUT NOTRE-DAME DE BONNE-ESPERANCE,7090,BRAINE-LE-COMTE,Rue des Postes,101,067-55 22 75,067-55 74 15,Monsieur,De Smet,Guy,131,
ATHENEE ROYAL D'ENGHIEN,7850,ENGHIEN,Rue Montgomery,73,02-395 38 49,02-395 35 73,Madame,Cambier,Marie-France,111,ar.enghien@sec.cfwb.be
MAISON SAINT-AUGUSTIN (DOA),7850,MARCQ,Chaussée d'Ath,1,02-397 02 60,02-397 02 70,Monsieur,Gengler,Philippe,131,saint.augustin.enghien@skynet.be
COLLEGE SAINT-AUGUSTIN,7850,MARCQ,Chaussée d'Ath,1,02-397 02 60,02-397 02 70,Monsieur,Pletinckx,Benoit,131,saint.augustin.enghien@skynet.be
INSTITUT SAINT-AUGUSTIN,7850,MARCQ,Chaussée d'Ath,1,02-397 02 60,02-397 02 70,Monsieur,Pierre,Jean-Claude,131,saint.augustin.enghien@skynet.be
ATHENEE ROYAL LA LOUVIERE,7100,LA LOUVIERE,Rue de Bouvy,15,064-22 26 67,064-21 59 83,Madame,Gennotte,Pascale,111,
INSTITUT PROVINCIAL D'ENSEIGNEMENT SECONDAIRE LEON HUREZ,7100,LA LOUVIERE,Rue de Bonne Espérance,1,064-21 34 11,064-22 47 06,Monsieur,Werry,Michel,122,
INSTITUT TECHNIQUE SAINT-JOSEPH (D2-D3),7100,LA LOUVIERE,Rue Gustave Boël,23,064-31 18 58,064-31 18 52,Monsieur,Vlasschaert,Olivier,131,info@itsjlalouviere.be
INSTITUT SAINT-JOSEPH (D2-D3),7100,LA LOUVIERE,Rue Gustave Boël,55,064-31 18 40,064-31 18 51,Monsieur,Lefčvre,Luc,131,
INSTITUT SAINTE-MARIE,7100,LA LOUVIERE,Rue de Bouvy,35,064-31 19 22,064-26 70 84,Monsieur,Montero Redondo,José-Manuel,131,
ATHENEE PROVINCIAL,7100,LA LOUVIERE,Boulevard du Tivoli,2B,064-22 65 49,064-22 67 42,Monsieur,Boon,Robert,122,
INSTITUT SAINT-JOSEPH D.O.A.,7100,LA LOUVIERE,Rue Gustave Boël,55,064-31 18 40,064-31 18 51,Madame,Tourneur,Aurore,131,
INSTITUT PROVINCIAL DE NURSING DU CENTRE,7100,LA LOUVIERE,Rue Ernest Milcamps,13B,064-26 31 91,064-26 32 47,Madame,Stevens,Stéphanie,122,
ATHENEE ROYAL RENE MAGRITTE,7860,LESSINES,Rue François Watterman,27,068-33 45 51,068-33 45 52,Monsieur,Godfrin,Joël,111,ar.lessines@sec.cfwb.be
COLLEGE VISITATION - LA BERLIERE,7860,LESSINES,Parvis Saint-Pierre,13,068-26 87 10,068-26 87 16,Madame,Dethy,Andrée,131,visitation.lessines@swing.be
ATHENEE ROYAL JULES BORDET,7060,SOIGNIES,Boulevard Roosevelt,27,067-33 44 44,067-34 05 87,Monsieur,Vreux,Christian,111,
ECOLE DU SHAPE SECTION BELGE,7010,SHAPE,Avenue de Paris,705,065-44 57 08,065-84 03 43,Madame,Dutrieux,Marie-Claire,111,
COLLEGE SAINT-VINCENT - 2e-3e DEGRES,7060,SOIGNIES,Chaussée de Braine,22,067-34 70 00,067-34 70 01,Monsieur,Gheur,Jean,131,
COLLEGE SAINT-VINCENT - DOA,7060,SOIGNIES,Chaussée de Braine,22,067-34 70 00,067-34 70 01,Monsieur,Hernould,Serge,131,
LYCEE PROVINCIAL DES SCIENCES ET DES TECHNOLOGIES,7060,SOIGNIES,Rue de la Station,59,067-34 79 70,067-34 79 98,Madame,Dupont,Sonia,122,sonia.dupont@hainaut.be
INSTITUT TECHNIQUE SAINT-VINCENT,7060,SOIGNIES,Chaussée de Braine,22,067-34 70 00,067-34 70 01,Madame,Gosset,Joëlle,131,
ATHENEE ROYAL BEAUMONT,6500,BEAUMONT,Rue Germain Michiels,3,071-58 81 27,071-58 84 55,Madame,Dutrieux,Marie-Claire,111,
INSTITUT PARIDAENS,6500,BEAUMONT,Grand Place,12,071-23 10 50,071-58 93 86,Monsieur,Tworowski,Stany,131,
ATHENEE ROYAL DE BINCHE,7130,BINCHE,Place des Droits de l'Homme,16,064-31 16 00,064-31 16 01,Madame,Monin,Julie,111,
COLLEGE NOTRE-DAME DE BON SECOURS,7130,BINCHE,Rue de Merbes,25,064-23 99 99,064-23 99 98,Madame,Maggiordomo,Teresa,131,eric.daubie@sec.cfwb.be
INSTITUT PROVINCIAL D'ENSEIGNEMENT CHARLES DELIEGE,7130,BINCHE,Rue des Archers,12,064-31 02 20,064-31 02 39,Monsieur,Hanot,Frédéric,122,
ATHENEE ROYAL DE CHIMAY,6460,CHIMAY,Rue de Noailles,3,060-41 41 00,060-21 18 84,Monsieur,Bry,Didier,111,ar.chimay@sec.cfwb.be
COLLEGE SAINT-JOSEPH,6460,CHIMAY,Rue de Virelles,75,060-21 04 10,060-21 11 68,Monsieur,Van Nieuwenhove,Eric,131,
INSTITUT NOTRE-DAME,6460,CHIMAY,Rue de Virelles,75,060-21 04 10,060-21 11 68,Monsieur,Delcoucq,Lucien,131,
INSTITUT TECHNIQUE DE LA COMMUNAUTE FRANCAISE ERQUELINNES,6560,ERQUELINNES,Rue Albert Ier,21,071-55 60 85,071-55 44 42,Monsieur,Ganty,Michel,111,
ECOLE D'ARTS ET METIERS,6560,ERQUELINNES,Rue Sainte-Thérčse,47,071-55 51 27,071-55 34 40,Monsieur,Scohier,Jean-Michel,131,
ATHENEE ROYAL THUIN,6530,THUIN,Drčve des Alliés,11,071-59 05 30,071-59 46 99,Madame,Bourgeois,Christine,111,
INSTITUT NOTRE-DAME,6530,THUIN,Grand'Rue,68,071-59 00 47,071-59 54 81,Monsieur,Baudry,Thierry,131,
SEMINAIRE DE BONNE-ESPERANCE,7120,VELLEREILLE-LES-BRAYEUX,Rue Grégoire Jurion,22,064-31 08 08,064-31 08 10,Monsieur,Maghe,Alain,131,
ATHENEE PROVINCIAL WAROCQUE,7140,MORLANWELZ-MARIEMONT,Rue de l'Enseignement,8-10,064-43 20 30,064-43 20 47,Madame,Cornet,Claudine,122,
INSTITUT TECHNIQUE DE LA COMMUNAUTE FRANCAISE DE MORLANWELZ,7140,MORLANWELZ,Rue Raoul Warocqué,46,064-43 21 89,064-44 97 32,Monsieur,Lepape,Joël,111,
INSTITUT TECHNIQUE DE LA COMMUNAUTE FRANCAISE DAVID LACHMAN,6470,RANCE,Rue Pauline Hubert,40,060-21 06 70,060-41 24 74,Monsieur,Hespel,Cyrille,111,
ATHENEE ROYAL PERUWELZ,7600,PERUWELZ,Rue des Français,31,069-77 95 50,069-77 41 18,Monsieur,Bekaert,Philippe,111,info@arperuwelz.be
INSTITUT SAINT-CHARLES,7600,PERUWELZ,Rue Pont ŕ la Faulx,66,069-77 21 35,069-77 56 63,Madame,Depotte,Christel,131,stcharles.peruwelz@sec.cfwb.be
COLLEGE NOTRE-DAME DE LA TOMBE,7540,KAIN,Rue Abbé Dropsy,2,069-88 08 60,069-88 08 69,Monsieur,Baudar,Philippe,131,
INSTITUT DE LA SAINTE-UNION,7540,KAIN,Rue Montgomery,71,069-89 03 89,069-89 03 80,Madame,Dewasme,Véronique,131,
INSTITUT SAINT-ANDRE,7520,RAMEGNIES-CHIN,Chaussée de Tournai,57,069-59 06 50,069-84 31 03,Madame,LIAGRE - D'HAENE,Sophie,131,isa.tournai@sec.cfwb.be
ATHENEE ROYAL JULES BARA,7500,TOURNAI,Rue Duquesnoy,24,069-89 06 02,069-84 14 45,Madame,Stalens,Catherine,111,ar.bara.tournai@sec.cfwb.be
ATHENEE ROYAL ROBERT CAMPIN,7500,TOURNAI,Rue du Château,18,069-22 26 66,069-84 33 29,Madame,Saudoyer,Annick,111,
COLLEGE NOTRE-DAME,7500,TOURNAI,Rue des Augustins,30,069-89 08 60,069-89 08 68,Monsieur,Bonnet,Axel,131,
INSTITUT DES URSULINES - LA MADELEINE,7500,TOURNAI,Rue des Carmes,10,069-22 96 35,069-22 23 23,Monsieur,MASQUELIER,DAMIEN,131,ulm@skynet.be
CENTRE EDUCATIF DE LA SAINTE-UNION,7500,TOURNAI,Chaussée de Lille,12,069-22 18 22,069-84 17 32,Monsieur,Dubrunfaut,Fernand,131,
INSTITUT D'ENSEIGNEMENT SECONDAIRE PROVINCIAL PARAMEDICAL,7500,TOURNAI,Rue de la Lys,1,069-88 40 60,069-88 40 61,Madame,Heggermont,Nancy,122,
INSTITUT NOTRE-DAME,7500,TOURNAI,Rue du Four Chapitre,3,069-22 40 92,069-84 20 30,Monsieur,Parotte,Vincent,131,
INSTITUT PROVINCIAL D'ENSEIGNEMENT SECONDAIRE,7500,TOURNAI,Boulevard Léopold,92B,069-45 28 70,069-45 28 77,Monsieur,Dufrasne,Dominique,122,
INSTITUT D'ENSEIGNEMENT TECHNIQUE SAINT-ELOI,7900,LEUZE-EN-HAINAUT,Tour Saint-Pierre,11,069-66 96 10,069-66 96 29,Monsieur,Savel,Pierre,131,cespdir@skynet.be
ATHENEE PROVINCIAL,7900,LEUZE-EN-HAINAUT,Rue du Rempart,16,069-67 21 10,069-67 21 14,Madame,Vanderstocken,Jacqueline,122,
COLLEGE SAINT-ELOI,7900,LEUZE-EN-HAINAUT,Tour Saint-Pierre,11,069-66 96 11,069-66 96 29,Mademoiselle,Verbrigghe,Gerda,131,cespdir@skynet.be
INSTITUT DE L'INSTRUCTION CHRETIENNE-ABBAYE DE FLONE,4540,AMAY,Chaussée Romaine,2,085-31 13 34,085-31 61 98,Monsieur,Helmus,Pierre-Yves,131,institut@flone.be
Collčge Saint-Roch Ferričres,4190,FERRIERES,Allée de Bernardfagne,7,086-40 00 06,086-40 04 57,Monsieur,Dardenne,Benoît,131,
ATHENEE ROYAL DE HUY,4500,HUY,Quai d'Arona,5,085-27 13 50,085-24 01 26,Madame,Dechany,Marie-Luce,111,alloo_delatte@yahoo.fr
COLLEGE SAINT-QUIRIN,4500,HUY,Rue Entre-Deux-Portes,75,085-21 14 49,085-25 11 72,Madame,Droogmans,Françoise,131,college@st-quirin.be
INSTITUT SAINTE-MARIE,4500,HUY,Rue Vankeerberghen,10-12,085-21 79 26,085-25 14 46,Madame,Bazdoulj,Nathalie,131,ste-marie.huy@sec.cfwb.be
ECOLE POLYTECHNIQUE DE HUY- ENSEIGNEMENT DE LA PROVINCE DE LIEGE,4500,HUY,Rue Saint-Pierre,48,085-27 37 00,085-27 37 02,Monsieur,Berzolla,Michael,122,
INSTITUT PROVINCIAL D'ENSEIGNEMENT SECONDAIRE DE HUY,4500,HUY,Avenue Delchambre,6,085-27 31 00,085-21 15 97,Madame,Escutenaire,Catherine,122,
INSTITUT DON BOSCO,4500,HUY,Rue des Cotillages,2,085-27 07 50,085-23 55 29,Madame,TOREZ,Emmanuelle,131,direction@donboscohuy.be 
ATHENEE ROYAL AGRI-SAINT-GEORGES,4500,HUY,Rue Saint-Victor,5,085-21 67 70,085-25 07 54,Madame,Chanet,Nadine,111,itcf.huy@sec.cfwb.be
ATHENEE ROYAL PRINCE BAUDOUIN,4570,MARCHIN,Rue Fourneau,40,085-27 33 00,085-25 12 24,Monsieur,Pagnoul,Pierre,111,ar.baudouin.marchin@sec.cfwb.be
ATHENEE ROYAL D'OUFFET,4590,OUFFET,Rue Mognée,21,086-36 62 77,086-36 61 81,Monsieur,Thielens,Eric,111,
INSTITUT LIBRE DU CONDROZ SAINT-FRANCOIS,4590,OUFFET,Rue du Perron,31,086-36 60 79,086-36 65 45,Madame,Grosjean,Fabienne,131,
ATHENEE ROYAL D'ANS,4432,ALLEUR,Rue Georges Truffaut,37,04-246 76 00,04-246 76 06,Madame,Mertens,Isabelle,111,direction@.ar-alleur.be
COLLEGE SAINT-FRANCOIS D'ASSISE,4430,ANS,Rue du Cimetičre,2,04-224 69 40,04-224 13 29,Monsieur,Pieczynski,Jean-Luc,131,direction@csfa.be
ATHENEE ROYAL AYWAILLE,4920,AYWAILLE,Avenue François Cornesse,48,04-384 42 45,04-384 64 01,Madame,Fuger,Danielle,111,ar.aywaille@sec.cfwb.be
CENTRE SCOLAIRE SAINT-JOSEPH - SAINT-RAPHAEL,4920,SOUGNE-REMOUCHAMPS,Avenue de la Porallée,40,04-246 74 20,04-384 46 53,Monsieur,Germain,Dominique,131,
COLLEGE EPISCOPAL DU SARTAY,4053,EMBOURG,Rue Pierre Henvard,64,04-361 69 58,04-361 69 52,Madame,Degueldre,Nathalie,131,buckinx@sartay.be
ATHENEE ROYAL D'ESNEUX,4130,ESNEUX,Rue de l'Athénée,6,04-380 16 96,04-380 07 29,Madame,Lincé,Brigitte,111,
Centre scolaire Sainte-Julienne (D2 D3),4620,FLERON,Avenue des Martyrs,246,04-358 42 71,04-358 75 25,Monsieur,Fabry,Jean-François,131,
Centre scolaire Sainte-Julienne (D1),4620,FLERON,Avenue des Martyrs,246,04-358 42 71,04-358 95 39,Monsieur,Krins,Vincent,131,stlaurent.fleron@sec.cfwb.be
ATHENEE ROYAL DE HERSTAL,4040,HERSTAL,Rue Jean Lambert Sauveur,59,04-264 45 48,04-264 66 23,Monsieur,Delville,Gilbert,111,
COLLEGE NOTRE-DAME ET SAINT-LAMBERT ET INSTITUT SAINT-LAURENT,4040,HERSTAL,Rue Elisa Dumonceau,75,04-264 00 49,04-248 15 36,Madame,Vaccaro,Antonella,131,indsl.herstal@sec.cfwb.be
NOTRE-DAME SAINT LAMBERT ET SAINT-LAURENT DOA,4040,HERSTAL,Rue Elisa Dumonceau,75,04-264 41 78,04-248 15 36,Madame,Vanegeren,Maggy,131,dir.e4040doa1@win.be
ECOLE POLYTECHNIQUE DE HERSTAL - ENSEIGNEMENT DE LA PROVINCE DE LIEGE,4040,HERSTAL,Rue de l'Ecole Technique,34,04-248 42 00,04-248 42 04,Madame,Pupien,Genevičve,122,
INSTITUT PROVINCIAL D'ENSEIGNEMENT SECONDAIRE DE HERSTAL,4040,HERSTAL,Rue du Grand Puits,66,04-248 41 00,04-248 41 41,Madame,Makedonsky,Kira,122,ipeshl@provincedeliege.be
INSTITUT MARIA GORETTI,4031,ANGLEUR,Rue de Renory,101,04-344 97 40,04-344 97 60,Madame,Magnee,Anne,131,inst.maria.goretti@skynet.be
ATHENEE ROYAL DE CHENEE,4032,CHENEE,Rue Bourdon,32,04-365 44 29,04-367 41 59,Madame,Tyssens,Christine,111,
COLLEGE SAINT-JOSEPH,4032,CHENEE,Rue Soeur Lutgardis,4,04-367 61 71,04-365 48 00,Monsieur,Ramacciotti,Lucien,131,
INSTITUT SAINTE-THERESE D'AVILA,4032,CHENEE,Rue Soeur Lutgardis,5,04-361 85 85,04-365 71 99,Madame,Monseur,Josiane,131,
INSTITUT NOTRE-DAME DE JUPILLE,4020,JUPILLE-SUR-MEUSE,Rue Charlemagne,47,04-345 64 70,04-370 01 76,Monsieur,Hérin,André,131,
D.O.A. Saint-Louis,4020,LIEGE,Rue Alfred Magis,20,04-349 53 00,04-344 04 94,Madame,Havet,Yolande,131,mailto:direction@collegesaintlouis.be
ATHENEE ROYAL LIEGE 1 CHARLES ROGIER,4000,LIEGE,Rue des Clarisses,13,04-222 14 82,04-223 09 45,Madame,Englebert,Jocelyne,111,direction@atheneecharlesrogier.be
ATHENEE COMMUNAL MAURICE DESTENAY,4020,LIEGE,Boulevard Saucy,16,04-343 04 28,04-343 02 73,Madame,Pauwen,Muriel,123,
Institut Saint-Joseph et Sainte-Julienne,4000,LIEGE,Rue du Général Bertrand,14,04-226 36 25,04-224 03 88,Monsieur,Rasson,Jean-Marc,131,
LYCEE SAINT-JACQUES,4000,LIEGE,Rue Darchis,35,04-223 43 56,04-223 26 33,Madame,Massart,Jocelyne,131,direction@lyceesaintjacques.be
CENTRE SCOLAIRE SAINTE-VERONIQUE - MARIE-JOSE,4000,LIEGE,Rue Rennequin Sualem,15,04-252 40 72,04-254 28 40,Madame,Debouge,Marie,131,isv@skynet.be
CENTRE SCOLAIRE SAINT-LOUIS,4020,LIEGE,Rue Alfred Magis,20,04-349 53 00,04-344 04 94,Monsieur,Renson,Bernard,131,fschoebrechts@swing.be
COLLEGE SAINT-BARTHELEMY,4000,LIEGE,En-Hors-Château,31,04-223 73 71,04-221 17 16,Monsieur,DRIESKENS,JEAN-MARC,131,jm.drieskens@hotmail.com
Lycée Saint-Benoît - Saint-Servais (1er degré),4000,LIEGE,Rue Lambert le Bčgue,44,04-223 59 65,04-221 15 85,Madame,Dardenne,Laurence,131,stbenoit.stservais@win.be
Centre scolaire Saint-Benoît Saint-Servais (2čme et 3čme degrés),4000,LIEGE,Rue Lambert-le-Bčgue,44,04-223 59 65,04-221 15 85,Madame,Dister-Jacquemotte,Arlette,131,stbenoit.stservais@win.be
DAMES DE L'INSTRUCTION CHRETIENNE D.I.C. COLLEGE,4000,LIEGE,Rue Sur-la-Fontaine,70,04-223 20 18,04-232 17 15,Monsieur,Lambert,Vincent,131,
CENTRE D'ENSEIGNEMENT SECONDAIRE LEON MIGNON,4000,LIEGE,Rue Léon Mignon,2,04-223 71 08,04-223 20 29,Monsieur,Laboulle,Pierre,123,
INSTITUT DE LA CONSTRUCTION DES ARTS DECORATIFS ET INDUSTRIELS,4000,LIEGE,Rue de Fragnée,76,04-252 16 25,04-252 20 33,Madame,Seba,Christelle,123,icadi68@swing.be
INSTITUT D'ENSEIGNEMENT SECONDAIRE SAINT-LUC,4000,LIEGE,Rue Louvrex,111,04-232 99 80,04-221 19 84,Madame,Gilliard,Vinciane,131,ies.stluc.liege@sec.cfwb.be
ECOLE D'HOTELLERIE ET DE TOURISME,4000,LIEGE,En-Hors-Château,13,04-223 22 25,04-222 18 69,Monsieur,El Bekali,Abderrahman,123,info@ehtliege.be
ECOLE DE COIFFURE ET DE BIOESTHETIQUE,4020,LIEGE,Rue de Pitteurs,31,04-343 92 91,04-342 59 14,Madame,Mullenders,Béatrice,123,
INSTITUT SAINT-LAURENT,4000,LIEGE,Rue Saint-Laurent,29,04-223 78 80,04-221 20 05,Madame,Neuzy,Anne,131,institut.stlaurent@win.be
Institut Don Bosco,4000,LIEGE,Rue des Wallons,59,04-229 78 70,04-229 78 79,Madame,Gathot,Isabelle,131,
INSTITUT MARIE-THERESE,4000,LIEGE,Rue Delfosse,25,04-222 04 05,04-223 46 82,Madame,Szecel-Fransquet,Bernadette,131,contact@marie-therese.liege.be
ATHENEE ROYAL FRAGNEE,4000,LIEGE,Rue de Fragnée,73,04-229 67 50,04-254 16 33,Madame,Guelfi,Reinette,111,prefet.arf@gmail.com
"LYCEE TECHNIQUE PROVINCIAL ""JEAN BOETS""",4000,LIEGE,Rue Hullos,52,04-230 68 00,04-226 72 58,Madame,Rahir,Si-Nae,122,
CENTRE D'ENSEIGNEMENT SECONDAIRE LEONARD DEFRANCE,4000,LIEGE,Rue de l'Espérance,62,04-226 37 64,04-226 93 47,Madame,Fazio,Giuseppina,123,
Institut Saint-Jean Berchmans,4000,LIEGE,Rue des Wallons,59,04-229 78 90,04-229 78 99,Monsieur,Daumen,Paul,131,
ATHENEE ROYAL LIEGE ATLAS,4000,LIEGE,Quai Saint-Léonard,80,04-227 27 56,04-227 06 27,Madame,Erwoinne,Anne-Marie,111,ar.liege.atlas@sec.cfwb.be
INSTITUT SAINT-BARTHELEMY D.O.A.,4000,LIEGE,En-Hors-Château,31,04-223 73 71,04-221 17 16,Monsieur,Piron,Marc,131,
ATHENEE ROYAL PAUL BRUSSON,4420,MONTEGNEE,Rue Félix Bernard,1,04-263 73 63,04-263 43 00,Madame,Colleau,Arlette,111,
"ATHENEE ROYAL ""AIR PUR""",4100,SERAING,Rue des Nations-Unies,1,04-330 32 30,04-330 32 35,Madame,Huveners,Marie-France,111,
ATHENEE ROYAL LUCIE DEJARDIN,4100,SERAING,Rue de l'Industrie,127,04-337 21 02,04-336 41 30,Madame,De Vos,Brigitte,111,secretariat@arluciedejardin.be
COLLEGE SAINT-MARTIN - I.S.M. PAIRAY,4100,SERAING,Rue de la Province,101,04-337 04 96,04-336 68 33,Monsieur,Warnier,Jean-Marie,131,
ECOLE POLYTECHNIQUE DE SERAING - ENSEIGNEMENT DE LA PROVINCE DE LIEGE,4100,SERAING,Rue de Colard Trouillet,48,04-330 72 21,04-330 72 99,Madame,Tedesco,Carmela Elisa,122,
INSTITUT SAINTE-MARIE,4100,SERAING,Rue Cockerill,148,04-385 11 46,04-330 18 96,Madame,Lhoest,Josiane,131,secretariat.ism@skynet.be
INSTITUT PROVINCIAL D'ENSEIGNEMENT SECONDAIRE DE SERAING,4101,JEMEPPE-SUR-MEUSE,Quai des Carmes,43,04-237 93 46,04-237 93 47,Madame,Brundseaux,Caroline,122,ipesseraing@provincedeliege.be
ATHENEE ROYAL SOUMAGNE,4630,SOUMAGNE,Rue des Prairies,30,04-377 10 00,04-377 14 91,Madame,Mailleux,Claudine,111,
ATHENEE ROYAL VISE,4600,VISE,Rue du Gollet,2,04-379 96 60,04-379 46 41,Madame,Roose,Fabienne,111,
D.O.A. Saint-Hadelin,4600,VISE,Rue Saint-Hadelin,15,04-379 15 39,04-379 13 21,Madame,Antoine,Juliane,131,
Collčge Saint-Hadelin,4600,VISE,Rue Saint-Hadelin,15,04-379 15 39,04-379 13 21,Madame,Russo,Sabrina,131,
INSTITUT SACRE-COEUR ET SAINT-JOSEPH,4600,VISE,Rue de la Trairie,27,04-379 24 05,04-379 67 66,Monsieur,Bonten,Eddy,131,isc.vise@skynet.be
ATHENEE PROVINCIAL DE FLEMALLE GUY LANG,4400,FLEMALLE,Grand'Route,317,04-234 93 00,04-233 25 56,Monsieur,Dispa,Yves,122,
COLLEGE ROYAL MARIE-THERESE,4650,HERVE,Rue de Charneux,36,087-67 41 37,087-67 59 33,Monsieur,Bartholomé,Joseph,131,
COLLEGE PROVIDENCE I - D.O.A.,4650,HERVE,Avenue Reine Astrid,9,087-67 40 75,087-66 04 37,Monsieur,MAGER,MARC,131,doa.providence.herve@sec.cfwb.be
INSTITUT DE LA PROVIDENCE,4650,HERVE,Avenue Reine Astrid,2A,087-67 59 02,087-66 13 58,Madame,Berhin,Françoise,131,direction@iphherve.be
COLLEGE PROVIDENCE II D.O.A.,4650,HERVE,Avenue Reine Astrid,9,087-67 40 75,087-66 04 37,Madame,Stéphany-Grailet,Genevičve,131,doa.providence.herve@sec.cfwb.be
ATHENEE ROYAL ARDENNE - HAUTES FAGNES,4960,MALMEDY,Route de Falize,21,080-79 11 22,080-79 11 24,Madame,Julien,Françoise,111,mirianne.jurion@sec.cfwb.be
INSTITUT NOTRE-DAME,4960,MALMEDY,Rue Derričre la Gare,12,080-79 15 15,080-79 15 19,Monsieur,Melotte,Michel,131,sec@indmdy.be
ATHENEE ROYAL ET ECOLE D'HOTELLERIE DE SPA,4900,SPA,Rue des Capucins,8,087-79 54 80,087-77 37 80,Madame,Colla,Catherine,111,
COLLEGE SAINT-REMACLE D.O.A.,4970,STAVELOT,Avenue Ferdinand Nicolay,35,080-89 20 62,080-89 20 69,Monsieur,Beco,Marc,131,
COLLEGE SAINT-REMACLE,4970,STAVELOT,Avenue Ferdinand Nicolay,35,080-89 20 61,080-89 20 69,Monsieur,Louis,Luc,131,
INSTITUT SAINT-ROCH 2e ET 3e DEGRES,4910,THEUX,Marché,2,087-54 13 33,087-53 04 52,Madame,Colin - Maréchal,Françoise,131,stroch.theux@sec.cfwb.be
INSTITUT SAINT-ROCH D.O.A.,4910,THEUX,Marché,2,087-54 13 33,087-53 04 52,Monsieur,Lemaire,Régis,131,doa.stroch.theux@swing.be
INSTITUT PROVINCIAL D'ENSEIGNEMENT AGRONOMIQUE,4910,LA REID,Rue Canada,157,087-21 05 10,087-37 69 40,Madame,Rose,Christine,122,ipealareid@prov-liege.be
ATHENEE ROYAL THIL LORRAIN VERVIERS I,4800,VERVIERS,Rue Thil Lorrain,1-3,087-30 79 30,087-30 79 36,Monsieur,Dereppe,Fabrice,111,prefet.arv1@skynet.be
INSTITUT NOTRE-DAME,4802,HEUSY,Avenue Jean Tasté,38,087-29 10 70,087-29 10 99,Monsieur,Baiwir,Simon-Pierre,131,info@notredameheusy.be
CENTRE SCOLAIRE SAINT-FRANCOIS-XAVIER,4800,VERVIERS,Rue de Rome,18,087-39 39 39,087-39 39 13,Madame,Jacquemin,Anne,131,college.sfx1@skynet.be
ECOLE POLYTECHNIQUE DE VERVIERS - ENSEIGNEMENT DE LA PROVINCE DE LIEGE,4800,VERVIERS,Rue aux Laines,69,087-32 70 70,087-32 70 50,Madame,Vanoirbeck,Dominique,122,
INSTITUT D'ENSEIGNEMENT TECHNIQUE DON BOSCO,4800,VERVIERS,Rue des Alliés,70,087-33 20 08,087-33 95 29,Monsieur,Duvivier,Philippe,131,
INSTITUT SAINT-FRANCOIS-XAVIER,4800,VERVIERS,Rue de Francorchamps,12,087-29 39 99,087-29 39 98,Monsieur,Bosson,Luc,131,
ATHENEE ROYAL VERDI,4800,VERVIERS,Rue des Wallons,57,087-32 43 60,087-32 43 70,Monsieur,Miessen,Pierre,111,direction@arverdi.be
INSTITUT PROVINCIAL D'ENSEIGNEMENT SECONDAIRE DE VERVIERS,4800,VERVIERS,Rue Peltzer de Clermont,104,087-32 25 25,087-33 06 34,Madame,Canei,Patricia,122,
INSTITUT SAINTE-CLAIRE,4800,VERVIERS,Rue Sčcheval,32,087-31 32 64,087-31 07 24,Monsieur,Gérard,Bernard,131,
ATHENEE ROYAL WAIMES,4950,WAIMES,Rue des Hętres,2A,080-67 95 64,080-67 98 19,Monsieur,Fluhr,Thierry,111,dir@arwaimes.be
ATHENEE ROYAL DE WELKENRAEDT,4840,WELKENRAEDT,Rue Gérard Delvoye,2,087-88 02 30,087-88 32 30,Monsieur,Knapen,Thierry,111,
INSTITUT SAINT-JOSEPH,4840,WELKENRAEDT,Rue de l'Eglise,33,087-88 00 39,087-88 15 81,Monsieur,Corman,Christian,131,secretariat@stjowelk.be
INSTITUT SAINT-JOSEPH,4980,TROIS-PONTS,Avenue de la Salm,17,080-68 40 69,080-68 91 20,Madame,Paquay,Marie-Thérčse,131,secretariat@saintjosephtroisponts.be
COLLEGE NOTRE-DAME,4851,GEMMENICH,Rue de Moresnet,157,087-78 52 97,087-78 74 12,Madame,Deswysen,Christiane,131,direction@cndgemmenich.be
COLLEGE SAINTE-CROIX ET NOTRE-DAME,4280,HANNUT,Rue de Crehen,1,019-51 94 50,019-51 94 60,Monsieur,Carlier,Patrick,131,sainte-croix@infonie.be
LYCEE SAINTE-CROIX ET NOTRE-DAME,4280,HANNUT,Avenue Paul Brien,4,019-51 95 00,019-51 95 08,Monsieur,Doyen,Bernard,131,saintecroix.hannut@sec.cfwb.be
ATHENEE ROYAL HANNUT,4280,HANNUT,Rue de Tirlemont,22,019-63 03 40,019-51 17 39,Madame,Spyrou,Lara,111,sabine.haot@sec.cfwb.be
ATHENEE ROYAL WAREMME,4300,WAREMME,Rue Gustave Renier,1,019-32 26 06,019-32 68 28,Madame,Belboom,Vinciane,111,
COLLEGE SAINT-LOUIS,4300,WAREMME,Avenue du Prince Régent,30,019-32 24 84,019-33 08 83,Monsieur,Dupuis,Bruno,131,
INSTITUT SAINT-LOUIS,4300,WAREMME,Avenue du Prince Régent,30,019-32 24 84,019-33 08 83,Monsieur,Kersten,Christophe,131,bruno.dupuis@mail.be
INSTITUT SAINT-LAURENT,4300,WAREMME,Rue du Casino,6,019-32 22 25,019-32 74 99,Monsieur,Mouton,Jean-Marie,131,jmmouton@gmail.com
INSTITUT PROVINCIAL D'ENSEIGNEMENT SECONDAIRE DE HESBAYE,4300,WAREMME,Rue de Huy,123,019-69 66 00,019-33 05 79,Monsieur,Piedboeuf,David,122,
INSTITUT TECHNIQUE DE LA COMMUNAUTE FRANCAISE PARAMEDICAL,9600,RENAIX,Chaussée de Ninove,169,055-23 53 90,055-23 53 99,Madame,Van Cauwenberge,Vanessa,111,
ECOLE ROYALE TECHNIQUE QUARTIER COL. AVI RENSON,3800,SINT-TRUIDEN,Luikersteenweg,371,011-70 24 20,011-70 26 06,Monsieur,VAN CAMP,MICHEL,129,
ATHENEE ROYAL ARLON,6700,ARLON,Rue de Sesselich,83,063-24 50 20,063-23 31 86,Monsieur,Jaspar,Christophe,111,
Institut Notre-Dame d'Arlon - 2e et 3e degrés,6700,ARLON,Rue Joseph Netzer,21,063-24 52 10,063-24 52 11,Monsieur,Delacroix,Hugues,131,
INSTITUT SAINTE-MARIE - ENSEIGNEMENT SECONDAIRE,6700,ARLON,Rue de Bastogne,33,063-43 01 73,063-43 01 75,Monsieur,Colling,Michel,131,isma@isma-arlon.be
Institut Notre-Dame d'Arlon D.O.A.,6700,ARLON,Rue Joseph Netzer,21,063-24 52 10,063-24 52 11,Monsieur,Guiot,Jean-Jacques,131,
INSTITUT CARDIJN LORRAINE - ENSEIGNEMENT TECHNIQUE ET PROFESSIONNEL,6700,ARLON,Rue de Neufchâteau,69,063-24 28 50,063-24 28 51,Monsieur,Quirynen,Luc,131,institut.arlon@cardijn.be
INSTITUT TECHNIQUE DE LA COMMUNAUTE FRANCAISE ETIENNE LENOIR,6700,ARLON,Chemin de Weyler,2,063-23 02 20,063-23 02 25,Monsieur,Giberti,Philippe,111,
INSTITUT CARDIJN LORRAINE - ENSEIGNEMENT GENERAL,6791,ATHUS,Rue Luttgens,10,063-38 12 20,063-38 12 26,Madame,Arnould,Marianne,131,
ATHENEE ROYAL ATHUS,6791,ATHUS,Rue Neuve,32,063-38 02 70,063-38 02 82,Madame,Lannoy,Catherine,111,
ATHENEE ROYAL DE BASTOGNE - HOUFFALIZE,6600,BASTOGNE,Avenue de la Gare,12,061-68 02 04,061-68 02 02,Madame,Ledent,Francine,111,
INSTITUT NOTRE-DAME SEMINAIRE 2e et 3e DEGRES,6600,BASTOGNE,Rue Piconrue,6,061-24 06 30,061-24 06 39,Monsieur,Stéveler,Pierre,131,
INSTITUT COMMUNAL D'ENSEIGNEMENT TECHNIQUE,6600,BASTOGNE,Rue des Remparts,57,061-21 14 44,061-21 08 69,Monsieur,Henrotte,Philippe,123,
INSTITUT NOTRE-DAME SEMINAIRE 1er DEGRE,6600,BASTOGNE,Rue des Ecoles,20,061-21 22 14,061-21 22 69,Monsieur,Delsalle,Patrick,131,
INSTITUT DU SACRE-COEUR,6690,VIELSALM,Rue des Chars-ŕ-Boeufs,12,080-21 62 08,080-21 46 83,Madame,Talbot,Christine,131,iscvielsalm@gmail.com
ATHENEE ROYAL VIELSALM - MANHAY,6690,VIELSALM,Les Grands Champs,18A,080-29 26 70,080-29 26 71,Madame,Frérotte,Bénédicte,111,
INSTITUT DU SACRE-COEUR,6940,BARVAUX-SUR-OURTHE,En Charotte,28,086-21 11 01,086-21 43 67,Monsieur,Marot,Josy,131,
ATHENEE ROYAL DE LA ROCHE-EN-ARDENNE,6980,LA ROCHE-EN-ARDENNE,Rue des Evęts,4,084-41 12 62,084-41 15 92,Madame,Diependaele,Frédérique,111,
Institut Saint-Joseph - Sacré-Coeur,6980,LA ROCHE-EN-ARDENNE,Vieille route de Beausaint,22,084-41 14 02,084-41 16 04,Madame,Delvaux,Isabelle,131,isj.isc.laroche@skynet.be
ATHENEE ROYAL MARCHE-BOMAL,6900,MARCHE-EN-FAMENNE,Avenue de la Toison d'Or,71,084-32 04 60,084-32 04 61,Monsieur,Waucquez,David,111,armarche-bomal@hotmail.com
INSTITUT SAINTE-JULIE,6900,MARCHE-EN-FAMENNE,Rue Américaine,28,084-32 01 70,084-32 01 77,Monsieur,Evrard,Jean-Pierre,131,
INSTITUT SAINT-ROCH,6900,MARCHE-EN-FAMENNE,Rue Américaine,28,084-32 01 50,084-32 01 57,Madame,Lejeune,Pascale,131,
INSTITUT SAINT-LAURENT - Enseignement général - D2-D3,6900,MARCHE-EN-FAMENNE,Rue Américaine,28,084-32 01 80,084-32 01 87,Monsieur,Fourneau,Pierre,131,
INSTITUT NOTRE-DAME,6880,BERTRIX,Rue de Burhaimont,11,061-41 00 10,061-41 00 19,Monsieur,Romain,Vincent,131,indbertrix@skynet.be
ATHENEE ROYAL DE BOUILLON - PALISEUL,6830,BOUILLON,Rue du Collčge,35,061-46 72 92,061-46 86 23,Monsieur,Pierrard,Vincent,111,etienne.micha@sec.cfwb.be
INSTITUT SAINTE-MARIE,6830,BOUILLON,Rue Georges Lorand,3,061-46 63 79,061-46 85 91,Monsieur,Mahy,Vincent,131,
ATHENEE ROYAL DE NEUFCHATEAU - BERTRIX,6840,NEUFCHATEAU,Avenue de la Victoire,28,061-27 72 02,061-27 98 26,Madame,Roblain,Roseline,111,ar.neufchateau-bertrix@sec.cfwb.be
INSTITUT SAINT-MICHEL,6840,NEUFCHATEAU,Place du Château,3,061-27 71 64,061-27 77 90,Monsieur,Meunier,Frédéric,131,
INSTITUT SAINT-JOSEPH,6850,CARLSBOURG,Avenue Arthur Tagnon,1,061-53 01 00,061-53 40 91,Monsieur,Lefčvre,Jean-Luc,131,isj@carlsbourg-saint-joseph.be.be
COLLEGE D'ALZON,6927,BURE,Rue de Han,1,084-36 02 80,084-36 62 49,Madame,Zabus,Ann,131,administration@alzon.be
INSTITUT SAINT-JOSEPH - ECOLE TECHNIQUE BERTRIX,6800,LIBRAMONT,Rue de Bonance,11,061-23 06 50,061-23 06 59,Madame,Jacques,Malorie,131,
INSTITUT TECHNIQUE DE LA COMMUNAUTE FRANCAISE CENTRE ARDENNE,6800,LIBRAMONT,Avenue Herbofin,39,061-23 05 00,061-22 54 72,Madame,Leitz,Chantal,111,
ATHENEE ROYAL GERMAIN ET GILBERT GILSON,6810,IZEL,Rue de l'Institut,47,061-31 24 55,061-31 24 84,Monsieur,Robin,Benoît,111,
INSTITUT SAINTE-ANNE,6820,FLORENVILLE,Rue de la Station,2,061-31 12 18,061-32 52 20,Madame,De Matos,Delphine,131,isa.florenville@pi.be
ATHENEE ROYAL NESTOR OUTER,6760,VIRTON,Faubourg d'Arival,48,063-57 73 30,063-57 95 93,Monsieur,Laurent,André,111,
Collčge Notre-Dame du Bonlieu,6760,VIRTON,Rue Chanoine Crousse,1,063-58 86 30,063-58 86 39,Monsieur,Monhonval,Francis,131,
Institut de la Sainte Famille I.S.F.,6760,VIRTON,Rue de Montmédy,2,063-58 88 60,063-58 88 70,Madame,Weber,Françoise,131,isf.virton@sec.cfwb.be
INSTITUT DES ARTS ET METIERS,6760,VIRTON,Rue d'Arlon,112,063-58 89 20,063-57 70 95,Monsieur,Mernier,Simon,131,
COMMUNAUTE SCOLAIRE SAINT-BENOIT 1er DEGRE,6720,HABAY-LA-NEUVE,Avenue de la Gare,68,063-42 22 48,063-42 22 91,Monsieur,Simon,José,131,
COMMUNAUTE SCOLAIRE SAINT-BENOIT 2E ET 3E DEGRES,6720,HABAY-LA-NEUVE,Rue de Luxembourg,2,063-42 22 27,063-42 44 63,Madame,Alloin,Marie-Isabelle,131,
COLLEGE SAINT-BENOIT DE MAREDSOUS,5537,DENEE,Rue de Maredsous,12,082-69 82 05,082-69 82 56,Madame,De Pauw Willem,Hélčne,131,college@maredsous.com
ATHENEE ROYAL NORBERT COLLARD,5570,BEAURAING,Rue de Dinant,23,082-71 13 02,082-71 40 70,Madame,Junius,Danielle,111,
INSTITUT NOTRE-DAME,5570,BEAURAING,Rue de Givet,21,082-71 02 20,082-71 02 29,Madame,Poncelet,Marie-Agnčs,131,indbg@skynet.be
Institut Notre-Dame du Sacré-Coeur,5570,BEAURAING,Rue de Rochefort,92,082-71 17 97,082-71 40 00,Madame,Sintzoff,Catherine,131,secretariat@indsc-beauraing.be
ATHENEE ROYAL DU CONDROZ JULES DELOT,5590,CINEY,Square Omer Bertrand,1,083-21 15 12,083-21 29 30,Madame,Marcx,Alice,111,direction.arciney@skynet.be
Ecole provinciale d'agronomie et des sciences de Ciney,5590,CINEY,Rue Saint-Quentin,14,081-77 67 90,081-77 69 89,Madame,Willem,Michčle,122,ecole.agrosciences@province.namur.be
INSTITUT SAINT-JOSEPH - ENSEIGNEMENT GENERAL,5590,CINEY,Rue Saint-Hubert,14-16,083-23 21 50,083-21 29 15,Monsieur,Rondiat,Gérard,131,
INSTITUT DE LA PROVIDENCE,5590,CINEY,Rue Piconette,1,083-23 43 80,083-23 43 92,Madame,Carpentier,Marie-Christine,131,
INSTITUT SAINT-JOSEPH - ENSEIGNEMENT TECHNIQUE,5590,CINEY,Rue Saint-Hubert,14-16,083-23 21 60,083-21 62 28,Monsieur,Callens,Olivier,131,isjet.ciney@sec.cfwb.be
COLLEGE NOTRE-DAME DE BELLEVUE,5500,DINANT,Rue de Bonsecours,2,082-22 32 52,082-22 33 61,Monsieur,Koeune,Alain,131,
Athénée royal Dinant-Herbuchenne,5500,DINANT,Chemin d'Herbuchenne,1,082-22 25 90,082-22 52 81,Madame,Goris,Christelle,111,direction@itcfdinant.be
COMMUNAUTE SCOLAIRE LIBRE GEORGES COUSOT,5500,DINANT,Place Albert Ier,11,082-21 35 21,082-21 35 29,Monsieur,Bouillon,Koen,131,
ATHENEE ROYAL ROCHEFORT-JEMELLE,5580,ROCHEFORT,Rue Jacquet,102,084-34 09 10,084-21 29 94,Madame,Genot,Christine,111,secretariatarrochefort@hotmail.com 
INSTITUT JEAN XXIII,5580,ROCHEFORT,Rue de la Sauveničre,7,084-21 13 45,084-22 12 26,Monsieur,Defaux,Gilles,131,
COLLEGE DE GODINNE-BURNOT D2-D3,5530,GODINNE,Carrefour de l'Europe,3,082-61 04 00,082-61 04 01,Monsieur,Mauroy,Dominique,131,
ATHENEE ROYAL JEAN TOUSSEUL,5300,ANDENNE,Rue Adeline Henin,4,085-27 87 70,085-84 49 25,Madame,Grognet,Joëlle,111,info@arandenne.be
INSTITUT PROVINCIAL ENSEIGNEMENT SECONDAIRE,5300,SEILLES,Rue François Jassogne,2 A,081-77 68 06,085-82 77 66,Madame,Mathieu,Patricia,122,ipes.direction@province.namur.be
INSTITUT SAINTE-BEGGE,5300,ANDENNE,Place du Chapitre,12,085-84 14 70,085-84 52 40,Madame,Goffin,Mélanie,131,
COLLEGE ABBE NOEL,5310,EGHEZEE,Rue du Collčge,4,081-81 02 10,081-81 02 39,Monsieur,Gelinne,Michel,131,csjh.eghezee@sec.cfwb.be
SEMINAIRE DE FLOREFFE,5150,FLOREFFE,Rue du Séminaire,7,081-44 71 40,081-44 57 59,Monsieur,Lefebvre,François,131,seminaire.floreffe@swing.be
ATHENEE ROYAL DE JAMBES,5100,JAMBES,Rue de Géronsart,150,081-33 16 20,081-33 16 21,Madame,Geudvert,Cécile,111,arjdirection@gmail.com
INSTITUT SAINTE-MARIE (D2-D3),5100,JAMBES,Chaussée de Ličge,246,081-30 13 30,081-30 67 53,Monsieur,Martiat,Gauthier,131,
INSTITUT SAINTE MARIE,5100,JAMBES,Chaussée de Ličge,246,081-30 13 30,081-30 67 53,Monsieur,Mosseray,Marc,131,
INSTITUT SAINT-JOSEPH,5100,JAMBES,Rue Mazy,20,081-32 04 70,081-32 04 82,Madame,Bodart,Marie-Hélčne,131,mh.bodart@gmail.com
ECOLE AVE MARIA,5002,SAINT-SERVAIS,Rue de Bricgniot,205,081-73 12 34,081-74 17 03,Madame,Moins,Cécile,131,avemaria.mons@sec.cfwb.be
COLLEGE SAINT-SERVAIS,5002,SAINT-SERVAIS,Rue de la Pépiničre,101,081-72 90 11,081-74 30 47,Monsieur,Charlier,Pascal,131,dir.generale@asty-moulin.be
ECOLE PROFESSIONNELLE,5002,SAINT-SERVAIS,Rue Florent Dethier,31,081-72 90 11,081-74 30 47,Madame,Jallet,Martine,131,dir.generale@asty-moulin.be
COLLEGE NOTRE-DAME DE LA PAIX,5101,ERPENT,Pl Notre-Dame de la Paix,5,081-30 19 61,081-30 84 27,Monsieur,De Brabant,Stéphan,131,
INSTITUT SAINT-BERTHUIN,5020,MALONNE,Fond de Malonne,129,081-44 72 30,081-44 72 39,Madame,André,Maryline,131,info@isbm.be
INSTITUT SAINT-LOUIS,5000,NAMUR,Rue Pepin,7,081-25 61 80,081-25 61 81,Monsieur,Lefčvre,Daniel,131,
Ecole Namuroise de soins Sainte-Elisabeth,5000,NAMUR,Place Louise Godin,15,081-72 34 80,081-73 85 78,Monsieur,Chavée,Michel,131,secretariat.eleves@ecnas-sainte-elisabeth.be
Etablissement des Soeurs de Notre-Dame,5000,NAMUR,Rue du Lombard,41,081-25 50 10,081-22 02 38,Madame,Baufays,Françoise,131,
COMMUNAUTE SCOLAIRE SAINTE-MARIE,5000,NAMUR,Rue du Président,28,081-22 92 04,081-22 79 49,Madame,Wauthy,Anne,131,dir.sec@cssm.be
INSTITUT TECHNIQUE DE LA COMMUNAUTE FRANCAISE FELICIEN ROPS,5000,NAMUR,Rue du Quatričme Génie,2,081-25 76 00,081-25 76 08,Madame,Bouchonville,Michčle,111,
INSTITUT TECHNIQUE,5000,NAMUR,Rue Asty-Moulin,60,081-72 90 11,081-74 30 47,Monsieur,Bertrand,Marc,131,dir.generale@asty-moulin.be
INSTITUT SAINTE-URSULE,5000,NAMUR,Rue de Bruxelles,78,081-25 10 50,081-25 10 76,Madame,Van Meir,Valérie,131,
INSTITUT ILON SAINT-JACQUES,5000,NAMUR,Rue des Carmes,12,081-25 37 81,081-22 61 87,Monsieur,Bourdoux,Luc,131,
Institut Notre-Dame,5000,NAMUR,Rue Julie Billiart,19,081-25 51 30,081-25 51 41,Monsieur,Gelinne,Michel,131,p.tonneau@indnamur.be
INSTITUT DES TECHNIQUES ET DES COMMERCES AGRO-ALIMENTAIRES,5020,SUARLEE,Chaussée de Nivelles,204,081-56 90 64,081-56 90 83,Madame,Thonon,Anne,111,itca.direction@skynet.be
INSTITUT TECHNIQUE DE LA COMMUNAUTE FRANCAISE HENRI MAUS,5000,NAMUR,Pl de l'Ecole des Cadets,4,081-25 50 85,081-25 50 84,Monsieur,Hubert,Jacques,111,it.henri.maus@gmail.com
ECOLE HOTELIERE PROVINCIALE DE NAMUR,5000,NAMUR,Avenue de l'Ermitage,7,081-77 68 34,081-43 36 70,Madame,Van De Woestyne,Dominique,122,ecole.hoteliere@province.namur.be
INSTITUT D'ENS. DES ARTS TECHNIQUES SCIENCES ET ARTISANAT -  I.A.T.A.,5000,NAMUR,Rue de la Montagne,43A,081-25 60 60,081-25 60 85,Madame,Mathias,Marylčne,131,iata@iata.be
INSTITUT DE LA PROVIDENCE,5020,CHAMPION,Place du Couvent,3,081-20 85 00,081-21 00 47,Monsieur,Mertens,Olaf,131,
ATHENEE ROYAL TAMINES,5060,TAMINES,Avenue Président Roosevelt,57,071-26 04 60,071-74 19 02,Monsieur,Lange,Jacques,111,
COMMUNAUTE EDUCATIVE SAINT-JEAN-BAPTISTE (2E ET 3E DEGRES),5060,TAMINES,Rue du Collčge,27,071-77 11 07,071-74 19 71,Monsieur,Bierwart,Jean-Pierre,131,cesjb@cesjb.com
COMMUNAUTE EDUCATIVE SAINT-JEAN-BAPTISTE,5060,TAMINES,Rue du Collčge,27,071-77 11 07,071-74 19 71,Monsieur,Derycke,Alain,131,
COLLEGE SAINT-ANDRE (enseignement technique et professionnel),5060,AUVELAIS,Rue des Auges,22,071-77 26 91,071-76 13 02,Madame,Carbonnelle,Françoise,131,standrevoisin@adm.cfwb.be
COLLEGE SAINT-ANDRE (enseignement général),5060,AUVELAIS,Rue des Auges,22,071-26 05 00,071-26 05 12,Monsieur,Avet,Damien,131,
ATHENEE ROYAL GEMBLOUX,5030,GEMBLOUX,Rue Gustave Docq,26,081-61 14 13,081-61 07 95,Madame,Dachelet,Sylvie,111,info@atheneegembloux.be
COLLEGE SAINT-GUIBERT (D2-D3),5030,GEMBLOUX,Place de l'Orneau,21,081-62 64 80,081-61 45 54,Monsieur,Libert,Didier,131,
COLLEGE SAINT-GUIBERT D.O.A.,5030,GEMBLOUX,Place de l'Orneau,21,081-62 64 80,081-61 45 54,Madame,Henry,Véronique,131,
INSTITUT TECHNIQUE DE LA COMMUNAUTE FRANCAISE GEMBLOUX,5030,GEMBLOUX,Rue Entrée Jacques,31,081-62 53 90,081-62 53 99,Monsieur,Kuntz,Olivier,111,ithgembloux@gmail.com
ATHENEE ROYAL BAUDOUIN I ER,5190,JEMEPPE-SUR-SAMBRE,Rue François Hittelet,89,071-75 00 91,071-75 00 98,Monsieur,Culot,Alain,111,arbaudouin.jemeppe@skynet.be
INSTITUT SAINTE-MARIE,5660,PESCHE,Rue Noiret,6,060-34 40 39,060-34 55 43,Monsieur,Duterme,Michel,131,
ATHENEE ROYAL JEAN REY,5660,COUVIN,La Croisette,1,060-34 46 74,060-34 55 50,Madame,Collin,Françoise,111,
ATHENEE ROYAL FLORENNES,5620,FLORENNES,Rue des Ecoles,21,071-68 83 23,071-68 96 81,Madame,Paligot,Béatrice,111,arf.florennes@swing.be
INSTITUT SAINTS-PIERRE ET PAUL,5620,FLORENNES,Rue des Ecoles,19,071-68 86 75,071-68 71 24,Monsieur,Larose,Michel,131,
INSTITUT SAINT-JOSEPH D.O.A.,5620,FLORENNES,Rue de Corenne,1,071-68 82 58,071-68 80 45,Madame,Masson,Nadine,131,isj.doa.florennes@sec.cfwb.be
"ATHENEE ROYAL ""JEAN ROSTAND"" DE PHILIPPEVILLE",5600,PHILIPPEVILLE,Avenue de Samart,2B,071-66 69 57,071-66 60 43,Monsieur,Bultot,Laurent,111,
Institut Notre-Dame,5600,PHILIPPEVILLE,Rue Eglise Saint-Philippe,10A,071-66 61 61,071-66 75 45,Monsieur,Degrande,Luc,131,
INSTITUT DE MOT-COUVREUR,1000,BRUXELLES,Pl Nouveau Marché Grains,24,02-505 59 00,02-505 59 08,Madame,Saegerman,Christine,123,sec.couvreur@brunette.brucity.be
ATHENEE JOSEPH BRACOPS,1070,BRUXELLES,Rue de la Procession,78,02-521 80 95,02-527 10 89,Monsieur,Lelong,Sébastien,123,
Institut Saint-Sépulcre,4000,LIEGE,Rue du Général Bertrand,14,04-226 04 66,04-225 09 38,Monsieur,Belleflamme,Marc,131,direction-sepulcre@scarlet.be
INSTITUT DE LA VIERGE FIDELE,1030,BRUXELLES,Place de Jamblinne de Meux,14,02-736 84 97,02-734 25 61,Madame,Vinois,Sophie,131,ivf_sec.2071@ens.irisnet.be
DIVISION PREPARATOIRE A L'ECOLE ROYALE MILITAIRE,1020,BRUXELLES,Drčve Sainte-Anne,90,02-474 48 80,02-474 47 56,Monsieur,DE LA ROY,CHARLES,129,
INSTITUT PROVINCIAL D'ENSEIGNEMENT SECONDAIRE,1300,WAVRE,Quai aux Huîtres,31,010-22 33 76,010-24 26 55,Madame,Pirlot,Romy,122,
ECOLE ROYALE DES SOUS-OFFICIERS NR. 1 DEPARTEMENT FORMATION DES ELEVES,5500,DINANT,Rue Arthur Defoin,215,082-21 31 10,082-21 31 99,Monsieur,MANANDISE,MARC,129,
Institut Emile Gryson,1070,BRUXELLES,Avenue Emile Gryson,1,02-526 74 00,02-526 74 03,Madame,Jongen,Anne,121,
INSTITUT SAINT-LUC,7520,RAMEGNIES-CHIN,Chaussée de Tournai,7,069-25 03 11,069-25 03 81,Madame,Goossens,France,131,secretariat-secondaire@st-luc-tournai.be
INSTITUT TECHNIQUE DE LA COMMUNAUTE FRANCAISE RENEE JOFFROY,7801,IRCHONWELZ,Chaussée de Valenciennes,48,068-26 50 50,068-26 50 55,Monsieur,Rousseau,Jean-Claude,111,jean-claude.rousseau@sec.cfwb.be
INSTITUT PROVINCIAL D'ENSEIGNEMENT SECONDAIRE PARAMEDICAL DE LIEGE-HUY-VERVIERS (E.P.S.C.),4020,LIEGE,Quai du Barbou,2,04-344 79 84,04-344 79 85,Madame,Rebholz,Karine,122,Dominique.Lejeune@provincedeliege.be
INSTITUT DOMINIQUE PIRE,1000,BRUXELLES,Rue De Lenglentier,6-14,02-511 53 22,02-502 77 14,Madame,Paulus,Monique,131,secretariat.direction.idpire@ens.irisnet.be
INSTITUT DE RADIOELECTRICITE ET CINEMATOGRAPHIE,1190,BRUXELLES,Avenue Victor Rousseau,75,02-340 11 00,02-340 11 16,Monsieur,Ricard,Dominique,132,inraci@inraci.be
INSTITUT SAINT-LUC,1060,BRUXELLES,Rue d'Irlande,57,02-537 08 70,02-537 00 63,Monsieur,Alarcia,Serge,131,st.luc.bxl@skynet.be
INSTITUT DON BOSCO,7500,TOURNAI,Boulevard Léopold,63,069-89 18 18,069-89 18 17,Monsieur,Henno,Dominique,131,don.bosco.tournai@skynet.be
INSTITUT DES TECHNIQUES HOSPITALIERES (I.T.E.H.O) JEANNE D'ARC,7500,TOURNAI,Quai des Salines,28,069-89 05 10,069-89 05 12,Madame,Dubar,Nathalie,131,
ATHENEE ROYAL D'IXELLES,1050,BRUXELLES,Rue de la Croix,40,02-626 96 30,02-626 96 01,Monsieur,Intjigejlis,Gerasimos,111,info@arixelles.be
COLLEGE DE GODINNE-BURNOT D.O.A.,5530,GODINNE,Carrefour de l'Europe,3,082-61 04 00,082-61 04 01,Madame,Geurts,Anne-Sophie,131,
ATHENEE COMMUNAL LEONIE DE WAHA,4000,LIEGE,Boulevard d'Avroy,96,04-222 34 26,04-222 23 56,Monsieur,Mans,Christian,123,
Pater-Damian-Sekundarschule,4700,EUPEN,Kaperberg,2-4,87598900,87598909,,PLUYMEN,Karl-Heinz,231,
COLLEGE DE L'ALLIANCE,6031,MONCEAU-SUR-SAMBRE,Rue de Mons,106,071 - 31 72 37,071 - 30 21 84,Monsieur,Diakiese,Nzinga,131,collegedelalliance@yahoo.com
"COLLEGE ""LES TOURNESOLS""",1070,BRUXELLES,Boulevard Maurice Herbette,24,02 - 523 75 11,02 - 523 75 11,Monsieur,Braker,Bernhard,131,
LYCEE PROVINCIAL HORNU COLFONTAINE,7340,PATURAGES,Avenue Fénélon,48,065-61 33 90,065-67 69 55,Monsieur,Gueben,Philippe,122,
ATHENEE ROYAL THOMAS EDISON MOUSCRON,7700,MOUSCRON,Place de la Justice,1,056 - 85 98 98,,Monsieur,Dumont,Serge,111,
INSTITUT TECHNIQUE DE LA COMMUNAUTE FRANCAISE VAL - ITMA,7500,TOURNAI,Chaussée de Lille,2,069-89 02 50,,Monsieur,Debey,Daniel,111,
COLLEGE DES ETOILES,1130,BRUXELLES,Avenue de la Métrologie,5,02-216 91 20,02-227 97 73,Madame,Lavend'Homme,Sandrine,132,
ATHENEE MARGUERITE YOURCENAR,1020,BRUXELLES,Rue Claessens,10,02-421 42 40,,Madame,Hermans,Agnčs,123,
ATHENEE ROYAL DE NAMUR,5000,NAMUR,Rue du Collčge,8,081-22 30 35,081-22 16 50,Madame,Vandamme,Fabienne,111,
COLLEGE DES AUMONIERS DU TRAVAIL DE CHARLEROI,6000,CHARLEROI,Grand'rue,185,071-41 39 39,071-41 01 04,Monsieur,Coopmans,Jean,131,
COLLEGE TECHNIQUE SAINT-HENRI,7700,MOUSCRON,Avenue Royale,50,056-85 57 00,056-85 57 01,Monsieur,Bonte,Alain,131,
INSTITUT SAINTE-MARIE,6140,FONTAINE-L'EVEQUE,Rue de l'Enseignement,1,071-52 36 59,071-54 33 31,Monsieur,Mustin,Etienne,131,
L'Ecole Active,1180,BRUXELLES,Rue de Stalle,70-82,,,Monsieur,Pinchart,Cédric,132,
COLLEGE DE LA LYS,7780,COMINES-WARNETON,Rue Romaine,40,056-89 09 09,,Monsieur,Verslype,Fabrice,131,
ECOLE SECONDAIRE LIBRE SAINT-HUBERT,6870,SAINT-HUBERT,Rue Saint-Gilles,41,061-23 06 70,,Madame,Henon,Marianne,131,
De l'Autre Côté de l'Ecole,1160,AUDERGHEM,Chaussée de Wavre,1789,,,Madame,Tuerlinckx,Amandine,132,
Collčge Da Vinci,1360,PERWEZ,Avenue des Tourterelles,28,081-23 11 86,,Madame,Samson,Anne-Marie,132,
COLLEGE SAINT-ETIENNE DES HAYEFFES,1435,MONT-SAINT-GUIBERT,Rue des Hayeffes,35,,,Monsieur,Jadin,Thomas,131,
INSTITUT LA VERTU,1030,BRUXELLES,Chaussée de Haecht,138,02-240 45 30,02-736 37 39,Monsieur,AZAHAF,Mostafa,131,
"ECOLE SECOND'AIR ""SINGELIJN""",1030,SCHAERBEEK,Place des Carabiniers,18A,02/705.49.25,,Madame,de HARENNE,Anne,132,
INSTITUT DE LA PROVIDENCE,1300,WAVRE,Rue de Nivelles,52,,,Madame,Maljean,Pascale,131,
Lycée Soeur Emmanuelle - Degré d'observation autonome,1070,ANDERLECHT,Avenue d'Itterbeek,550,,,Madame,Pletinckx,Isabelle,131,
Lycée Intégral Roger Lallemand,1060,SAINT-GILLES,Rue de la Croix de Pierre,73,,,Monsieur,Pinxteren,Tanguy,123,
Ecole Secondaire Plurielle Karreveld,1080,MOLENBEEK-SAINT-JEAN,Chaussée de Gand,615,02-206 12 90,,Madame,MANES,Brunellla,123,
Ecole Secondaire Plurielle Maritime,1080,MOLENBEEK-SAINT-JEAN,Avenue Jean Dubrucq,175,02-210 20 90,,Madame,Moens,Julie,123,
Institut Montjoie,1180,UCCLE,Avenue Montjoie,93-95,02-344 52 28,02-344 20 54,Madame,Petitjean,Françoise,131,
Institut Saint Michel,4800,VERVIERS,Rue du Collčge,126,087/39 46 50,087/31 78 91,Monsieur,Waucomont,Philippe,131,
Ecole secondaire NESPA-BW,1474,WAYS,Rue du 108čme de Ligne,,,,XXXX,XXXX,XXXX,132,
Collčge archiépiscopal Pčre Damien,1470,GENAPPE,Rue Hattain,24,,,XXXX,XXXX,XXXX,131,
