{
"type": "FeatureCollection",
"name": "Primaire spécialisée",
"features": [
{ "type": "Feature", "properties": { "NOM_ETAB_LG": "Les Sureaux - Ecole communale n°2 enseignement primaire spécialisé", "CODE_POST": "1070", "NOM_LOC": "BRUXELLES", "ADR_RUE": "Boulevard Sylvain Dupuis", "ADR_NO": "112", "TEL": "02-523 68 01", "FAX": "02-523 01 29", "QUALITE_CHEF": "Madame", "NOM_CHEF": "BRIAND", "PRENOM_CHEF": "Dominique", "RES_ID": "123", "email_publ": null, "lat": 50.8370408, "lng": 4.2997721 }, "geometry": { "type": "Point", "coordinates": [ 4.2997721, 50.8370408 ] } },
{ "type": "Feature", "properties": { "NOM_ETAB_LG": "Les Acacias - Ecole Communale N°1 Primaire Spécialisé", "CODE_POST": "1070", "NOM_LOC": "BRUXELLES", "ADR_RUE": "Place Séverine", "ADR_NO": "1", "TEL": "02-527 17 32", "FAX": "02-528 96 74", "QUALITE_CHEF": "Madame", "NOM_CHEF": "LODDEWIJKS", "PRENOM_CHEF": "Sandrine", "RES_ID": "123", "email_publ": null, "lat": 50.8363916, "lng": 4.2781234177350402 }, "geometry": { "type": "Point", "coordinates": [ 4.27812341773504, 50.8363916 ] } },
{ "type": "Feature", "properties": { "NOM_ETAB_LG": "Enseignement spécialisé primaire libre \"L'Etincelle\"", "CODE_POST": "1070", "NOM_LOC": "BRUXELLES", "ADR_RUE": "Rue des Vétérinaires", "ADR_NO": "15-17", "TEL": "02-520 70 91", "FAX": "02-520 56 38", "QUALITE_CHEF": "Madame", "NOM_CHEF": "DUSSART", "PRENOM_CHEF": "ALIX", "RES_ID": "131", "email_publ": null, "lat": 50.8341045, "lng": 4.3273077 }, "geometry": { "type": "Point", "coordinates": [ 4.3273077, 50.8341045 ] } },
{ "type": "Feature", "properties": { "NOM_ETAB_LG": "Etablissement d'enseignement spécialisé primaire et secondaire de la Communauté française", "CODE_POST": "1160", "NOM_LOC": "BRUXELLES", "ADR_RUE": "Avenue Charles Schaller", "ADR_NO": "87", "TEL": "02-672 33 81", "FAX": "02-660 14 38", "QUALITE_CHEF": "Madame", "NOM_CHEF": "WAUTELET", "PRENOM_CHEF": "Joelle", "RES_ID": "111", "email_publ": "direction@ecoleschaller.org", "lat": 50.80476975, "lng": 4.43984015 }, "geometry": { "type": "Point", "coordinates": [ 4.43984015, 50.80476975 ] } },
{ "type": "Feature", "properties": { "NOM_ETAB_LG": "Sainte-Bernadette - Ecole d'enseignement primaire spécialisé", "CODE_POST": "1160", "NOM_LOC": "BRUXELLES", "ADR_RUE": "Square du Sacré-Coeur", "ADR_NO": "2A", "TEL": "02-673 51 15", "FAX": "02-672 78 37", "QUALITE_CHEF": "Madame", "NOM_CHEF": "Vandesande", "PRENOM_CHEF": "Nadia", "RES_ID": "131", "email_publ": null, "lat": 50.8100503, "lng": 4.4352469503596499 }, "geometry": { "type": "Point", "coordinates": [ 4.43524695035965, 50.8100503 ] } },
{ "type": "Feature", "properties": { "NOM_ETAB_LG": "Institut d'enseignement spécialisé Alexandre Herlin", "CODE_POST": "1082", "NOM_LOC": "BRUXELLES", "ADR_RUE": "Rue de Dilbeek", "ADR_NO": "1", "TEL": "02-465 59 60", "FAX": "02-465 67 11", "QUALITE_CHEF": "Monsieur", "NOM_CHEF": "GOLBERT", "PRENOM_CHEF": "MARC", "RES_ID": "121", "email_publ": "mgolbert@skynet.be", "lat": 50.8621286, "lng": 4.2870577623739798 }, "geometry": { "type": "Point", "coordinates": [ 4.28705776237398, 50.8621286 ] } },
{ "type": "Feature", "properties": { "NOM_ETAB_LG": "Ecole fondamentale spécialisée libre Chanterelle", "CODE_POST": "1000", "NOM_LOC": "BRUXELLES", "ADR_RUE": "Rue Blaes", "ADR_NO": "120", "TEL": "02-511 60 69", "FAX": null, "QUALITE_CHEF": "Madame", "NOM_CHEF": "Seleck", "PRENOM_CHEF": "Catherine", "RES_ID": "131", "email_publ": null, "lat": 50.8383997, "lng": 4.3483213583970102 }, "geometry": { "type": "Point", "coordinates": [ 4.34832135839701, 50.8383997 ] } },
{ "type": "Feature", "properties": { "NOM_ETAB_LG": "Centre pédagogique d'enseignement spécialisé primaire communal de Vlaesendael", "CODE_POST": "1120", "NOM_LOC": "BRUXELLES", "ADR_RUE": "Rue François Vekemans", "ADR_NO": "73", "TEL": "02-266 82 80", "FAX": "02-266 82 88", "QUALITE_CHEF": "Madame", "NOM_CHEF": "Hirschovitz", "PRENOM_CHEF": "Myriam", "RES_ID": "123", "email_publ": null, "lat": 50.89527175, "lng": 4.3896665129310302 }, "geometry": { "type": "Point", "coordinates": [ 4.38966651293103, 50.89527175 ] } },
{ "type": "Feature", "properties": { "NOM_ETAB_LG": "Centre pédagogique d'enseignement spécialisé primaire communal du Parc Astrid", "CODE_POST": "1020", "NOM_LOC": "BRUXELLES", "ADR_RUE": "Avenue de Madrid", "ADR_NO": "100", "TEL": "02-475 41 00", "FAX": "02-475 41 08", "QUALITE_CHEF": "Madame", "NOM_CHEF": "Dominique", "PRENOM_CHEF": "Vanstiphout", "RES_ID": "123", "email_publ": null, "lat": 50.89780325, "lng": 4.3471397252055901 }, "geometry": { "type": "Point", "coordinates": [ 4.34713972520559, 50.89780325 ] } },
{ "type": "Feature", "properties": { "NOM_ETAB_LG": "Centre pédagogique Jules Anspach - Enseignement fondamental spécialisé communal", "CODE_POST": "1000", "NOM_LOC": "BRUXELLES", "ADR_RUE": "Rue du Vautour", "ADR_NO": "68", "TEL": "02-508 11 00", "FAX": "02-508 11 08", "QUALITE_CHEF": "Madame", "NOM_CHEF": "JAMART", "PRENOM_CHEF": "DANIELE", "RES_ID": "123", "email_publ": null, "lat": 50.8439533, "lng": 4.3415845504524002 }, "geometry": { "type": "Point", "coordinates": [ 4.3415845504524, 50.8439533 ] } },
{ "type": "Feature", "properties": { "NOM_ETAB_LG": "Les Pagodes - Centre pédagogique communal primaire spécialisé", "CODE_POST": "1020", "NOM_LOC": "BRUXELLES", "ADR_RUE": "Avenue de Versailles", "ADR_NO": "87", "TEL": "02-266 11 40", "FAX": "02-266 11 48", "QUALITE_CHEF": "Madame", "NOM_CHEF": "Marcq", "PRENOM_CHEF": "Jeanine", "RES_ID": "123", "email_publ": null, "lat": 50.8957164, "lng": 4.3674535 }, "geometry": { "type": "Point", "coordinates": [ 4.3674535, 50.8957164 ] } },
{ "type": "Feature", "properties": { "NOM_ETAB_LG": "C.H.U. Enfants Reine Fabiola - Ecole Robert Dubois", "CODE_POST": "1020", "NOM_LOC": "BRUXELLES", "ADR_RUE": "Avenue Jean-Joseph Crocq", "ADR_NO": "15", "TEL": "02-4773162", "FAX": "02-4773361", "QUALITE_CHEF": "Monsieur", "NOM_CHEF": "VAESSEN", "PRENOM_CHEF": "Paul", "RES_ID": "123", "email_publ": null, "lat": 50.8885403, "lng": 4.3288842 }, "geometry": { "type": "Point", "coordinates": [ 4.3288842, 50.8885403 ] } },
{ "type": "Feature", "properties": { "NOM_ETAB_LG": "Ecole primaire d'enseignement spécialisé communal \"Les Carrefours\"", "CODE_POST": "1040", "NOM_LOC": "ETTERBEEK", "ADR_RUE": "Rue Fétis", "ADR_NO": "29", "TEL": "02-647 25 58", "FAX": "02-647 63 90", "QUALITE_CHEF": "Madame", "NOM_CHEF": "DONNES", "PRENOM_CHEF": "Ariane", "RES_ID": "123", "email_publ": null, "lat": 50.83345785, "lng": 4.3877168261078801 }, "geometry": { "type": "Point", "coordinates": [ 4.38771682610788, 50.83345785 ] } },
{ "type": "Feature", "properties": { "NOM_ETAB_LG": "Ecole libre d'enseignement spécialisé CBIMC", "CODE_POST": "1040", "NOM_LOC": "ETTERBEEK", "ADR_RUE": "Rue Pčre Eudore Devroye", "ADR_NO": "14", "TEL": "02-735 45 03", "FAX": "02-732 72 15", "QUALITE_CHEF": "Madame", "NOM_CHEF": "Aubert", "PRENOM_CHEF": "Claire", "RES_ID": "131", "email_publ": null, "lat": 50.833433230653725, "lng": 4.4085745942350432 }, "geometry": { "type": "Point", "coordinates": [ 4.408574594235043, 50.833433230653725 ] } },
{ "type": "Feature", "properties": { "NOM_ETAB_LG": "Ecole Communale N°13 primaire spécialisé \"Les Marronniers\"", "CODE_POST": "1190", "NOM_LOC": "BRUXELLES", "ADR_RUE": "Avenue Zaman", "ADR_NO": "57", "TEL": "02-343 73 71", "FAX": "02-343 70 02", "QUALITE_CHEF": "Monsieur", "NOM_CHEF": "NICOLAS", "PRENOM_CHEF": "Cédric", "RES_ID": "123", "email_publ": "ecolelesmarronniers@ecoles.cfwb.be", "lat": 50.8111917, "lng": 4.3240092 }, "geometry": { "type": "Point", "coordinates": [ 4.3240092, 50.8111917 ] } },
{ "type": "Feature", "properties": { "NOM_ETAB_LG": "Le Tremplin - Enseignement fondamental spécialisé libre", "CODE_POST": "1190", "NOM_LOC": "BRUXELLES", "ADR_RUE": "Rue de Lusambo", "ADR_NO": "35", "TEL": "02-332 50 44", "FAX": "02-332 29 84", "QUALITE_CHEF": "Madame", "NOM_CHEF": "Lecocq", "PRENOM_CHEF": "Marie", "RES_ID": "132", "email_publ": null, "lat": 50.8006475, "lng": 4.3152316 }, "geometry": { "type": "Point", "coordinates": [ 4.3152316, 50.8006475 ] } },
{ "type": "Feature", "properties": { "NOM_ETAB_LG": "École de la Découverte - Enseignement primaire spécialisé de la Communauté française", "CODE_POST": "1083", "NOM_LOC": "BRUXELLES", "ADR_RUE": "Avenue Louis de Brouckčre", "ADR_NO": "29", "TEL": "02-425 86 90", "FAX": "02-425 37 69", "QUALITE_CHEF": "Madame", "NOM_CHEF": "STAS", "PRENOM_CHEF": "Catherine", "RES_ID": "111", "email_publ": null, "lat": 50.873996974753233, "lng": 4.3163518689770175 }, "geometry": { "type": "Point", "coordinates": [ 4.316351868977018, 50.873996974753233 ] } },
{ "type": "Feature", "properties": { "NOM_ETAB_LG": "Les Bourgeons - Ecole d'enseignement spécialisé primaire libre", "CODE_POST": "1083", "NOM_LOC": "BRUXELLES", "ADR_RUE": "Avenue Van Overbeke", "ADR_NO": "10", "TEL": "02-428 11 27", "FAX": "02-420 04 84", "QUALITE_CHEF": "Monsieur", "NOM_CHEF": "DORCHAIN", "PRENOM_CHEF": "BERNARD", "RES_ID": "131", "email_publ": null, "lat": 50.869074, "lng": 4.3165596934009303 }, "geometry": { "type": "Point", "coordinates": [ 4.31655969340093, 50.869074 ] } },
{ "type": "Feature", "properties": { "NOM_ETAB_LG": "Ecole communale II Enseignement spécialisé primaire \"Les Mouettes\"", "CODE_POST": "1050", "NOM_LOC": "IXELLES", "ADR_RUE": "Avenue des Eperons d'Or", "ADR_NO": "16", "TEL": "02-515 65 59", "FAX": "02-515 65 55", "QUALITE_CHEF": "Madame", "NOM_CHEF": "HERBAY", "PRENOM_CHEF": "Cécile", "RES_ID": "123", "email_publ": null, "lat": 50.8246052, "lng": 4.3736843 }, "geometry": { "type": "Point", "coordinates": [ 4.3736843, 50.8246052 ] } },
{ "type": "Feature", "properties": { "NOM_ETAB_LG": "Ecole d'enseignement primaire spécialisé libre \"Etoile du Berger\"", "CODE_POST": "1050", "NOM_LOC": "IXELLES", "ADR_RUE": "Rue de la Croix", "ADR_NO": "39", "TEL": "02-512 63 29", "FAX": "02-502 63 06", "QUALITE_CHEF": "Madame", "NOM_CHEF": "MORENO", "PRENOM_CHEF": "MANUELA", "RES_ID": "131", "email_publ": "m.moreno.edb@ens.irisnet.be", "lat": 50.8310546, "lng": 4.3652123 }, "geometry": { "type": "Point", "coordinates": [ 4.3652123, 50.8310546 ] } },
{ "type": "Feature", "properties": { "NOM_ETAB_LG": "Champ des Tournesols Ecole communale primaire spécialisé de Type 8", "CODE_POST": "1090", "NOM_LOC": "BRUXELLES", "ADR_RUE": "Rue Henri Van Bortonne", "ADR_NO": "12", "TEL": "02-426 49 17", "FAX": "02-426 61 65", "QUALITE_CHEF": "Madame", "NOM_CHEF": "KETELAER", "PRENOM_CHEF": "Britt", "RES_ID": "123", "email_publ": null, "lat": 50.879677, "lng": 4.3276253145226997 }, "geometry": { "type": "Point", "coordinates": [ 4.3276253145227, 50.879677 ] } },
{ "type": "Feature", "properties": { "NOM_ETAB_LG": "Ecole primaire d'enseignement spécialisé libre \"La Famille\"", "CODE_POST": "1081", "NOM_LOC": "BRUXELLES", "ADR_RUE": "Rue Jean Jacquet", "ADR_NO": "25", "TEL": "02-411 31 37", "FAX": "02-410 93 35", "QUALITE_CHEF": "Madame", "NOM_CHEF": "Roche", "PRENOM_CHEF": "Oonagh Shannon", "RES_ID": "131", "email_publ": "famille.bxl@sec.cfwb.be", "lat": 50.8582039, "lng": 4.3287059253525202 }, "geometry": { "type": "Point", "coordinates": [ 4.32870592535252, 50.8582039 ] } },
{ "type": "Feature", "properties": { "NOM_ETAB_LG": "Ecole fondamentale d'enseignement spécialisé libre \"Nicolas Smelten\"", "CODE_POST": "1030", "NOM_LOC": "BRUXELLES", "ADR_RUE": "Rue de la Cité Joyeuse", "ADR_NO": "2", "TEL": "02-482 06 70", "FAX": "02-465 05 81", "QUALITE_CHEF": "Monsieur", "NOM_CHEF": "Philippe", "PRENOM_CHEF": "Jérémy", "RES_ID": "132", "email_publ": "nicolassmelten@hotmail.com", "lat": 50.8549496, "lng": 4.2993863510585397 }, "geometry": { "type": "Point", "coordinates": [ 4.29938635105854, 50.8549496 ] } },
{ "type": "Feature", "properties": { "NOM_ETAB_LG": "Ecole fondamentale n°14 d'enseignement spécialisé communal \"La Cordée\"", "CODE_POST": "1190", "NOM_LOC": "BRUXELLES", "ADR_RUE": "Rue du Dries", "ADR_NO": "27", "TEL": "02-376 23 40", "FAX": "02-376 94 72", "QUALITE_CHEF": "Madame", "NOM_CHEF": "WATTIEZ", "PRENOM_CHEF": "Laurence", "RES_ID": "123", "email_publ": "info@ecolelacordee.org", "lat": 50.8084884, "lng": 4.3141859 }, "geometry": { "type": "Point", "coordinates": [ 4.3141859, 50.8084884 ] } },
{ "type": "Feature", "properties": { "NOM_ETAB_LG": "Ecole primaire spécialisée communale du Parvis", "CODE_POST": "1060", "NOM_LOC": "SAINT-GILLES", "ADR_RUE": "Rue Louis Coenen", "ADR_NO": "12", "TEL": "02-536 03 30", "FAX": null, "QUALITE_CHEF": "Madame", "NOM_CHEF": "HUTCHINSON", "PRENOM_CHEF": "Vanessa", "RES_ID": "123", "email_publ": null, "lat": 50.82894755, "lng": 4.3452059549937099 }, "geometry": { "type": "Point", "coordinates": [ 4.34520595499371, 50.82894755 ] } },
{ "type": "Feature", "properties": { "NOM_ETAB_LG": "Ecole Saint-Gabriel", "CODE_POST": "1210", "NOM_LOC": "BRUXELLES", "ADR_RUE": "Rue des Secours", "ADR_NO": "39", "TEL": "02-217 57 49", "FAX": "02-217 14 17", "QUALITE_CHEF": "Madame", "NOM_CHEF": "Gilliard", "PRENOM_CHEF": "Corinne", "RES_ID": "131", "email_publ": null, "lat": 50.85791135, "lng": 4.3668908919090699 }, "geometry": { "type": "Point", "coordinates": [ 4.36689089190907, 50.85791135 ] } },
{ "type": "Feature", "properties": { "NOM_ETAB_LG": "Ecole primaire d'enseignement spécialisé communal \"Chazal\"", "CODE_POST": "1030", "NOM_LOC": "BRUXELLES", "ADR_RUE": "Avenue Chazal", "ADR_NO": "181-183", "TEL": "02-705 76 40", "FAX": "02-705 85 43", "QUALITE_CHEF": "Madame", "NOM_CHEF": "Walther", "PRENOM_CHEF": "Danielle", "RES_ID": "123", "email_publ": null, "lat": 50.8604075, "lng": 4.3920823 }, "geometry": { "type": "Point", "coordinates": [ 4.3920823, 50.8604075 ] } },
{ "type": "Feature", "properties": { "NOM_ETAB_LG": "Ecole primaire d'enseignement spécialisé communal \"La Vallée\"", "CODE_POST": "1030", "NOM_LOC": "BRUXELLES", "ADR_RUE": "Avenue Chazal", "ADR_NO": "173", "TEL": "02-240 46 10", "FAX": "02-242 01 14", "QUALITE_CHEF": "Madame", "NOM_CHEF": "LIBIOUL", "PRENOM_CHEF": "Emilie", "RES_ID": "123", "email_publ": null, "lat": 50.859064, "lng": 4.3913973 }, "geometry": { "type": "Point", "coordinates": [ 4.3913973, 50.859064 ] } },
{ "type": "Feature", "properties": { "NOM_ETAB_LG": "Ecole d'enseignement primaire spécialisé libre \"Les Blés d'Or\"", "CODE_POST": "1180", "NOM_LOC": "BRUXELLES", "ADR_RUE": "Dieweg", "ADR_NO": "57", "TEL": "02-374 62 46", "FAX": "02-375 00 43", "QUALITE_CHEF": "Madame", "NOM_CHEF": "BAUDIN", "PRENOM_CHEF": "Frédérique", "RES_ID": "131", "email_publ": "bo.stainier@tiscali.be", "lat": 50.7919719, "lng": 4.3395787861968396 }, "geometry": { "type": "Point", "coordinates": [ 4.33957878619684, 50.7919719 ] } },
{ "type": "Feature", "properties": { "NOM_ETAB_LG": "Institut Royal pour Sourds et Aveugles - Enseignement maternel et primaire Type 7", "CODE_POST": "1180", "NOM_LOC": "BRUXELLES", "ADR_RUE": "Chaussée de Waterloo", "ADR_NO": "1508", "TEL": "02-375 92 69", "FAX": "02-375 92 69", "QUALITE_CHEF": "Madame", "NOM_CHEF": "Gors", "PRENOM_CHEF": "Genevičve", "RES_ID": "131", "email_publ": null, "lat": 50.7823676, "lng": 4.3803923586878204 }, "geometry": { "type": "Point", "coordinates": [ 4.38039235868782, 50.7823676 ] } },
{ "type": "Feature", "properties": { "NOM_ETAB_LG": "Ecole primaire d'enseignement spécialisé communal \"Le Merlo\"", "CODE_POST": "1180", "NOM_LOC": "BRUXELLES", "ADR_RUE": "Rue du Merlo", "ADR_NO": "16", "TEL": "02-348 68 41", "FAX": "02-348 68 41", "QUALITE_CHEF": "Madame", "NOM_CHEF": "BAISIER", "PRENOM_CHEF": "Françoise", "RES_ID": "123", "email_publ": "direction.merlo@ens.irisnet.be", "lat": 50.7989995, "lng": 4.3221712306802402 }, "geometry": { "type": "Point", "coordinates": [ 4.32217123068024, 50.7989995 ] } },
{ "type": "Feature", "properties": { "NOM_ETAB_LG": "Institut Decroly - Fondamental", "CODE_POST": "1180", "NOM_LOC": "BRUXELLES", "ADR_RUE": "Rue du Bambou", "ADR_NO": "9", "TEL": "02-332 02 39", "FAX": "02-332 06 78", "QUALITE_CHEF": "Madame", "NOM_CHEF": "PLAS", "PRENOM_CHEF": "Chantal", "RES_ID": "132", "email_publ": "imp.decroly.primaire@belgacom.net", "lat": 50.80374005, "lng": 4.3247816243452499 }, "geometry": { "type": "Point", "coordinates": [ 4.32478162434525, 50.80374005 ] } },
{ "type": "Feature", "properties": { "NOM_ETAB_LG": "Ecole fondamentale d'enseignement spécialisé libre \"La Clairičre\"", "CODE_POST": "1170", "NOM_LOC": "BRUXELLES", "ADR_RUE": "Avenue des Hannetons", "ADR_NO": "58", "TEL": "02-661 78 11", "FAX": "02-661 78 42", "QUALITE_CHEF": "Madame", "NOM_CHEF": "VANACHTER", "PRENOM_CHEF": "CHRISTIANE", "RES_ID": "132", "email_publ": null, "lat": 50.8106984, "lng": 4.4101342 }, "geometry": { "type": "Point", "coordinates": [ 4.4101342, 50.8106984 ] } },
{ "type": "Feature", "properties": { "NOM_ETAB_LG": "L'Ecole Intégrée - Enseignement Secondaire Spécialisé Libre", "CODE_POST": "1200", "NOM_LOC": "BRUXELLES", "ADR_RUE": "Rue de la Rive", "ADR_NO": "99", "TEL": "02-771 75 11", "FAX": "02-772 62 88", "QUALITE_CHEF": "Monsieur", "NOM_CHEF": "DUMONT", "PRENOM_CHEF": "Gil-Olivier", "RES_ID": "132", "email_publ": null, "lat": 50.8498108, "lng": 4.4444735 }, "geometry": { "type": "Point", "coordinates": [ 4.4444735, 50.8498108 ] } },
{ "type": "Feature", "properties": { "NOM_ETAB_LG": "Ecole d'enseignement primaire spécialisé communal La Charmille", "CODE_POST": "1200", "NOM_LOC": "BRUXELLES", "ADR_RUE": "Avenue Jacques Brel", "ADR_NO": "30", "TEL": "02-761 29 71", "FAX": "02-761 76 65", "QUALITE_CHEF": "Madame", "NOM_CHEF": "Velghe", "PRENOM_CHEF": "Annouck", "RES_ID": "123", "email_publ": "lacharmille@woluwe1200.be", "lat": 50.8499809, "lng": 4.4342819 }, "geometry": { "type": "Point", "coordinates": [ 4.4342819, 50.8499809 ] } },
{ "type": "Feature", "properties": { "NOM_ETAB_LG": "Centre Enseignement et Traitements Différenciés CETD", "CODE_POST": "1200", "NOM_LOC": "BRUXELLES", "ADR_RUE": "Avenue Albert Dumont", "ADR_NO": "40", "TEL": "02-761 06 28", "FAX": "02-779 09 42", "QUALITE_CHEF": "Madame", "NOM_CHEF": "DEMUYLDER", "PRENOM_CHEF": "MARTINE", "RES_ID": "132", "email_publ": null, "lat": 50.8445807, "lng": 4.4566772 }, "geometry": { "type": "Point", "coordinates": [ 4.4566772, 50.8445807 ] } },
{ "type": "Feature", "properties": { "NOM_ETAB_LG": "Ecole primaire d'enseignement spécialisé communal Joli Bois individualisé", "CODE_POST": "1150", "NOM_LOC": "BRUXELLES", "ADR_RUE": "Val des Epinettes", "ADR_NO": "5", "TEL": "02-773 18 09", "FAX": "02-773 18 10", "QUALITE_CHEF": "Monsieur", "NOM_CHEF": "LAMOTE", "PRENOM_CHEF": "Ludovic", "RES_ID": "123", "email_publ": "ecom.ind.jb@woluwe1150.irisnet.be", "lat": 50.82609305, "lng": 4.45344107714266 }, "geometry": { "type": "Point", "coordinates": [ 4.45344107714266, 50.82609305 ] } },
{ "type": "Feature", "properties": { "NOM_ETAB_LG": "La Maison Familiale Enseignement fondamental spécialisé libre", "CODE_POST": "1420", "NOM_LOC": "BRAINE-L'ALLEUD", "ADR_RUE": "Rue du Soleil Levant", "ADR_NO": "7", "TEL": "02-384 98 14", "FAX": "02-384 98 14", "QUALITE_CHEF": "Madame", "NOM_CHEF": "Robin", "PRENOM_CHEF": "Eleonore", "RES_ID": "131", "email_publ": "salleprofs@skynet.be", "lat": 50.7037154, "lng": 4.3778201 }, "geometry": { "type": "Point", "coordinates": [ 4.3778201, 50.7037154 ] } },
{ "type": "Feature", "properties": { "NOM_ETAB_LG": "Etablissement d'enseignement spécialisé fondamental de la Communauté française", "CODE_POST": "1420", "NOM_LOC": "BRAINE-L'ALLEUD", "ADR_RUE": "Avenue de Guéménée", "ADR_NO": "59", "TEL": "02-384 42 98", "FAX": "02-384 42 98", "QUALITE_CHEF": "Monsieur", "NOM_CHEF": "GIGOT", "PRENOM_CHEF": "Stéphane", "RES_ID": "111", "email_publ": null, "lat": 50.6825278, "lng": 4.3867776 }, "geometry": { "type": "Point", "coordinates": [ 4.3867776, 50.6825278 ] } },
{ "type": "Feature", "properties": { "NOM_ETAB_LG": "La Source Enseignement fondamental spécialisé libre", "CODE_POST": "1330", "NOM_LOC": "RIXENSART", "ADR_RUE": "Avenue de la Rochefoucauld", "ADR_NO": "7", "TEL": "02-653 39 51", "FAX": "02-652 07 39", "QUALITE_CHEF": "Madame", "NOM_CHEF": "Stevens", "PRENOM_CHEF": "Dominique", "RES_ID": "131", "email_publ": null, "lat": 50.7190733, "lng": 4.5319923 }, "geometry": { "type": "Point", "coordinates": [ 4.5319923, 50.7190733 ] } },
{ "type": "Feature", "properties": { "NOM_ETAB_LG": "Le Grand Tour - Enseignement fondamental spécialisé libre", "CODE_POST": "1300", "NOM_LOC": "WAVRE", "ADR_RUE": "Venelle de Terlongval", "ADR_NO": "55", "TEL": "010-22 33 69", "FAX": "010-22 33 69", "QUALITE_CHEF": "Madame", "NOM_CHEF": "WILIQUET", "PRENOM_CHEF": "Sarah", "RES_ID": "132", "email_publ": null, "lat": 50.7082437, "lng": 4.6204374 }, "geometry": { "type": "Point", "coordinates": [ 4.6204374, 50.7082437 ] } },
{ "type": "Feature", "properties": { "NOM_ETAB_LG": "Les Moineaux II - Ecole libre non confessionnelle d'enseignement primaire spécialisé de Type 3", "CODE_POST": "1300", "NOM_LOC": "WAVRE", "ADR_RUE": "Venelle de Terlongval", "ADR_NO": "57", "TEL": "010-22 84 70", "FAX": "010-22 84 70", "QUALITE_CHEF": "Monsieur", "NOM_CHEF": "PIETQUIN", "PRENOM_CHEF": "Thomas", "RES_ID": "132", "email_publ": "ecolemoineaux@gmail.com", "lat": 50.70689975, "lng": 4.6216795876118901 }, "geometry": { "type": "Point", "coordinates": [ 4.62167958761189, 50.70689975 ] } },
{ "type": "Feature", "properties": { "NOM_ETAB_LG": "Les Chardons - Ecole d'Enseignement primaire spécialisé libre", "CODE_POST": "1450", "NOM_LOC": "CHASTRE-VILLEROUX-BLANMONT", "ADR_RUE": "Rue des Acacias", "ADR_NO": "4", "TEL": "010-65 69 47", "FAX": null, "QUALITE_CHEF": "Madame", "NOM_CHEF": "BEATRICE", "PRENOM_CHEF": "BARBIER", "RES_ID": "131", "email_publ": null, "lat": 50.6082144, "lng": 4.6453976 }, "geometry": { "type": "Point", "coordinates": [ 4.6453976, 50.608214399999987 ] } },
{ "type": "Feature", "properties": { "NOM_ETAB_LG": "Désiré Denuit - Enseignement fondamental spécialisé", "CODE_POST": "1380", "NOM_LOC": "OHAIN", "ADR_RUE": "Chemin du Catty", "ADR_NO": "2", "TEL": "02-652 18 48", "FAX": "02-633 69 55", "QUALITE_CHEF": "Madame", "NOM_CHEF": "DEWEERDT", "PRENOM_CHEF": "FRANCOISE", "RES_ID": "132", "email_publ": null, "lat": 50.7089041, "lng": 4.4576121 }, "geometry": { "type": "Point", "coordinates": [ 4.4576121, 50.7089041 ] } },
{ "type": "Feature", "properties": { "NOM_ETAB_LG": "Clairs Vallons - Enseignement spécialisé fondamental et secondaire libre", "CODE_POST": "1340", "NOM_LOC": "OTTIGNIES", "ADR_RUE": "Rue de Mont-Saint-Guibert", "ADR_NO": "24", "TEL": "010-48 02 15", "FAX": "010-48 02 07", "QUALITE_CHEF": "Madame", "NOM_CHEF": "LAMBERT", "PRENOM_CHEF": "ELIANE", "RES_ID": "132", "email_publ": null, "lat": 50.6616176, "lng": 4.6041133 }, "geometry": { "type": "Point", "coordinates": [ 4.6041133, 50.6616176 ] } },
{ "type": "Feature", "properties": { "NOM_ETAB_LG": "Ecole Escale Enseignement fondamental spécialisé", "CODE_POST": "1340", "NOM_LOC": "OTTIGNIES-LOUVAIN-LA-NEUVE", "ADR_RUE": "Allée de Clerlande", "ADR_NO": "6", "TEL": "010-41 42 33", "FAX": null, "QUALITE_CHEF": "Monsieur", "NOM_CHEF": "DURDU", "PRENOM_CHEF": "Olivier", "RES_ID": "131", "email_publ": null, "lat": 50.6795523, "lng": 4.59187 }, "geometry": { "type": "Point", "coordinates": [ 4.59187, 50.6795523 ] } },
{ "type": "Feature", "properties": { "NOM_ETAB_LG": "Institut d'enseignement spécialisé primaire de la Communauté française \"L'Arc-en-Ciel\"", "CODE_POST": "7970", "NOM_LOC": "BELOEIL", "ADR_RUE": "Rue des Viviers au Bois", "ADR_NO": "50", "TEL": "069-68 92 30", "FAX": "069-68 73 27", "QUALITE_CHEF": "Madame", "NOM_CHEF": "PERSYN", "PRENOM_CHEF": "Céline", "RES_ID": "111", "email_publ": null, "lat": 50.5249653, "lng": 3.7270408 }, "geometry": { "type": "Point", "coordinates": [ 3.7270408, 50.5249653 ] } },
{ "type": "Feature", "properties": { "NOM_ETAB_LG": "Sainte-Gertrude Enseignement fondamental spécialisé libre", "CODE_POST": "7940", "NOM_LOC": "BRUGELETTE", "ADR_RUE": "Chemin de Wisbecq", "ADR_NO": "2", "TEL": "068-45 49 42", "FAX": "068-45 55 69", "QUALITE_CHEF": "Madame", "NOM_CHEF": "RYCKEBOSCH", "PRENOM_CHEF": "NADINE", "RES_ID": "131", "email_publ": null, "lat": 50.590624758237759, "lng": 3.8506106899706327 }, "geometry": { "type": "Point", "coordinates": [ 3.850610689970633, 50.590624758237759 ] } },
{ "type": "Feature", "properties": { "NOM_ETAB_LG": "Institut d'enseignement spécialisé primaire et secondaire de la Communauté française", "CODE_POST": "7911", "NOM_LOC": "FRASNES-LEZ-BUISSENAL", "ADR_RUE": "Route de Lessines", "ADR_NO": "27", "TEL": "069-86 68 55", "FAX": "069-86 85 67", "QUALITE_CHEF": "Madame", "NOM_CHEF": "BAUSIER", "PRENOM_CHEF": "DOMINIQUE", "RES_ID": "111", "email_publ": null, "lat": 50.6754489, "lng": 3.6363368 }, "geometry": { "type": "Point", "coordinates": [ 3.6363368, 50.6754489 ] } },
{ "type": "Feature", "properties": { "NOM_ETAB_LG": "Ecole primaire d'enseignement spécialisé libre - Centre Jean Herbet", "CODE_POST": "6041", "NOM_LOC": "GOSSELIES", "ADR_RUE": "Faubourg de Charleroi", "ADR_NO": "3 B", "TEL": "071-35 22 68", "FAX": "071-35 34 69", "QUALITE_CHEF": "Madame", "NOM_CHEF": "Vermeulen", "PRENOM_CHEF": "Karine", "RES_ID": "131", "email_publ": "centreherbert@swing.be", "lat": 50.4621491, "lng": 4.4288652 }, "geometry": { "type": "Point", "coordinates": [ 4.4288652, 50.4621491 ] } },
{ "type": "Feature", "properties": { "NOM_ETAB_LG": "Institut d'enseignement spécialisé fondamental et secondaire provincial René Thoné", "CODE_POST": "6030", "NOM_LOC": "MARCHIENNE-AU-PONT", "ADR_RUE": "Rue de Beaumont", "ADR_NO": "266", "TEL": "071-51 13 20", "FAX": "071-56 05 19", "QUALITE_CHEF": "Monsieur", "NOM_CHEF": "JONGEN", "PRENOM_CHEF": "Thierry", "RES_ID": "122", "email_publ": null, "lat": 50.4010429, "lng": 4.3951422 }, "geometry": { "type": "Point", "coordinates": [ 4.3951422, 50.4010429 ] } },
{ "type": "Feature", "properties": { "NOM_ETAB_LG": "Institut Médico-Pédagogique provincial René Thoné Marcinelle - \"Ateliers Apri\"", "CODE_POST": "6001", "NOM_LOC": "MARCINELLE", "ADR_RUE": "Rue du Débarcadčre", "ADR_NO": "100", "TEL": "071-44 64 80", "FAX": "071-44 64 74", "QUALITE_CHEF": "Madame", "NOM_CHEF": "LOSADA ESPINEDO", "PRENOM_CHEF": "MARIE VIVIANE", "RES_ID": "122", "email_publ": null, "lat": 50.3763374787926, "lng": 4.4357861631946554 }, "geometry": { "type": "Point", "coordinates": [ 4.435786163194655, 50.3763374787926 ] } },
{ "type": "Feature", "properties": { "NOM_ETAB_LG": "Les Cerisiers Ecole d'enseignement Fondamental Spécialisé Communal", "CODE_POST": "6001", "NOM_LOC": "MARCINELLE", "ADR_RUE": "Rue de la Tombe", "ADR_NO": "307", "TEL": "071-36 42 93", "FAX": "071-43 45 85", "QUALITE_CHEF": "Monsieur", "NOM_CHEF": "RICHIR", "PRENOM_CHEF": "Damien", "RES_ID": "123", "email_publ": "marcinelle.ecole400@brutele.be", "lat": 50.3897591, "lng": 4.4294378 }, "geometry": { "type": "Point", "coordinates": [ 4.4294378, 50.3897591 ] } },
{ "type": "Feature", "properties": { "NOM_ETAB_LG": "Ecole fondamentale d'enseignement spécialisé libre \"Bois Marcelle\"", "CODE_POST": "6001", "NOM_LOC": "MARCINELLE", "ADR_RUE": "Rue de Nalinnes", "ADR_NO": "630", "TEL": "071-47 46 01", "FAX": "071-51 35 49", "QUALITE_CHEF": "Madame", "NOM_CHEF": "Latour", "PRENOM_CHEF": "Virginie", "RES_ID": "131", "email_publ": "bois.marcelle@swing.be", "lat": 50.3738987, "lng": 4.4435545 }, "geometry": { "type": "Point", "coordinates": [ 4.4435545, 50.3738987 ] } },
{ "type": "Feature", "properties": { "NOM_ETAB_LG": "Ecole Clinique Enseignement fondamental spécialisé provincial", "CODE_POST": "6061", "NOM_LOC": "MONTIGNIES-SUR-SAMBRE", "ADR_RUE": "Rue de Lodelinsart", "ADR_NO": "157", "TEL": "071-28 61 39", "FAX": "071-42 04 10", "QUALITE_CHEF": "Madame", "NOM_CHEF": "D'HAEYER", "PRENOM_CHEF": "REBECCA", "RES_ID": "122", "email_publ": null, "lat": 50.416589, "lng": 4.4640436 }, "geometry": { "type": "Point", "coordinates": [ 4.4640436, 50.416589 ] } },
{ "type": "Feature", "properties": { "NOM_ETAB_LG": "Etablissement d'enseignement spécialisé primaire et secondaire de la Communauté française", "CODE_POST": "6200", "NOM_LOC": "CHATELET", "ADR_RUE": "Rue de Loverval", "ADR_NO": "262", "TEL": "071-24 40 00", "FAX": "071-40 26 71", "QUALITE_CHEF": "Monsieur", "NOM_CHEF": "Michotte", "PRENOM_CHEF": "André", "RES_ID": "111", "email_publ": null, "lat": 50.3993722, "lng": 4.509608 }, "geometry": { "type": "Point", "coordinates": [ 4.509608, 50.3993722 ] } },
{ "type": "Feature", "properties": { "NOM_ETAB_LG": "Ecole primaire d'enseignement spécialisé libre Mont-Chevreuil", "CODE_POST": "6250", "NOM_LOC": "ROSELIES", "ADR_RUE": "Rue François Dimanche", "ADR_NO": "42", "TEL": "071-74 04 92", "FAX": "071-72 78 31", "QUALITE_CHEF": "Madame", "NOM_CHEF": "MANTOVANI", "PRENOM_CHEF": "EMMANUELLE", "RES_ID": "131", "email_publ": "mont-chevreuil@hotmail.com", "lat": 50.429809, "lng": 4.571786 }, "geometry": { "type": "Point", "coordinates": [ 4.571786, 50.429809 ] } },
{ "type": "Feature", "properties": { "NOM_ETAB_LG": "Ecole primaire d'enseignement spécialisé communal", "CODE_POST": "6183", "NOM_LOC": "TRAZEGNIES", "ADR_RUE": "Place Larsimont", "ADR_NO": "1", "TEL": "071\/46.68.38", "FAX": "071\/45.72.48", "QUALITE_CHEF": "Madame", "NOM_CHEF": "Isabelle", "PRENOM_CHEF": "Hansenne", "RES_ID": "123", "email_publ": null, "lat": 50.46576402542577, "lng": 4.3320193155503564 }, "geometry": { "type": "Point", "coordinates": [ 4.332019315550356, 50.46576402542577 ] } },
{ "type": "Feature", "properties": { "NOM_ETAB_LG": "Ecole fondamentale d'enseignement spécialisé libre \"Saint-Exupéry\"", "CODE_POST": "6142", "NOM_LOC": "LEERNES", "ADR_RUE": "Rue de l'Abbaye d'Aulne", "ADR_NO": "2", "TEL": "071-51 50 42", "FAX": "071-47 87 26", "QUALITE_CHEF": "Monsieur", "NOM_CHEF": "SIMONET", "PRENOM_CHEF": "SAMY", "RES_ID": "131", "email_publ": null, "lat": 50.3710438, "lng": 4.3357348 }, "geometry": { "type": "Point", "coordinates": [ 4.3357348, 50.3710438 ] } },
{ "type": "Feature", "properties": { "NOM_ETAB_LG": "Ecole primaire d'enseignement spécialisé libre \"La Cordée\"", "CODE_POST": "6140", "NOM_LOC": "FONTAINE-L'EVEQUE", "ADR_RUE": "Rue des Culots", "ADR_NO": "28", "TEL": "071-52 76 66", "FAX": null, "QUALITE_CHEF": "Monsieur", "NOM_CHEF": "STALON", "PRENOM_CHEF": "YVES", "RES_ID": "131", "email_publ": null, "lat": 50.4088875, "lng": 4.3233881130588996 }, "geometry": { "type": "Point", "coordinates": [ 4.3233881130589, 50.4088875 ] } },
{ "type": "Feature", "properties": { "NOM_ETAB_LG": "L'Eau Vive - Enseignement fondamental spécialisé libre", "CODE_POST": "7012", "NOM_LOC": "FLENU", "ADR_RUE": "Rue de la Mine", "ADR_NO": "3", "TEL": "065-82 27 14", "FAX": "065-58 79 91", "QUALITE_CHEF": "Madame", "NOM_CHEF": "ROMAN", "PRENOM_CHEF": "CHRISTINE", "RES_ID": "131", "email_publ": null, "lat": 50.4382917, "lng": 3.8893856 }, "geometry": { "type": "Point", "coordinates": [ 3.8893856, 50.4382917 ] } },
{ "type": "Feature", "properties": { "NOM_ETAB_LG": "Centre provincial d'enseignement fondamental spécialisé \"L'Orée du Bois\"", "CODE_POST": "7021", "NOM_LOC": "HAVRE", "ADR_RUE": "Impasse de la Chapelle", "ADR_NO": "40", "TEL": "065-87 94 01", "FAX": "065-87 94 09", "QUALITE_CHEF": "Madame", "NOM_CHEF": "NAEM", "PRENOM_CHEF": "Caroline", "RES_ID": "122", "email_publ": null, "lat": 49.5713921, "lng": 0.1496723 }, "geometry": { "type": "Point", "coordinates": [ 0.1496723, 49.5713921 ] } },
{ "type": "Feature", "properties": { "NOM_ETAB_LG": "L'Espérance - Enseignement fondamental spécialisé libre", "CODE_POST": "7000", "NOM_LOC": "MONS", "ADR_RUE": "Rue du Joncquois", "ADR_NO": "120", "TEL": "065-31 57 94", "FAX": "065-84 24 75", "QUALITE_CHEF": "Monsieur", "NOM_CHEF": "MINNE", "PRENOM_CHEF": "ALAIN", "RES_ID": "131", "email_publ": null, "lat": 50.4433522, "lng": 3.9516148 }, "geometry": { "type": "Point", "coordinates": [ 3.9516148, 50.4433522 ] } },
{ "type": "Feature", "properties": { "NOM_ETAB_LG": "Ecole fondamentale d'enseignement spécialisé de la Communauté française \"L'Arbre Vert\"", "CODE_POST": "7000", "NOM_LOC": "MONS", "ADR_RUE": "Chaussée du Roeulx", "ADR_NO": "122", "TEL": "065-33 70 59", "FAX": "065-84 25 06", "QUALITE_CHEF": "Madame", "NOM_CHEF": "RAINSON-DARC", "PRENOM_CHEF": "Michčle", "RES_ID": "111", "email_publ": "epescf.arbrevert.mons@sec.cfwb.be", "lat": 50.4564839, "lng": 3.9740089 }, "geometry": { "type": "Point", "coordinates": [ 3.9740089, 50.4564839 ] } },
{ "type": "Feature", "properties": { "NOM_ETAB_LG": "Centre provincial d'enseignement spécialisé ŕ Mons", "CODE_POST": "7011", "NOM_LOC": "GHLIN", "ADR_RUE": "Rue du Temple", "ADR_NO": "2", "TEL": "065-40 88 59", "FAX": "065-84 09 95", "QUALITE_CHEF": "Monsieur", "NOM_CHEF": "Piraux", "PRENOM_CHEF": "Michel", "RES_ID": "122", "email_publ": null, "lat": 50.4753175, "lng": 3.9197989 }, "geometry": { "type": "Point", "coordinates": [ 3.9197989, 50.4753175 ] } },
{ "type": "Feature", "properties": { "NOM_ETAB_LG": "Etablissement d'enseignement spécialisé primaire et secondaire de la CF", "CODE_POST": "7390", "NOM_LOC": "QUAREGNON", "ADR_RUE": "Rue du Plat Rie", "ADR_NO": "345", "TEL": "065-61 31 81", "FAX": "065-61 31 80", "QUALITE_CHEF": "Madame", "NOM_CHEF": "JUVENOIS", "PRENOM_CHEF": "Linda", "RES_ID": "111", "email_publ": "ens.specialise-quaregnon@skynet.be", "lat": 50.4270599, "lng": 3.856548 }, "geometry": { "type": "Point", "coordinates": [ 3.856548, 50.4270599 ] } },
{ "type": "Feature", "properties": { "NOM_ETAB_LG": "Le Plein Air Enseignement fondamental spécialisé libre", "CODE_POST": "7340", "NOM_LOC": "WASMES", "ADR_RUE": "Rue du Berchon", "ADR_NO": "163", "TEL": "065-77 78 90", "FAX": "065\/69 19 91", "QUALITE_CHEF": "Monsieur", "NOM_CHEF": "MALCOTTE", "PRENOM_CHEF": "PATRICK", "RES_ID": "131", "email_publ": null, "lat": 50.41287905721201, "lng": 3.8173386030237433 }, "geometry": { "type": "Point", "coordinates": [ 3.817338603023743, 50.41287905721201 ] } },
{ "type": "Feature", "properties": { "NOM_ETAB_LG": "Ecole d'enseignement spécialisé primaire Saint-Henri \"Les Aubiers\"", "CODE_POST": "7780", "NOM_LOC": "COMINES-WARNETON", "ADR_RUE": "Avenue des Châteaux", "ADR_NO": "74", "TEL": "056-56 00 65", "FAX": null, "QUALITE_CHEF": "Monsieur", "NOM_CHEF": "HAUSPIE", "PRENOM_CHEF": "Damien", "RES_ID": "131", "email_publ": "dir@lesaubiers.be", "lat": 50.7779575, "lng": 3.0098805 }, "geometry": { "type": "Point", "coordinates": [ 3.0098805, 50.7779575 ] } },
{ "type": "Feature", "properties": { "NOM_ETAB_LG": "Ecole fondamentale d'enseignement spécialisé de la Communauté française \"L'Eveil\"", "CODE_POST": "7700", "NOM_LOC": "MOUSCRON", "ADR_RUE": "Rue de la Coquinie", "ADR_NO": "285", "TEL": "056-33 46 80", "FAX": "056-84 06 59", "QUALITE_CHEF": "Madame", "NOM_CHEF": "Leclercq", "PRENOM_CHEF": "Sandrine", "RES_ID": "111", "email_publ": "lacoquinid.mouscron@cfwb.be", "lat": 50.7578987, "lng": 3.2174488 }, "geometry": { "type": "Point", "coordinates": [ 3.2174488, 50.7578987 ] } },
{ "type": "Feature", "properties": { "NOM_ETAB_LG": "Ecole primaire d'enseignement spécialisé libre", "CODE_POST": "7700", "NOM_LOC": "MOUSCRON", "ADR_RUE": "Rue de Rolleghem", "ADR_NO": "166", "TEL": "056-33 21 26", "FAX": "056-33 21 26", "QUALITE_CHEF": "Madame", "NOM_CHEF": "Loiselet", "PRENOM_CHEF": "Christelle", "RES_ID": "131", "email_publ": "bengalis.cefem@swing.be", "lat": 50.748938980004709, "lng": 3.2353406851518556 }, "geometry": { "type": "Point", "coordinates": [ 3.235340685151856, 50.748938980004709 ] } },
{ "type": "Feature", "properties": { "NOM_ETAB_LG": "Institut d'enseignement fondamental spécialisé de la Communauté française \"La Roseraie\"", "CODE_POST": "7090", "NOM_LOC": "BRAINE-LE-COMTE", "ADR_RUE": "Avenue de la Houssičre", "ADR_NO": "100", "TEL": "067-63 49 80", "FAX": "067-56 16 34", "QUALITE_CHEF": "Monsieur", "NOM_CHEF": "DEHON", "PRENOM_CHEF": "Ghislain", "RES_ID": "111", "email_publ": null, "lat": 50.610284926721597, "lng": 4.1528807519228197 }, "geometry": { "type": "Point", "coordinates": [ 4.15288075192282, 50.610284926721597 ] } },
{ "type": "Feature", "properties": { "NOM_ETAB_LG": "Enseignement spécialisé primaire de la Communauté française \"L'envolée\"", "CODE_POST": "7110", "NOM_LOC": "HOUDENG-AIMERIES", "ADR_RUE": "Rue du Pensionnat", "ADR_NO": "20", "TEL": "064-28 58 92", "FAX": "064-33 06 44", "QUALITE_CHEF": "Madame", "NOM_CHEF": "GUSTIN", "PRENOM_CHEF": "BEATRICE", "RES_ID": "111", "email_publ": null, "lat": 50.4844352, "lng": 4.1519688 }, "geometry": { "type": "Point", "coordinates": [ 4.1519688, 50.4844352 ] } },
{ "type": "Feature", "properties": { "NOM_ETAB_LG": "Institut médico-pédagogique provincial René Thoné La Louvičre", "CODE_POST": "7100", "NOM_LOC": "LA LOUVIERE", "ADR_RUE": "Rue du Temple", "ADR_NO": "3-5", "TEL": "064-23 60 24", "FAX": "064-26 39 52", "QUALITE_CHEF": "Madame", "NOM_CHEF": "Delforge", "PRENOM_CHEF": "Sabrina", "RES_ID": "122", "email_publ": null, "lat": 50.4754975, "lng": 4.1874641 }, "geometry": { "type": "Point", "coordinates": [ 4.1874641, 50.4754975 ] } },
{ "type": "Feature", "properties": { "NOM_ETAB_LG": "Ecole primaire d'enseignement spécialisé communal \"Le Clair Logis\"", "CODE_POST": "7100", "NOM_LOC": "LA LOUVIERE", "ADR_RUE": "Rue de Baume", "ADR_NO": "114", "TEL": "064-21 73 42", "FAX": "064-21 73 42", "QUALITE_CHEF": "Madame", "NOM_CHEF": "Vankeerbergen", "PRENOM_CHEF": "Sabine", "RES_ID": "123", "email_publ": null, "lat": 50.474234, "lng": 4.2030883 }, "geometry": { "type": "Point", "coordinates": [ 4.2030883, 50.474234 ] } },
{ "type": "Feature", "properties": { "NOM_ETAB_LG": "Enseignement spécialisé primaire libre \"Le Piolet\"", "CODE_POST": "7100", "NOM_LOC": "LA LOUVIERE", "ADR_RUE": "Rue de la Franco-Belge", "ADR_NO": "55", "TEL": "064-26 46 53", "FAX": null, "QUALITE_CHEF": "Madame", "NOM_CHEF": "Bullaert", "PRENOM_CHEF": "Vanessa", "RES_ID": "131", "email_publ": null, "lat": 50.4862616, "lng": 4.2083333 }, "geometry": { "type": "Point", "coordinates": [ 4.2083333, 50.4862616 ] } },
{ "type": "Feature", "properties": { "NOM_ETAB_LG": "Ecole primaire d'enseignement spécialisé de la Commnunauté française", "CODE_POST": "7860", "NOM_LOC": "LESSINES", "ADR_RUE": "Chemin de Papignies", "ADR_NO": "38", "TEL": "068-33 63 11", "FAX": "068-33 63 13", "QUALITE_CHEF": "Madame", "NOM_CHEF": "Caty", "PRENOM_CHEF": "Céline", "RES_ID": "111", "email_publ": "eespcflessines@gmail.com", "lat": 50.7006168, "lng": 3.8244042 }, "geometry": { "type": "Point", "coordinates": [ 3.8244042, 50.7006168 ] } },
{ "type": "Feature", "properties": { "NOM_ETAB_LG": "Ecole primaire spécialisée libre \"Les Audacieux\"", "CODE_POST": "7860", "NOM_LOC": "LESSINES", "ADR_RUE": "Parvis Saint-Roch", "ADR_NO": "18", "TEL": "068-33 45 80", "FAX": null, "QUALITE_CHEF": "Monsieur", "NOM_CHEF": "DELITTE", "PRENOM_CHEF": "Jean-Sébastien", "RES_ID": "131", "email_publ": null, "lat": 50.707449, "lng": 3.8403032 }, "geometry": { "type": "Point", "coordinates": [ 3.8403032, 50.707449 ] } },
{ "type": "Feature", "properties": { "NOM_ETAB_LG": "La Source Enseignement fondamental spécialisé libre", "CODE_POST": "7060", "NOM_LOC": "SOIGNIES", "ADR_RUE": "Chaussée du Roeulx", "ADR_NO": "22", "TEL": "067-33 13 83", "FAX": "067-33 03 43", "QUALITE_CHEF": "Monsieur", "NOM_CHEF": "HAUTENAUVE", "PRENOM_CHEF": "ALAIN", "RES_ID": "131", "email_publ": null, "lat": 50.5602125, "lng": 4.0781367 }, "geometry": { "type": "Point", "coordinates": [ 4.0781367, 50.5602125 ] } },
{ "type": "Feature", "properties": { "NOM_ETAB_LG": "Ecole primaire d'enseignement spécialisé de la Communauté française", "CODE_POST": "6150", "NOM_LOC": "ANDERLUES", "ADR_RUE": "Rue Auguste Guerlement", "ADR_NO": "34", "TEL": "071-52 63 87", "FAX": "071-54 20 51", "QUALITE_CHEF": "Madame", "NOM_CHEF": "CLAES", "PRENOM_CHEF": "Isabelle", "RES_ID": "111", "email_publ": null, "lat": 50.4077145, "lng": 4.2796221 }, "geometry": { "type": "Point", "coordinates": [ 4.2796221, 50.4077145 ] } },
{ "type": "Feature", "properties": { "NOM_ETAB_LG": "Enseignement primaire spécialisé libre \"Ecole Régionale\"", "CODE_POST": "7131", "NOM_LOC": "WAUDREZ", "ADR_RUE": "Rue de Clerfayt", "ADR_NO": "104", "TEL": "064-33 33 41", "FAX": null, "QUALITE_CHEF": "Monsieur", "NOM_CHEF": "Lerminieau", "PRENOM_CHEF": "Laurent", "RES_ID": "131", "email_publ": "ecole.speciale.clerfayt@swing.be", "lat": 50.4142868, "lng": 4.1494585 }, "geometry": { "type": "Point", "coordinates": [ 4.1494585, 50.4142868 ] } },
{ "type": "Feature", "properties": { "NOM_ETAB_LG": "Institut primaire d'enseignement spécialisé libre Sainte-Chrétienne", "CODE_POST": "6460", "NOM_LOC": "CHIMAY", "ADR_RUE": "Boulevard Louise", "ADR_NO": "23", "TEL": "060-21 11 75", "FAX": null, "QUALITE_CHEF": "Madame", "NOM_CHEF": "BOLLEN", "PRENOM_CHEF": "Claudine", "RES_ID": "131", "email_publ": null, "lat": 50.0459125, "lng": 4.3138448 }, "geometry": { "type": "Point", "coordinates": [ 4.3138448, 50.0459125 ] } },
{ "type": "Feature", "properties": { "NOM_ETAB_LG": "Heureux Abri Momignies - Enseignement primaire spécialisé", "CODE_POST": "6590", "NOM_LOC": "MOMIGNIES", "ADR_RUE": "Rue Mahy", "ADR_NO": "11", "TEL": "060-45 90 55", "FAX": "060-51 18 77", "QUALITE_CHEF": "Madame", "NOM_CHEF": "SMET", "PRENOM_CHEF": "CAROLE", "RES_ID": "132", "email_publ": null, "lat": 50.02294865, "lng": 4.1600929980889996 }, "geometry": { "type": "Point", "coordinates": [ 4.160092998089, 50.02294865 ] } },
{ "type": "Feature", "properties": { "NOM_ETAB_LG": "Ecole Pierre Danaux Enseignement fondamental spécialisé libre (CESIT)", "CODE_POST": "6530", "NOM_LOC": "THUIN", "ADR_RUE": "Rue Crombouly", "ADR_NO": "74B", "TEL": "071-59 61 25", "FAX": "071-59 61 25", "QUALITE_CHEF": "Monsieur", "NOM_CHEF": "RENOIR", "PRENOM_CHEF": "ERIC", "RES_ID": "131", "email_publ": null, "lat": 50.3465185, "lng": 4.2865696 }, "geometry": { "type": "Point", "coordinates": [ 4.2865696, 50.3465185 ] } },
{ "type": "Feature", "properties": { "NOM_ETAB_LG": "Enseignement spécialisé primaire de la Communauté française ŕ Nalinnes", "CODE_POST": "6120", "NOM_LOC": "NALINNES", "ADR_RUE": "Rue des Boutis", "ADR_NO": "62", "TEL": "071-21 50 41", "FAX": "071-21 50 23", "QUALITE_CHEF": "Madame", "NOM_CHEF": "Bernier", "PRENOM_CHEF": "Fabienne", "RES_ID": "111", "email_publ": null, "lat": 50.3375257, "lng": 4.4722166 }, "geometry": { "type": "Point", "coordinates": [ 4.4722166, 50.3375257 ] } },
{ "type": "Feature", "properties": { "NOM_ETAB_LG": "Ecole fondamentale d'enseignement spécialisé libre \"La Goélette\"", "CODE_POST": "7730", "NOM_LOC": "LEERS-NORD", "ADR_RUE": "Chemin Mitoyen", "ADR_NO": "12B", "TEL": "056-48 30 50", "FAX": "056-48 30 54", "QUALITE_CHEF": "Madame", "NOM_CHEF": "MARESCAUX", "PRENOM_CHEF": "Sylvie", "RES_ID": "131", "email_publ": "direction@lagoelette.be", "lat": 50.6861748, "lng": 3.2561211 }, "geometry": { "type": "Point", "coordinates": [ 3.2561211, 50.6861748 ] } },
{ "type": "Feature", "properties": { "NOM_ETAB_LG": "Ecole maternelle et primaire d'enseignement spécialisé de la Communauté française", "CODE_POST": "7540", "NOM_LOC": "KAIN", "ADR_RUE": "Rue de Breuze", "ADR_NO": "9B", "TEL": "069-45 24 30", "FAX": "069-23 52 82", "QUALITE_CHEF": "Monsieur", "NOM_CHEF": "DELFOSSE", "PRENOM_CHEF": "FREDERIC", "RES_ID": "111", "email_publ": null, "lat": 50.626686324648603, "lng": 3.4043096764541172 }, "geometry": { "type": "Point", "coordinates": [ 3.404309676454117, 50.626686324648603 ] } },
{ "type": "Feature", "properties": { "NOM_ETAB_LG": "Ecole fondamentale d'enseignement spécialisé du Saulchoir", "CODE_POST": "7503", "NOM_LOC": "FROYENNES", "ADR_RUE": "R des Combattants de Froyennes", "ADR_NO": "47", "TEL": "069-25 33 21", "FAX": "069-25 33 29", "QUALITE_CHEF": "Monsieur", "NOM_CHEF": "DESCHODT", "PRENOM_CHEF": "PHILIPPE", "RES_ID": "131", "email_publ": "saulchoirfondamental@hotmail.com", "lat": 50.626017, "lng": 3.3476997 }, "geometry": { "type": "Point", "coordinates": [ 3.3476997, 50.626017 ] } },
{ "type": "Feature", "properties": { "NOM_ETAB_LG": "Les Colibris Ecole primaire d'enseignement spécialisé libre", "CODE_POST": "7500", "NOM_LOC": "TOURNAI", "ADR_RUE": "Rue du Crampon", "ADR_NO": "43", "TEL": "069-21 10 19", "FAX": "069-21 10 19", "QUALITE_CHEF": "Monsieur", "NOM_CHEF": "ESPEEL", "PRENOM_CHEF": "ETIENNE", "RES_ID": "131", "email_publ": "colibris.tournai@sec.cfwb.be", "lat": 50.6149839, "lng": 3.393377 }, "geometry": { "type": "Point", "coordinates": [ 3.393377, 50.6149839 ] } },
{ "type": "Feature", "properties": { "NOM_ETAB_LG": "Ecole primaire d'enseignement spécialisé de la Communauté française \"La Marelle\"", "CODE_POST": "4540", "NOM_LOC": "AMAY", "ADR_RUE": "Rue Velbruck", "ADR_NO": "22", "TEL": "085-31 23 56", "FAX": "085-31 15 04", "QUALITE_CHEF": "Madame", "NOM_CHEF": "Dubuisson", "PRENOM_CHEF": "Sophie", "RES_ID": "111", "email_publ": "epes.amay@restode.cfwb.be", "lat": 50.5637258, "lng": 5.304484 }, "geometry": { "type": "Point", "coordinates": [ 5.304484, 50.5637258 ] } },
{ "type": "Feature", "properties": { "NOM_ETAB_LG": "Ecole fondamentale spécialisée \"Le Château Vert\"", "CODE_POST": "4500", "NOM_LOC": "BEN-AHIN", "ADR_RUE": "Chemin de Perwez", "ADR_NO": "16", "TEL": "085-61 26 70", "FAX": "085-61 32 41", "QUALITE_CHEF": "Madame", "NOM_CHEF": "BERNARD", "PRENOM_CHEF": "NATHALIE", "RES_ID": "132", "email_publ": "nathaliebernard@skynet.be", "lat": 50.4838244, "lng": 5.1763047 }, "geometry": { "type": "Point", "coordinates": [ 5.1763047, 50.4838244 ] } },
{ "type": "Feature", "properties": { "NOM_ETAB_LG": "Ecole d'enseignement primaire spécialisé libre Sainte-Claire", "CODE_POST": "4500", "NOM_LOC": "HUY", "ADR_RUE": "Rue des Larrons", "ADR_NO": "8", "TEL": "085-21 75 89", "FAX": "085-82 84 46", "QUALITE_CHEF": "Monsieur", "NOM_CHEF": "Coster", "PRENOM_CHEF": "Xavier", "RES_ID": "131", "email_publ": null, "lat": 50.5162758, "lng": 5.2438186 }, "geometry": { "type": "Point", "coordinates": [ 5.2438186, 50.5162758 ] } },
{ "type": "Feature", "properties": { "NOM_ETAB_LG": "Ecole primaire d'enseignement spécialisé libre", "CODE_POST": "4053", "NOM_LOC": "EMBOURG", "ADR_RUE": "Rue Basse Méhagne", "ADR_NO": "4", "TEL": "04-367 45 36", "FAX": "04-246 98 08", "QUALITE_CHEF": "Monsieur", "NOM_CHEF": "Pâques", "PRENOM_CHEF": "Thierry", "RES_ID": "131", "email_publ": "ecolejean23@hotmail.com", "lat": 50.6009507, "lng": 5.6198923 }, "geometry": { "type": "Point", "coordinates": [ 5.6198923, 50.6009507 ] } },
{ "type": "Feature", "properties": { "NOM_ETAB_LG": "Etablissement d'enseignement primaire spécialisé de la Communauté française \"Les Roches\"", "CODE_POST": "4170", "NOM_LOC": "COMBLAIN-AU-PONT", "ADR_RUE": "Rue des Grottes", "ADR_NO": "20", "TEL": "04-369 17 13", "FAX": "04-369 17 34", "QUALITE_CHEF": "Madame", "NOM_CHEF": "BURNOTTE", "PRENOM_CHEF": "FRANCOISE", "RES_ID": "111", "email_publ": null, "lat": 50.4766867, "lng": 5.5732513 }, "geometry": { "type": "Point", "coordinates": [ 5.5732513, 50.4766867 ] } },
{ "type": "Feature", "properties": { "NOM_ETAB_LG": "Etablissement d'enseignement spécialisé primaire et secondaire de la Communauté française \"Henri Rikir\"", "CODE_POST": "4041", "NOM_LOC": "MILMORT", "ADR_RUE": "Rue de Fexhe", "ADR_NO": "76", "TEL": "04-278 56 90", "FAX": "04-278 01 17", "QUALITE_CHEF": "Madame", "NOM_CHEF": "GERARD", "PRENOM_CHEF": "Virginie", "RES_ID": "111", "email_publ": "escf.milmort@sec.cfwb.be", "lat": 50.6893936, "lng": 5.5868592 }, "geometry": { "type": "Point", "coordinates": [ 5.5868592, 50.6893936 ] } },
{ "type": "Feature", "properties": { "NOM_ETAB_LG": "Au Vert-Vinâve - Ecole d'enseignement spécialisé de Type 3", "CODE_POST": "4041", "NOM_LOC": "VOTTEM", "ADR_RUE": "Rue du Bouxthay", "ADR_NO": "181", "TEL": "04-227 50 18", "FAX": null, "QUALITE_CHEF": "Madame", "NOM_CHEF": "Matonnet", "PRENOM_CHEF": "Caroline", "RES_ID": "123", "email_publ": null, "lat": 50.6695257, "lng": 5.5988184 }, "geometry": { "type": "Point", "coordinates": [ 5.5988184, 50.6695257 ] } },
{ "type": "Feature", "properties": { "NOM_ETAB_LG": "Centre Spécialisé - Ecole primaire d'enseignement spécialisé communal", "CODE_POST": "4040", "NOM_LOC": "HERSTAL", "ADR_RUE": "Place Jean Jaurčs", "ADR_NO": "3", "TEL": "04-256 88 40", "FAX": "04-227 09 96", "QUALITE_CHEF": "Madame", "NOM_CHEF": "Krakowski", "PRENOM_CHEF": "Jeannine", "RES_ID": "123", "email_publ": "leon.lhoest@swing.be", "lat": 50.665789034120671, "lng": 5.6301374015969943 }, "geometry": { "type": "Point", "coordinates": [ 5.630137401596994, 50.665789034120671 ] } },
{ "type": "Feature", "properties": { "NOM_ETAB_LG": "Institut \"Etienne Meylaers\" Enseignement spécialisé primaire et secondaire de la Communauté Française", "CODE_POST": "4030", "NOM_LOC": "GRIVEGNEE", "ADR_RUE": "Rue Nicolas Spiroux", "ADR_NO": "62", "TEL": "04-365 92 57", "FAX": "04-365 94 61", "QUALITE_CHEF": "Madame", "NOM_CHEF": "Delhasse", "PRENOM_CHEF": "Rosine", "RES_ID": "111", "email_publ": null, "lat": 50.6256245, "lng": 5.616234 }, "geometry": { "type": "Point", "coordinates": [ 5.616234, 50.6256245 ] } },
{ "type": "Feature", "properties": { "NOM_ETAB_LG": "Ecole fondamentale d'enseignement spécialisé communal Andréa Jadoulle", "CODE_POST": "4031", "NOM_LOC": "ANGLEUR", "ADR_RUE": "Rue de la Vaussale", "ADR_NO": "14", "TEL": "04-365 99 57", "FAX": null, "QUALITE_CHEF": "Madame", "NOM_CHEF": "Galimberti", "PRENOM_CHEF": "Carminda", "RES_ID": "123", "email_publ": "efc.jadoulle@teledisnet.be", "lat": 50.6117184, "lng": 5.5998897 }, "geometry": { "type": "Point", "coordinates": [ 5.5998897, 50.6117184 ] } },
{ "type": "Feature", "properties": { "NOM_ETAB_LG": "Ecole fondamentale spécialisée communale Léona Platel", "CODE_POST": "4000", "NOM_LOC": "LIEGE", "ADR_RUE": "Quai de Wallonie", "ADR_NO": "3", "TEL": "04-227 04 78", "FAX": "04\/227.04.78", "QUALITE_CHEF": "Madame", "NOM_CHEF": "IAPICHINO", "PRENOM_CHEF": "Sabrina", "RES_ID": "123", "email_publ": null, "lat": 50.652443, "lng": 5.6111107 }, "geometry": { "type": "Point", "coordinates": [ 5.6111107, 50.652443 ] } },
{ "type": "Feature", "properties": { "NOM_ETAB_LG": "Ecole fondamentale et secondaire communale spécialisée Type 5 Léopold Mottet", "CODE_POST": "4000", "NOM_LOC": "LIEGE", "ADR_RUE": "Place Sainte-Walburge", "ADR_NO": "1", "TEL": "04-227 79 13", "FAX": "04-227 17 30", "QUALITE_CHEF": "Madame", "NOM_CHEF": "SCHOUTEDEN", "PRENOM_CHEF": "Genevičve", "RES_ID": "123", "email_publ": "sec.mottet@swing.be", "lat": 50.6573516, "lng": 5.5681573347859601 }, "geometry": { "type": "Point", "coordinates": [ 5.56815733478596, 50.6573516 ] } },
{ "type": "Feature", "properties": { "NOM_ETAB_LG": "Ecole fondamentale d'enseignement spécialisé communal Fontainebleau", "CODE_POST": "4000", "NOM_LOC": "LIEGE", "ADR_RUE": "Rue de Fexhe", "ADR_NO": "58", "TEL": "04-226 18 45", "FAX": "04-224 33 41", "QUALITE_CHEF": "Madame", "NOM_CHEF": "DESSIS", "PRENOM_CHEF": "ANNE", "RES_ID": "123", "email_publ": null, "lat": 50.64517005, "lng": 5.5551577433462898 }, "geometry": { "type": "Point", "coordinates": [ 5.55515774334629, 50.64517005 ] } },
{ "type": "Feature", "properties": { "NOM_ETAB_LG": "Ecole primaire d'enseignement spécialisé libre - Castors B", "CODE_POST": "4020", "NOM_LOC": "LIEGE", "ADR_RUE": "Rue Jean d'Outremeuse", "ADR_NO": "57", "TEL": "04-342 38 78", "FAX": "04-342 38 90", "QUALITE_CHEF": "Monsieur", "NOM_CHEF": "HAGELSTEIN", "PRENOM_CHEF": "DIDIER", "RES_ID": "131", "email_publ": null, "lat": 50.6418582, "lng": 5.5876407 }, "geometry": { "type": "Point", "coordinates": [ 5.5876407, 50.6418582 ] } },
{ "type": "Feature", "properties": { "NOM_ETAB_LG": "Ecole primaire d'enseignement spécialisé libre Les Castors", "CODE_POST": "4000", "NOM_LOC": "LIEGE", "ADR_RUE": "Rue Sainte-Marguerite", "ADR_NO": "318", "TEL": "04-226 39 30", "FAX": "04-226 45 57", "QUALITE_CHEF": "Monsieur", "NOM_CHEF": "MATTINA", "PRENOM_CHEF": "CARMELO", "RES_ID": "131", "email_publ": null, "lat": 50.6480971, "lng": 5.5504146 }, "geometry": { "type": "Point", "coordinates": [ 5.5504146, 50.6480971 ] } },
{ "type": "Feature", "properties": { "NOM_ETAB_LG": "Ecole fondamentale d'enseignement spécialisé libre \"La Petite Ecole\"", "CODE_POST": "4420", "NOM_LOC": "MONTEGNEE", "ADR_RUE": "Chaussée Churchill", "ADR_NO": "79", "TEL": "04-263 90 96", "FAX": "04-263 10 74", "QUALITE_CHEF": "Madame", "NOM_CHEF": "PIRSON", "PRENOM_CHEF": "SABINE", "RES_ID": "132", "email_publ": null, "lat": 50.645403, "lng": 5.5262313 }, "geometry": { "type": "Point", "coordinates": [ 5.5262313, 50.645403 ] } },
{ "type": "Feature", "properties": { "NOM_ETAB_LG": "Ecole primaire d'enseignement spécialisé communal \"Trixhes 3\"", "CODE_POST": "4102", "NOM_LOC": "OUGREE", "ADR_RUE": "Rue du Roi Albert", "ADR_NO": "102", "TEL": "04-337 65 03", "FAX": null, "QUALITE_CHEF": "Madame", "NOM_CHEF": "Brisy", "PRENOM_CHEF": "Mylčne", "RES_ID": "123", "email_publ": null, "lat": 50.6009795, "lng": 5.5390591 }, "geometry": { "type": "Point", "coordinates": [ 5.5390591, 50.6009795 ] } },
{ "type": "Feature", "properties": { "NOM_ETAB_LG": "Ecole primaire d'enseignement spécialisé de la Communauté française \"La Glandée\"", "CODE_POST": "4100", "NOM_LOC": "SERAING", "ADR_RUE": "Avenue Davy", "ADR_NO": "3", "TEL": "04-336 58 60", "FAX": "04-338 94 90", "QUALITE_CHEF": "Madame", "NOM_CHEF": "SLOTA", "PRENOM_CHEF": "Isabelle", "RES_ID": "111", "email_publ": "escf@skynet.be", "lat": 50.5816765, "lng": 5.4877927 }, "geometry": { "type": "Point", "coordinates": [ 5.4877927, 50.5816765 ] } },
{ "type": "Feature", "properties": { "NOM_ETAB_LG": "Ecole Primaire Libre Enseignement Spécialisé Sainte-Marie", "CODE_POST": "4100", "NOM_LOC": "SERAING", "ADR_RUE": "Place Merlot", "ADR_NO": "5", "TEL": "04-336 04 30", "FAX": "04-336 04 30", "QUALITE_CHEF": "Madame", "NOM_CHEF": "BOULANGER", "PRENOM_CHEF": "Muriel", "RES_ID": "131", "email_publ": "michel.destine@cyber-stemarie.be", "lat": 50.5863536, "lng": 5.5063705 }, "geometry": { "type": "Point", "coordinates": [ 5.5063705, 50.5863536 ] } },
{ "type": "Feature", "properties": { "NOM_ETAB_LG": "Ecole communale d'enseignement spécialisé primaire \"La Buissonničre\"", "CODE_POST": "4100", "NOM_LOC": "SERAING", "ADR_RUE": "Rue du Petit-Bourgogne", "ADR_NO": "21", "TEL": "04-336 96 32", "FAX": null, "QUALITE_CHEF": "Madame", "NOM_CHEF": "CAPPUCCI", "PRENOM_CHEF": "CLAUDIA", "RES_ID": "123", "email_publ": null, "lat": 50.5970673, "lng": 5.4914119 }, "geometry": { "type": "Point", "coordinates": [ 5.4914119, 50.5970673 ] } },
{ "type": "Feature", "properties": { "NOM_ETAB_LG": "Ecole d'enseignement primaire spécialisé de la Communauté française \"Lieutenant Jacquemin - La Parenthčse\"", "CODE_POST": "4600", "NOM_LOC": "VISE", "ADR_RUE": "Rue de Berneau", "ADR_NO": "16", "TEL": "04-379 76 05", "FAX": "04-379 84 91", "QUALITE_CHEF": "Monsieur", "NOM_CHEF": "HECK", "PRENOM_CHEF": "Johan", "RES_ID": "111", "email_publ": null, "lat": 50.73640425, "lng": 5.7049159243005603 }, "geometry": { "type": "Point", "coordinates": [ 5.70491592430056, 50.73640425 ] } },
{ "type": "Feature", "properties": { "NOM_ETAB_LG": "Ecole d'enseignement spécialisé fondamental de la Communauté française", "CODE_POST": "4671", "NOM_LOC": "SAIVE", "ADR_RUE": "Rue des Champs", "ADR_NO": "1", "TEL": "04-362 65 84", "FAX": "04-362 96 20", "QUALITE_CHEF": "Madame", "NOM_CHEF": "JANSSEN", "PRENOM_CHEF": "Sabrina", "RES_ID": "111", "email_publ": "escf.saive@restode.cfwb.be", "lat": 50.6588482, "lng": 5.6740637 }, "geometry": { "type": "Point", "coordinates": [ 5.6740637, 50.6588482 ] } },
{ "type": "Feature", "properties": { "NOM_ETAB_LG": "Etablissement d'enseignement spécialisé primaire et secondaire de la Communauté française \"L'Envol\"", "CODE_POST": "4400", "NOM_LOC": "FLEMALLE-HAUTE", "ADR_RUE": "Rue du Herdier", "ADR_NO": "6", "TEL": "04-275 58 88", "FAX": "04-275 36 13", "QUALITE_CHEF": "Monsieur", "NOM_CHEF": "NEUFORGE", "PRENOM_CHEF": "Didier", "RES_ID": "111", "email_publ": null, "lat": 50.5963569, "lng": 5.4441209 }, "geometry": { "type": "Point", "coordinates": [ 5.4441209, 50.5963569 ] } },
{ "type": "Feature", "properties": { "NOM_ETAB_LG": "Ecole d'enseignement spécialisé primaire de la Communauté Française", "CODE_POST": "4821", "NOM_LOC": "ANDRIMONT", "ADR_RUE": "Rue Albert de t'Serclaes", "ADR_NO": "58", "TEL": "087-33 92 75", "FAX": "087-33 62 36", "QUALITE_CHEF": "Monsieur", "NOM_CHEF": "VANGRUNDERBEEK", "PRENOM_CHEF": "Karel", "RES_ID": "111", "email_publ": null, "lat": 50.60094, "lng": 5.86482 }, "geometry": { "type": "Point", "coordinates": [ 5.86482, 50.60094 ] } },
{ "type": "Feature", "properties": { "NOM_ETAB_LG": "Ecole primaire d'enseignement spécialisé Saint-Joseph", "CODE_POST": "4830", "NOM_LOC": "LIMBOURG", "ADR_RUE": "Avenue Victor David", "ADR_NO": "12", "TEL": "087-76 47 01", "FAX": "087-76 47 01", "QUALITE_CHEF": "Madame", "NOM_CHEF": "Remacle", "PRENOM_CHEF": "Joëlle", "RES_ID": "131", "email_publ": null, "lat": 50.614604, "lng": 5.944024 }, "geometry": { "type": "Point", "coordinates": [ 5.944024, 50.614604 ] } },
{ "type": "Feature", "properties": { "NOM_ETAB_LG": "Enseignement primaire spécialisé libre \"Les Ecureuils\"", "CODE_POST": "4910", "NOM_LOC": "THEUX", "ADR_RUE": "Rue Hovémont", "ADR_NO": "32", "TEL": "087-54 23 02", "FAX": null, "QUALITE_CHEF": "Monsieur", "NOM_CHEF": "Eisenhuth", "PRENOM_CHEF": "Jean-Pierre", "RES_ID": "131", "email_publ": null, "lat": 50.5336185, "lng": 5.81405730438847 }, "geometry": { "type": "Point", "coordinates": [ 5.81405730438847, 50.5336185 ] } },
{ "type": "Feature", "properties": { "NOM_ETAB_LG": "Ecole primaire d'enseignement spécialisé communal Maurice Heuse", "CODE_POST": "4800", "NOM_LOC": "VERVIERS", "ADR_RUE": "Chaussée de Heusy", "ADR_NO": "98", "TEL": "087-22 98 39", "FAX": "087-23 03 68", "QUALITE_CHEF": "Monsieur", "NOM_CHEF": "RENSONNET", "PRENOM_CHEF": "ALAIN", "RES_ID": "123", "email_publ": null, "lat": 50.5866562, "lng": 5.8630766 }, "geometry": { "type": "Point", "coordinates": [ 5.8630766, 50.5866562 ] } },
{ "type": "Feature", "properties": { "NOM_ETAB_LG": "Etablissement d'enseignement primaire spécialisé Saint-Joseph", "CODE_POST": "4250", "NOM_LOC": "GEER", "ADR_RUE": "Rue Emile Lejeune", "ADR_NO": "1", "TEL": "019-58 81 26", "FAX": "019-58 81 26", "QUALITE_CHEF": "Madame", "NOM_CHEF": "LECOCQ", "PRENOM_CHEF": "Véronique", "RES_ID": "131", "email_publ": "mcpirotte@hotmail.com", "lat": 50.67003505, "lng": 5.1720072189655797 }, "geometry": { "type": "Point", "coordinates": [ 5.17200721896558, 50.67003505 ] } },
{ "type": "Feature", "properties": { "NOM_ETAB_LG": "Institut d'enseignement spécialisé maternel", "CODE_POST": " primaire et secondaire de la Communauté française \"Les Orchidées - Les Lauriers\"", "NOM_LOC": "4280", "ADR_RUE": "HANNUT", "ADR_NO": "Rue de Huy", "TEL": "28", "FAX": "019-51 32 83", "QUALITE_CHEF": "019-51 35 68", "NOM_CHEF": "Madame", "PRENOM_CHEF": "PIRAPREZ", "RES_ID": "Joceline", "email_publ": "111", "lat": 50.657325, "lng": 5.0665424149944442 }, "geometry": { "type": "Point", "coordinates": [ 5.066542414994444, 50.657325000000128 ] } },
{ "type": "Feature", "properties": { "NOM_ETAB_LG": "Ecole primaire d'enseignement spécialisé libre", "CODE_POST": "6700", "NOM_LOC": "ARLON", "ADR_RUE": "Rue de Bastogne", "ADR_NO": "33", "TEL": "063-43 01 72", "FAX": "063-43 01 74", "QUALITE_CHEF": "Madame", "NOM_CHEF": "POSTAL", "PRENOM_CHEF": "MARIANNE", "RES_ID": "131", "email_publ": null, "lat": 49.688273, "lng": 5.8101894 }, "geometry": { "type": "Point", "coordinates": [ 5.8101894, 49.688273 ] } },
{ "type": "Feature", "properties": { "NOM_ETAB_LG": "Ecole fondamentale d'enseignement spécialisé de la Communauté Française \"Croix-Blanche\"", "CODE_POST": "6600", "NOM_LOC": "BASTOGNE", "ADR_RUE": "Rue de la Chapelle", "ADR_NO": "131", "TEL": "061-21 61 63", "FAX": "061-21 73 16", "QUALITE_CHEF": "Monsieur", "NOM_CHEF": "LEYDER", "PRENOM_CHEF": "Bernard", "RES_ID": "111", "email_publ": null, "lat": 49.9926192, "lng": 5.7236246 }, "geometry": { "type": "Point", "coordinates": [ 5.7236246, 49.9926192 ] } },
{ "type": "Feature", "properties": { "NOM_ETAB_LG": "Ecole fondamentale d'enseignement spécialisé libre du Mardasson", "CODE_POST": "6600", "NOM_LOC": "BASTOGNE", "ADR_RUE": "Rue des Maies", "ADR_NO": "29", "TEL": "061-21 23 61", "FAX": "061-21 68 82", "QUALITE_CHEF": "Madame", "NOM_CHEF": "THIRY", "PRENOM_CHEF": "CATHERINE", "RES_ID": "131", "email_publ": null, "lat": 50.0048631, "lng": 5.7156184785876301 }, "geometry": { "type": "Point", "coordinates": [ 5.71561847858763, 50.0048631 ] } },
{ "type": "Feature", "properties": { "NOM_ETAB_LG": "Ecole primaire d'enseignement spécialisé provincial", "CODE_POST": "6661", "NOM_LOC": "MONT-LEZ-HOUFFALIZE", "ADR_RUE": "Dinez", "ADR_NO": "1", "TEL": "061-28 00 11", "FAX": null, "QUALITE_CHEF": "Madame", "NOM_CHEF": "Florence", "PRENOM_CHEF": "OLIVIER", "RES_ID": "122", "email_publ": "epes.montleban@skynet.be", "lat": 50.167262182314388, "lng": 5.7821076376775036 }, "geometry": { "type": "Point", "coordinates": [ 5.782107637677504, 50.167262182314388 ] } },
{ "type": "Feature", "properties": { "NOM_ETAB_LG": "Institut d'enseignement spécialisé primaire et secondaire de la Communauté française", "CODE_POST": "6690", "NOM_LOC": "VIELSALM", "ADR_RUE": "Rue du Château", "ADR_NO": "19", "TEL": "080-21 67 57", "FAX": "080-21 48 49", "QUALITE_CHEF": "Monsieur", "NOM_CHEF": "MASSANGE", "PRENOM_CHEF": "WALTHERE", "RES_ID": "111", "email_publ": "iesps.vielsalm@skynet.be = adresse du secrĂŠtariat", "lat": 50.2882776, "lng": 5.9104961110733498 }, "geometry": { "type": "Point", "coordinates": [ 5.91049611107335, 50.2882776 ] } },
{ "type": "Feature", "properties": { "NOM_ETAB_LG": "Ecole fondamentale d'enseignement spécialisé libre de Clairval", "CODE_POST": "6940", "NOM_LOC": "BARVAUX-SUR-OURTHE", "ADR_RUE": "Terre aux Ris", "ADR_NO": "1", "TEL": "086-32 19 29", "FAX": "086-32 19 29", "QUALITE_CHEF": "Madame", "NOM_CHEF": "GOBBO", "PRENOM_CHEF": "SYLVANA", "RES_ID": "131", "email_publ": null, "lat": 50.3488862, "lng": 5.4925318 }, "geometry": { "type": "Point", "coordinates": [ 5.4925318, 50.3488862 ] } },
{ "type": "Feature", "properties": { "NOM_ETAB_LG": "Institut d'enseignement spécialisé primaire de la Communauté française", "CODE_POST": "6900", "NOM_LOC": "WAHA", "ADR_RUE": "Rue Mionvaux", "ADR_NO": "35", "TEL": "084-31 20 97", "FAX": "084-32 36 88", "QUALITE_CHEF": "Madame", "NOM_CHEF": "Andre", "PRENOM_CHEF": "Dominique", "RES_ID": "111", "email_publ": "epes.marloie@restode.cfwb.be", "lat": 50.1958876, "lng": 5.3089789 }, "geometry": { "type": "Point", "coordinates": [ 5.3089789, 50.1958876 ] } },
{ "type": "Feature", "properties": { "NOM_ETAB_LG": "Ecole primaire d'enseignement spécialisé provincial", "CODE_POST": "6953", "NOM_LOC": "FORRIERES", "ADR_RUE": "Rue des Alliés", "ADR_NO": "32", "TEL": "084-24 47 95", "FAX": "084-24 47 99", "QUALITE_CHEF": "Monsieur", "NOM_CHEF": "Menon", "PRENOM_CHEF": "Patrick", "RES_ID": "122", "email_publ": null, "lat": 50.1354204, "lng": 5.2923606 }, "geometry": { "type": "Point", "coordinates": [ 5.2923606, 50.1354204 ] } },
{ "type": "Feature", "properties": { "NOM_ETAB_LG": "Ecole primaire d'enseignement spécialisé provincial", "CODE_POST": "6760", "NOM_LOC": "ETHE", "ADR_RUE": "Rue Nouvelle", "ADR_NO": "28B", "TEL": "063-58 88 30", "FAX": "063-58 88 35", "QUALITE_CHEF": "XXXX", "NOM_CHEF": "XXXX", "PRENOM_CHEF": "XXXX", "RES_ID": "122", "email_publ": null, "lat": 49.5803596, "lng": 5.5872755 }, "geometry": { "type": "Point", "coordinates": [ 5.5872755, 49.5803596 ] } },
{ "type": "Feature", "properties": { "NOM_ETAB_LG": "Etablissement d'enseignement spécialisé primaire et secondaire de la Communauté française", "CODE_POST": "6762", "NOM_LOC": "SAINT-MARD", "ADR_RUE": "Chemin Morel", "ADR_NO": "71", "TEL": "063-57 85 33", "FAX": "063-57 78 59", "QUALITE_CHEF": "Monsieur", "NOM_CHEF": "FICHET", "PRENOM_CHEF": "Cédric", "RES_ID": "111", "email_publ": "direction@specialise-saintmard.be", "lat": 49.5510972, "lng": 5.5297812358764702 }, "geometry": { "type": "Point", "coordinates": [ 5.52978123587647, 49.5510972 ] } },
{ "type": "Feature", "properties": { "NOM_ETAB_LG": "Ecole fondamentale spécialisée Capucines 1", "CODE_POST": "5580", "NOM_LOC": "ROCHEFORT", "ADR_RUE": "Avenue du Rond-Point", "ADR_NO": "12a", "TEL": "084\/22.11.36", "FAX": null, "QUALITE_CHEF": "Madame", "NOM_CHEF": "FRERES", "PRENOM_CHEF": "Sabrina", "RES_ID": "131", "email_publ": "direction.capucines@skynet.be", "lat": 50.1493497, "lng": 5.2108667 }, "geometry": { "type": "Point", "coordinates": [ 5.2108667, 50.1493497 ] } },
{ "type": "Feature", "properties": { "NOM_ETAB_LG": "Ecole primaire d'enseignement spécialisé communal", "CODE_POST": "5590", "NOM_LOC": "CINEY", "ADR_RUE": "Rue Saint-Pierre", "ADR_NO": "4", "TEL": "083\/21.41.43", "FAX": "083-21 79 42", "QUALITE_CHEF": "Madame", "NOM_CHEF": "Demazy", "PRENOM_CHEF": "Véronique", "RES_ID": "123", "email_publ": null, "lat": 50.2961712, "lng": 5.098921 }, "geometry": { "type": "Point", "coordinates": [ 5.098921, 50.2961712 ] } },
{ "type": "Feature", "properties": { "NOM_ETAB_LG": "Etablissement d'enseignement primaire spécialisé de la Communauté française \"Le Caillou\"", "CODE_POST": "5500", "NOM_LOC": "ANSEREMME", "ADR_RUE": "Avenue Général Hodges", "ADR_NO": "7A", "TEL": "082-22 40 10", "FAX": "082-22 81 91", "QUALITE_CHEF": "Madame", "NOM_CHEF": "POLIART", "PRENOM_CHEF": "Claude", "RES_ID": "111", "email_publ": "le_caillou_ecole@hotmail.com", "lat": 50.2365272, "lng": 4.8947225 }, "geometry": { "type": "Point", "coordinates": [ 4.8947225, 50.2365272 ] } },
{ "type": "Feature", "properties": { "NOM_ETAB_LG": "Saint-Vincent - Institut d'enseignement fondamental spécialisé libre", "CODE_POST": "5530", "NOM_LOC": "YVOIR", "ADR_RUE": "Rue Col Tachet des Combes", "ADR_NO": "15", "TEL": "082-61 43 08", "FAX": "082-61 43 08", "QUALITE_CHEF": "Monsieur", "NOM_CHEF": "CUVELLIER", "PRENOM_CHEF": "ETIENNE", "RES_ID": "131", "email_publ": null, "lat": 50.3269873, "lng": 4.8782269 }, "geometry": { "type": "Point", "coordinates": [ 4.8782269, 50.3269873 ] } },
{ "type": "Feature", "properties": { "NOM_ETAB_LG": "Ecole d'enseignement fondamental spécialisé de la Communauté française \"Peu d'Eau\"", "CODE_POST": "5300", "NOM_LOC": "ANDENNE", "ADR_RUE": "Chaussée de Ciney", "ADR_NO": "246", "TEL": "085-84 33 34", "FAX": "085-84 18 61", "QUALITE_CHEF": "Monsieur", "NOM_CHEF": "Corbaye", "PRENOM_CHEF": "Jean", "RES_ID": "111", "email_publ": null, "lat": 50.4863863, "lng": 5.1029393 }, "geometry": { "type": "Point", "coordinates": [ 5.1029393, 50.4863863 ] } },
{ "type": "Feature", "properties": { "NOM_ETAB_LG": "Institut d'enseignement spécialisé primaire et secondaire de la Communauté française \"Mariette Delahaut\"", "CODE_POST": "5100", "NOM_LOC": "JAMBES", "ADR_RUE": "Rue de Sedent", "ADR_NO": "28", "TEL": "081-33 16 31", "FAX": "081-33 16 34", "QUALITE_CHEF": "Madame", "NOM_CHEF": "Dardenne", "PRENOM_CHEF": "Sophie", "RES_ID": "111", "email_publ": "delahaut.sectionprimaire@skynet.be", "lat": 50.4427012, "lng": 4.8738252 }, "geometry": { "type": "Point", "coordinates": [ 4.8738252, 50.4427012 ] } },
{ "type": "Feature", "properties": { "NOM_ETAB_LG": "Ecole fondamentale d'enseignement spécialisé \"Reumonjoie\"", "CODE_POST": "5020", "NOM_LOC": "MALONNE", "ADR_RUE": "Chemin de Reumont", "ADR_NO": "135", "TEL": "081-45.08.87", "FAX": "081-44 63 70", "QUALITE_CHEF": "Madame", "NOM_CHEF": "CAVRENNE", "PRENOM_CHEF": "Laurence", "RES_ID": "131", "email_publ": null, "lat": 50.4337452, "lng": 4.80198030175558 }, "geometry": { "type": "Point", "coordinates": [ 4.80198030175558, 50.4337452 ] } },
{ "type": "Feature", "properties": { "NOM_ETAB_LG": "Ecole d'enseignement primaire spécialisé Saint-Berthuin", "CODE_POST": "5020", "NOM_LOC": "MALONNE", "ADR_RUE": "Fond de Malonne", "ADR_NO": "120", "TEL": "081-44 04 11", "FAX": "081-44 04 11", "QUALITE_CHEF": "Madame", "NOM_CHEF": "GENICOT", "PRENOM_CHEF": "Martine", "RES_ID": "131", "email_publ": null, "lat": 50.43805055, "lng": 4.7952196457789 }, "geometry": { "type": "Point", "coordinates": [ 4.7952196457789, 50.43805055 ] } },
{ "type": "Feature", "properties": { "NOM_ETAB_LG": "Centre Scolaire Claire d'Assise", "CODE_POST": "5000", "NOM_LOC": "NAMUR", "ADR_RUE": "Avenue Baron Fallon", "ADR_NO": "34", "TEL": "081-63 51 22", "FAX": "081-74 39 49", "QUALITE_CHEF": "Madame", "NOM_CHEF": "De Greve", "PRENOM_CHEF": "Isabelle", "RES_ID": "131", "email_publ": null, "lat": 50.4524665, "lng": 4.8456838 }, "geometry": { "type": "Point", "coordinates": [ 4.8456838, 50.4524665 ] } },
{ "type": "Feature", "properties": { "NOM_ETAB_LG": "Ecole d'enseignement primaire spécialisé de la Communauté française", "CODE_POST": "5030", "NOM_LOC": "GEMBLOUX", "ADR_RUE": "Rue de Mazy", "ADR_NO": "27A", "TEL": "081-61 27 90", "FAX": "081-60 04 42", "QUALITE_CHEF": "Madame", "NOM_CHEF": "Descy", "PRENOM_CHEF": "Anne", "RES_ID": "111", "email_publ": "dir.eespcf.gembloux@sec.cfwb.be", "lat": 50.5572337, "lng": 4.6985674 }, "geometry": { "type": "Point", "coordinates": [ 4.6985674, 50.5572337 ] } },
{ "type": "Feature", "properties": { "NOM_ETAB_LG": "Ecole primaire d'enseignement spécialisé de la Communauté française \"Le Bosquet\"", "CODE_POST": "5060", "NOM_LOC": "AUVELAIS", "ADR_RUE": "Rue du Bosquet", "ADR_NO": "75", "TEL": "071-26 01 90", "FAX": "071-26 01 99", "QUALITE_CHEF": "Madame", "NOM_CHEF": "Lemmens", "PRENOM_CHEF": "Christine", "RES_ID": "111", "email_publ": "lebosquetauvelais@yahoo.fr", "lat": 50.4406742, "lng": 4.6383975 }, "geometry": { "type": "Point", "coordinates": [ 4.6383975, 50.4406742 ] } },
{ "type": "Feature", "properties": { "NOM_ETAB_LG": "Ecole primaire d'enseignement spécialisé de la Communauté française", "CODE_POST": "5660", "NOM_LOC": "MARIEMBOURG", "ADR_RUE": "Chaussée de Roly", "ADR_NO": "15", "TEL": "060-31 15 62", "FAX": "060\/378553", "QUALITE_CHEF": "Monsieur", "NOM_CHEF": "MOREAU", "PRENOM_CHEF": "BERNARD", "RES_ID": "111", "email_publ": null, "lat": 50.1165584, "lng": 4.5325965 }, "geometry": { "type": "Point", "coordinates": [ 4.5325965, 50.1165584 ] } },
{ "type": "Feature", "properties": { "NOM_ETAB_LG": "Etablissement fondamentale d'enseignement spécialisé libre - Institut Saint-Dominique", "CODE_POST": "5620", "NOM_LOC": "FLORENNES", "ADR_RUE": "Place de l'Hôtel de Ville", "ADR_NO": "22", "TEL": "071-68 83 87", "FAX": "071-68 50 26", "QUALITE_CHEF": "Madame", "NOM_CHEF": "MALACORT", "PRENOM_CHEF": "DOMINIQUE", "RES_ID": "131", "email_publ": null, "lat": 50.2510978, "lng": 4.6027962 }, "geometry": { "type": "Point", "coordinates": [ 4.6027962, 50.2510978 ] } },
{ "type": "Feature", "properties": { "NOM_ETAB_LG": "Ecole Abbé Jean-Baptiste Herman Enseignement fondamental spécialisé", "CODE_POST": "5600", "NOM_LOC": "OMEZEE", "ADR_RUE": "Rue d'Omezée", "ADR_NO": "22", "TEL": "082-67 81 99", "FAX": "082-67 81 99", "QUALITE_CHEF": "Monsieur", "NOM_CHEF": "LEURQUIN", "PRENOM_CHEF": "PAUL", "RES_ID": "131", "email_publ": null, "lat": 50.1948891, "lng": 4.6946052 }, "geometry": { "type": "Point", "coordinates": [ 4.6946052, 50.1948891 ] } },
{ "type": "Feature", "properties": { "NOM_ETAB_LG": "Ecole fondamentale d'enseignement spécialisé communal T6-T7 - I.R.H.O.V.", "CODE_POST": "4000", "NOM_LOC": "LIEGE", "ADR_RUE": "Rue Monulphe", "ADR_NO": "78", "TEL": "04-221 14 84", "FAX": "04-232 12 30", "QUALITE_CHEF": "Madame", "NOM_CHEF": "CLEMENT", "PRENOM_CHEF": "ELISABETH", "RES_ID": "123", "email_publ": null, "lat": 50.6400006, "lng": 5.5602596 }, "geometry": { "type": "Point", "coordinates": [ 5.5602596, 50.6400006 ] } },
{ "type": "Feature", "properties": { "NOM_ETAB_LG": "Institut Royal pour Sourds et Aveugles - Enseignement maternel et primaire Type 6 et Type 8", "CODE_POST": "1180", "NOM_LOC": "BRUXELLES", "ADR_RUE": "Chaussée de Waterloo", "ADR_NO": "1508", "TEL": "02-375 47 85", "FAX": "02-375 47 85", "QUALITE_CHEF": "Madame", "NOM_CHEF": "Tyteca", "PRENOM_CHEF": "Caroline", "RES_ID": "131", "email_publ": null, "lat": 50.7823676, "lng": 4.3803923586878204 }, "geometry": { "type": "Point", "coordinates": [ 4.38039235868782, 50.7823676 ] } },
{ "type": "Feature", "properties": { "NOM_ETAB_LG": "Institut d'enseignement spécialisé primaire et secondaire de la Communauté française - Section primaire", "CODE_POST": "7911", "NOM_LOC": "FRASNES-LEZ-BUISSENAL", "ADR_RUE": "Route de Lessines", "ADR_NO": "27", "TEL": "069-86 68 55", "FAX": null, "QUALITE_CHEF": "Madame", "NOM_CHEF": "Valcke", "PRENOM_CHEF": "Martine", "RES_ID": "111", "email_publ": null, "lat": 50.6754489, "lng": 3.6363368 }, "geometry": { "type": "Point", "coordinates": [ 3.6363368, 50.6754489 ] } },
{ "type": "Feature", "properties": { "NOM_ETAB_LG": "Institut Etienne Meylaers Fondamental", "CODE_POST": "4030", "NOM_LOC": "GRIVEGNEE", "ADR_RUE": "Rue Nicolas Spiroux", "ADR_NO": "62", "TEL": null, "FAX": null, "QUALITE_CHEF": "Madame", "NOM_CHEF": "Delhasse", "PRENOM_CHEF": null, "RES_ID": "111", "email_publ": null, "lat": 50.6256245, "lng": 5.616234 }, "geometry": { "type": "Point", "coordinates": [ 5.616234, 50.6256245 ] } },
{ "type": "Feature", "properties": { "NOM_ETAB_LG": "Ecole d'enseignement spécialisé fondamental de la Communauté française", "CODE_POST": "6690", "NOM_LOC": "VIELSALM", "ADR_RUE": "Rue du Château", "ADR_NO": null, "TEL": null, "FAX": null, "QUALITE_CHEF": "Madame", "NOM_CHEF": "Evrard", "PRENOM_CHEF": null, "RES_ID": "111", "email_publ": null, "lat": 50.2883939, "lng": 5.9095071 }, "geometry": { "type": "Point", "coordinates": [ 5.9095071, 50.2883939 ] } },
{ "type": "Feature", "properties": { "NOM_ETAB_LG": "Institut d'enseignement spécialisé primaire et secondaire de la Communauté française \"Mariette Delahaut\" - Section primaire", "CODE_POST": "5100", "NOM_LOC": "JAMBES", "ADR_RUE": "Rue de Sedent", "ADR_NO": "28", "TEL": "081-33 16 30", "FAX": null, "QUALITE_CHEF": "Madame", "NOM_CHEF": "Brasseur", "PRENOM_CHEF": null, "RES_ID": "111", "email_publ": null, "lat": 50.4427012, "lng": 4.8738252 }, "geometry": { "type": "Point", "coordinates": [ 4.8738252, 50.4427012 ] } },
{ "type": "Feature", "properties": { "NOM_ETAB_LG": "Institut d'enseignement spécialisé Alexandre Herlin - Primaire", "CODE_POST": "1082", "NOM_LOC": "BRUXELLES", "ADR_RUE": "Rue de Dilbeek", "ADR_NO": "1", "TEL": "02 465 59 60", "FAX": "02\/4650687", "QUALITE_CHEF": "Madame", "NOM_CHEF": "JEANGOŰT", "PRENOM_CHEF": "Martine", "RES_ID": "121", "email_publ": null, "lat": 50.8621286, "lng": 4.2870577623739798 }, "geometry": { "type": "Point", "coordinates": [ 4.28705776237398, 50.8621286 ] } },
{ "type": "Feature", "properties": { "NOM_ETAB_LG": "Institut provincial d'enseignement spécialisé fondamental", "CODE_POST": "7011", "NOM_LOC": "GHLIN", "ADR_RUE": "Rue du Temple", "ADR_NO": "2", "TEL": "065-40 88 50", "FAX": "065-84 09 95", "QUALITE_CHEF": "Madame", "NOM_CHEF": "TRUSGNACH", "PRENOM_CHEF": "DORINA", "RES_ID": "122", "email_publ": null, "lat": 50.4753175, "lng": 3.9197989 }, "geometry": { "type": "Point", "coordinates": [ 3.9197989, 50.4753175 ] } },
{ "type": "Feature", "properties": { "NOM_ETAB_LG": "Etablissement d'enseignement spécialisé fondamental de la Communauté française", "CODE_POST": "7390", "NOM_LOC": "QUAREGNON", "ADR_RUE": "Rue du Plat Rie", "ADR_NO": "345", "TEL": "065-61 31 82", "FAX": "065-61 31 95", "QUALITE_CHEF": "Madame", "NOM_CHEF": "BUFFE", "PRENOM_CHEF": "GENEVIEVE", "RES_ID": "111", "email_publ": null, "lat": 50.4270599, "lng": 3.856548 }, "geometry": { "type": "Point", "coordinates": [ 3.856548, 50.4270599 ] } },
{ "type": "Feature", "properties": { "NOM_ETAB_LG": "Institut médico-pédagogique provincial René Thoné La Louvičre", "CODE_POST": "7100", "NOM_LOC": "LA LOUVIERE", "ADR_RUE": "Rue du Temple", "ADR_NO": "3-5", "TEL": "064-23 60 20", "FAX": "064-26 39 52", "QUALITE_CHEF": "Madame", "NOM_CHEF": "DANIELEWSKI", "PRENOM_CHEF": "Monique", "RES_ID": "122", "email_publ": null, "lat": 50.4754975, "lng": 4.1874641 }, "geometry": { "type": "Point", "coordinates": [ 4.1874641, 50.4754975 ] } },
{ "type": "Feature", "properties": { "NOM_ETAB_LG": "Institut d'enseignement spécialisé fondamental provincial René Thoné", "CODE_POST": "6030", "NOM_LOC": "MARCHIENNE-AU-PONT", "ADR_RUE": "Rue de Beaumont", "ADR_NO": "266", "TEL": "071-51 13 20", "FAX": "071-56 05 19", "QUALITE_CHEF": "Monsieur", "NOM_CHEF": "LANGLET", "PRENOM_CHEF": "CLAUDE", "RES_ID": "122", "email_publ": null, "lat": 50.4010429, "lng": 4.3951422 }, "geometry": { "type": "Point", "coordinates": [ 4.3951422, 50.4010429 ] } },
{ "type": "Feature", "properties": { "NOM_ETAB_LG": "Ecole Intégrée - Enseignement Fondamental Libre", "CODE_POST": "1200", "NOM_LOC": "BRUXELLES", "ADR_RUE": "Rue de la Rive", "ADR_NO": "99", "TEL": "02-770 04 40", "FAX": "02-772 62 88", "QUALITE_CHEF": "Madame", "NOM_CHEF": "DEVUYST", "PRENOM_CHEF": "BERNADETTE", "RES_ID": "132", "email_publ": null, "lat": 50.8498108, "lng": 4.4444735 }, "geometry": { "type": "Point", "coordinates": [ 4.4444735, 50.8498108 ] } },
{ "type": "Feature", "properties": { "NOM_ETAB_LG": "Etablissement d'enseignement spécialisé primaire et secondaire de la Communauté française - Fondamental", "CODE_POST": "6762", "NOM_LOC": "SAINT-MARD", "ADR_RUE": "Chemin Morel", "ADR_NO": "71", "TEL": "063-57 85 33", "FAX": "063-57 78 59", "QUALITE_CHEF": "Madame", "NOM_CHEF": "ALLARD", "PRENOM_CHEF": "MARTINE", "RES_ID": "111", "email_publ": null, "lat": 49.5510972, "lng": 5.5297812358764702 }, "geometry": { "type": "Point", "coordinates": [ 5.52978123587647, 49.5510972 ] } },
{ "type": "Feature", "properties": { "NOM_ETAB_LG": "Etablissement d'enseignement spécialisé primaire et secondaire de la Communauté française \"Henri Rikir\" - Fondamental", "CODE_POST": "4041", "NOM_LOC": "MILMORT", "ADR_RUE": "Rue de Fexhe", "ADR_NO": "76", "TEL": "04-278 56 99", "FAX": "04-278 01 17", "QUALITE_CHEF": "Monsieur", "NOM_CHEF": "VANDERWECKENE", "PRENOM_CHEF": null, "RES_ID": "111", "email_publ": null, "lat": 50.6893936, "lng": 5.5868592 }, "geometry": { "type": "Point", "coordinates": [ 5.5868592, 50.6893936 ] } },
{ "type": "Feature", "properties": { "NOM_ETAB_LG": "Etablissement d'Enseignement spécialisé primaire et secondaire de la Communauté française", "CODE_POST": "4400", "NOM_LOC": "FLEMALLE-HAUTE", "ADR_RUE": "Rue du Herdier", "ADR_NO": "6", "TEL": "04-275 62 12", "FAX": "04-275 36 13", "QUALITE_CHEF": "Madame", "NOM_CHEF": "BIENERT", "PRENOM_CHEF": "Chantal", "RES_ID": "111", "email_publ": null, "lat": 50.596111180553024, "lng": 5.4449315778192062 }, "geometry": { "type": "Point", "coordinates": [ 5.444931577819206, 50.596111180553024 ] } },
{ "type": "Feature", "properties": { "NOM_ETAB_LG": "Etablissement d'enseignement spécialisé fondamental de la Communauté française", "CODE_POST": "1160", "NOM_LOC": "BRUXELLES", "ADR_RUE": "Avenue Charles Schaller", "ADR_NO": null, "TEL": null, "FAX": null, "QUALITE_CHEF": "Madame", "NOM_CHEF": "Vanderheiden", "PRENOM_CHEF": "Renelde", "RES_ID": "111", "email_publ": "direction@ecoleschaller.org", "lat": 50.8054159, "lng": 4.4402858 }, "geometry": { "type": "Point", "coordinates": [ 4.4402858, 50.8054159 ] } },
{ "type": "Feature", "properties": { "NOM_ETAB_LG": "Etablissement d'enseignement spécialisé primaire de la Communauté française", "CODE_POST": "6200", "NOM_LOC": "CHATELET", "ADR_RUE": "Rue de Loverval", "ADR_NO": "262", "TEL": "071-24 40 01", "FAX": "071-40 26 71", "QUALITE_CHEF": null, "NOM_CHEF": "Declercq", "PRENOM_CHEF": "Christine", "RES_ID": "111", "email_publ": null, "lat": 50.3993722, "lng": 4.509608 }, "geometry": { "type": "Point", "coordinates": [ 4.509608, 50.3993722 ] } },
{ "type": "Feature", "properties": { "NOM_ETAB_LG": "Ecole primaire d'enseignement spécialisé provincial René Thoné", "CODE_POST": "6001", "NOM_LOC": "MARCINELLE", "ADR_RUE": "Rue du Débarcadčre", "ADR_NO": "100", "TEL": "071-44 64 64", "FAX": "071-44 64 74", "QUALITE_CHEF": null, "NOM_CHEF": "Kairet", "PRENOM_CHEF": "Pascale", "RES_ID": "122", "email_publ": null, "lat": 50.3763374787926, "lng": 4.4357861631946554 }, "geometry": { "type": "Point", "coordinates": [ 4.435786163194655, 50.3763374787926 ] } },
{ "type": "Feature", "properties": { "NOM_ETAB_LG": "Enseignement fondamental spécialisé de la Communauté française \"Les Lauriers\"", "CODE_POST": "4280", "NOM_LOC": "HANNUT", "ADR_RUE": "Rue d'Avernas", "ADR_NO": "7", "TEL": "019\/51.19.39", "FAX": "019\/51.10.39", "QUALITE_CHEF": "Madame", "NOM_CHEF": "Ruelens", "PRENOM_CHEF": "Nathalie", "RES_ID": "111", "email_publ": "leslauriers.direction@skynet.be", "lat": 50.67473655, "lng": 5.0792491670280597 }, "geometry": { "type": "Point", "coordinates": [ 5.07924916702806, 50.67473655 ] } },
{ "type": "Feature", "properties": { "NOM_ETAB_LG": "Ecole Escalpade Enseignement Fondamental Spécialisé", "CODE_POST": "1348", "NOM_LOC": "LOUVAIN-LA-NEUVE", "ADR_RUE": "Rue de la Ferme des Bruyčres", "ADR_NO": "26", "TEL": "010 43.98.23", "FAX": null, "QUALITE_CHEF": "Madame", "NOM_CHEF": "Monville", "PRENOM_CHEF": "Juliane", "RES_ID": "131", "email_publ": null, "lat": 50.662118358762626, "lng": 4.6055248154001394 }, "geometry": { "type": "Point", "coordinates": [ 4.605524815400139, 50.662118358762626 ] } },
{ "type": "Feature", "properties": { "NOM_ETAB_LG": "Ecole primaire libre spécialisée La Petite Source", "CODE_POST": "1390", "NOM_LOC": "BOSSUT-GOTTECHAIN", "ADR_RUE": "Chaussée de Wavre", "ADR_NO": "94", "TEL": "010\/86.24.17", "FAX": null, "QUALITE_CHEF": "Madame", "NOM_CHEF": "VAN GHENDT", "PRENOM_CHEF": "Alix", "RES_ID": "131", "email_publ": null, "lat": 50.7615425, "lng": 4.7036368 }, "geometry": { "type": "Point", "coordinates": [ 4.7036368, 50.7615425 ] } },
{ "type": "Feature", "properties": { "NOM_ETAB_LG": "Ecole \"La Colline de l'Eveil\"", "CODE_POST": "4000", "NOM_LOC": "LIEGE", "ADR_RUE": "Boulevard Ernest Solvay", "ADR_NO": "244", "TEL": "04\/273.05.35", "FAX": "04\/358.66.47", "QUALITE_CHEF": "Madame", "NOM_CHEF": "JACQUES", "PRENOM_CHEF": "CHRISTINE", "RES_ID": "123", "email_publ": "oui", "lat": 50.6607202, "lng": 5.5967907 }, "geometry": { "type": "Point", "coordinates": [ 5.5967907, 50.6607202 ] } },
{ "type": "Feature", "properties": { "NOM_ETAB_LG": "Ecole fondamentale spécialisée Crčve-Coeur", "CODE_POST": "4000", "NOM_LOC": "LIEGE", "ADR_RUE": "Rue Crčve-Coeur", "ADR_NO": "1", "TEL": "04\/223.68.17", "FAX": "04\/222.35.19", "QUALITE_CHEF": "Madame", "NOM_CHEF": "Janssens", "PRENOM_CHEF": "Anne", "RES_ID": "123", "email_publ": null, "lat": 50.648353019158584, "lng": 5.5830285843672867 }, "geometry": { "type": "Point", "coordinates": [ 5.583028584367287, 50.648353019158584 ] } },
{ "type": "Feature", "properties": { "NOM_ETAB_LG": "Ecole fondamentale d'enseignement spécialisé Nos Pilifs", "CODE_POST": "1020", "NOM_LOC": "BRUXELLES", "ADR_RUE": "Avenue des Pagodes", "ADR_NO": "212", "TEL": "02\/268.03.71", "FAX": "02\/268.78.15", "QUALITE_CHEF": "Madame", "NOM_CHEF": "Wastiaux", "PRENOM_CHEF": "Hélčne", "RES_ID": "132", "email_publ": null, "lat": 50.89376615, "lng": 4.3693622491876702 }, "geometry": { "type": "Point", "coordinates": [ 4.36936224918767, 50.89376615 ] } },
{ "type": "Feature", "properties": { "NOM_ETAB_LG": "Ecole fondamentale spécialisée Jeanne Rombaut", "CODE_POST": "4000", "NOM_LOC": "LIEGE", "ADR_RUE": "Rue Bonne Nouvelle", "ADR_NO": "7B", "TEL": "043\/58.04.65", "FAX": "04\/358.66.47", "QUALITE_CHEF": "Monsieur", "NOM_CHEF": "PIRLOT", "PRENOM_CHEF": "Didier", "RES_ID": "123", "email_publ": null, "lat": 50.6528036, "lng": 5.5964368 }, "geometry": { "type": "Point", "coordinates": [ 5.5964368, 50.6528036 ] } },
{ "type": "Feature", "properties": { "NOM_ETAB_LG": "Ecole fondamentale spécialisée Capucines 2", "CODE_POST": "5580", "NOM_LOC": "ROCHEFORT", "ADR_RUE": "Avenue du Rond-Point", "ADR_NO": "12B", "TEL": "084\/22.11.36", "FAX": null, "QUALITE_CHEF": "Madame", "NOM_CHEF": "DI STEFANO", "PRENOM_CHEF": "Jeanne", "RES_ID": "131", "email_publ": null, "lat": 50.1493497, "lng": 5.2108667 }, "geometry": { "type": "Point", "coordinates": [ 5.2108667, 50.1493497 ] } },
{ "type": "Feature", "properties": { "NOM_ETAB_LG": "Ecole fondamentale spécialisée Joëlle Robins", "CODE_POST": "4000", "NOM_LOC": "LIEGE", "ADR_RUE": "Quai de Wallonie", "ADR_NO": "2", "TEL": "04\/227.17.02", "FAX": null, "QUALITE_CHEF": "Madame", "NOM_CHEF": "Bertrand", "PRENOM_CHEF": "Evelyne", "RES_ID": "123", "email_publ": null, "lat": 50.652443, "lng": 5.6111107 }, "geometry": { "type": "Point", "coordinates": [ 5.6111107, 50.652443 ] } },
{ "type": "Feature", "properties": { "NOM_ETAB_LG": "Ecole d'enseignement spécialisé fondamental de la Communauté française d'Ixelles Les AsTrôn'autes", "CODE_POST": "1050", "NOM_LOC": "BRUXELLES", "ADR_RUE": "Rue du Trône", "ADR_NO": "111", "TEL": "02-511 15 10", "FAX": "02 511 15 10", "QUALITE_CHEF": "Madame", "NOM_CHEF": "RUL", "PRENOM_CHEF": "Joëlle", "RES_ID": "111", "email_publ": null, "lat": 50.83689845, "lng": 4.3698224608379901 }, "geometry": { "type": "Point", "coordinates": [ 4.36982246083799, 50.83689845 ] } },
{ "type": "Feature", "properties": { "NOM_ETAB_LG": "Ecole l'Escale fondamentale 2", "CODE_POST": "1340", "NOM_LOC": "OTTIGNIES-LOUVAIN-LA-NEUVE", "ADR_RUE": "Avenue Reine Fabiola", "ADR_NO": "9", "TEL": "010\/41 42 33", "FAX": null, "QUALITE_CHEF": "Madame", "NOM_CHEF": "GEUBEL", "PRENOM_CHEF": "Pascale", "RES_ID": "131", "email_publ": null, "lat": 50.6675962, "lng": 4.5599631 }, "geometry": { "type": "Point", "coordinates": [ 4.5599631, 50.6675962 ] } }
]
}
